^C:\USERS\NABIL\DOCUMENTS\VISUAL STUDIO 2015\PROJECTS\OPENGL 2D ENGINE\BENGINE\DEBUG\BENGINE\CAMERA2D.OBJ|C:\USERS\NABIL\DOCUMENTS\VISUAL STUDIO 2015\PROJECTS\OPENGL 2D ENGINE\BENGINE\DEBUG\BENGINE\ENGINE.OBJ|C:\USERS\NABIL\DOCUMENTS\VISUAL STUDIO 2015\PROJECTS\OPENGL 2D ENGINE\BENGINE\DEBUG\BENGINE\ENTITYBASE.OBJ|C:\USERS\NABIL\DOCUMENTS\VISUAL STUDIO 2015\PROJECTS\OPENGL 2D ENGINE\BENGINE\DEBUG\BENGINE\ERRORSUITE.OBJ|C:\USERS\NABIL\DOCUMENTS\VISUAL STUDIO 2015\PROJECTS\OPENGL 2D ENGINE\BENGINE\DEBUG\BENGINE\GLSLPROGRAM.OBJ|C:\USERS\NABIL\DOCUMENTS\VISUAL STUDIO 2015\PROJECTS\OPENGL 2D ENGINE\BENGINE\DEBUG\BENGINE\IMAGELOADER.OBJ|C:\USERS\NABIL\DOCUMENTS\VISUAL STUDIO 2015\PROJECTS\OPENGL 2D ENGINE\BENGINE\DEBUG\BENGINE\INPUTMANAGER.OBJ|C:\USERS\NABIL\DOCUMENTS\VISUAL STUDIO 2015\PROJECTS\OPENGL 2D ENGINE\BENGINE\DEBUG\BENGINE\IOMANAGER.OBJ|C:\USERS\NABIL\DOCUMENTS\VISUAL STUDIO 2015\PROJECTS\OPENGL 2D ENGINE\BENGINE\DEBUG\BENGINE\PARTICLEENGINE2D.OBJ|C:\USERS\NABIL\DOCUMENTS\VISUAL STUDIO 2015\PROJECTS\OPENGL 2D ENGINE\BENGINE\DEBUG\BENGINE\PATICLEBATCH2D.OBJ|C:\USERS\NABIL\DOCUMENTS\VISUAL STUDIO 2015\PROJECTS\OPENGL 2D ENGINE\BENGINE\DEBUG\BENGINE\PHYSICS2D.OBJ|C:\USERS\NABIL\DOCUMENTS\VISUAL STUDIO 2015\PROJECTS\OPENGL 2D ENGINE\BENGINE\DEBUG\BENGINE\RESOURCEMANAGER.OBJ|C:\USERS\NABIL\DOCUMENTS\VISUAL STUDIO 2015\PROJECTS\OPENGL 2D ENGINE\BENGINE\DEBUG\BENGINE\SPRITE.OBJ|C:\USERS\NABIL\DOCUMENTS\VISUAL STUDIO 2015\PROJECTS\OPENGL 2D ENGINE\BENGINE\DEBUG\BENGINE\SPRITEBATCH.OBJ|C:\USERS\NABIL\DOCUMENTS\VISUAL STUDIO 2015\PROJECTS\OPENGL 2D ENGINE\BENGINE\DEBUG\BENGINE\TEXTURECACHE.OBJ|C:\USERS\NABIL\DOCUMENTS\VISUAL STUDIO 2015\PROJECTS\OPENGL 2D ENGINE\BENGINE\DEBUG\BENGINE\TIMING.OBJ|C:\USERS\NABIL\DOCUMENTS\VISUAL STUDIO 2015\PROJECTS\OPENGL 2D ENGINE\BENGINE\DEBUG\BENGINE\UTILITIES.OBJ|C:\USERS\NABIL\DOCUMENTS\VISUAL STUDIO 2015\PROJECTS\OPENGL 2D ENGINE\BENGINE\DEBUG\BENGINE\WINDOW.OBJ
C:\USERS\NABIL\DOCUMENTS\VISUAL STUDIO 2015\PROJECTS\OPENGL 2D ENGINE\BENGINE\DEBUG\BENGINE\CAMERA2D.OBJ
C:\WINDOWS\SYSTEM32\TZRES.DLL
C:\USERS\NABIL\DOCUMENTS\VISUAL STUDIO 2015\PROJECTS\OPENGL 2D ENGINE\BENGINE\DEBUG\BENGINE\ENGINE.OBJ
C:\USERS\NABIL\DOCUMENTS\VISUAL STUDIO 2015\PROJECTS\OPENGL 2D ENGINE\BENGINE\DEBUG\BENGINE\ENTITYBASE.OBJ
C:\USERS\NABIL\DOCUMENTS\VISUAL STUDIO 2015\PROJECTS\OPENGL 2D ENGINE\BENGINE\DEBUG\BENGINE\ERRORSUITE.OBJ
C:\USERS\NABIL\DOCUMENTS\VISUAL STUDIO 2015\PROJECTS\OPENGL 2D ENGINE\BENGINE\DEBUG\BENGINE\GLSLPROGRAM.OBJ
C:\USERS\NABIL\DOCUMENTS\VISUAL STUDIO 2015\PROJECTS\OPENGL 2D ENGINE\BENGINE\DEBUG\BENGINE\IMAGELOADER.OBJ
C:\USERS\NABIL\DOCUMENTS\VISUAL STUDIO 2015\PROJECTS\OPENGL 2D ENGINE\BENGINE\DEBUG\BENGINE\INPUTMANAGER.OBJ
C:\USERS\NABIL\DOCUMENTS\VISUAL STUDIO 2015\PROJECTS\OPENGL 2D ENGINE\BENGINE\DEBUG\BENGINE\IOMANAGER.OBJ
C:\USERS\NABIL\DOCUMENTS\VISUAL STUDIO 2015\PROJECTS\OPENGL 2D ENGINE\BENGINE\DEBUG\BENGINE\PARTICLEENGINE2D.OBJ
C:\USERS\NABIL\DOCUMENTS\VISUAL STUDIO 2015\PROJECTS\OPENGL 2D ENGINE\BENGINE\DEBUG\BENGINE\PATICLEBATCH2D.OBJ
C:\USERS\NABIL\DOCUMENTS\VISUAL STUDIO 2015\PROJECTS\OPENGL 2D ENGINE\BENGINE\DEBUG\BENGINE\PHYSICS2D.OBJ
C:\USERS\NABIL\DOCUMENTS\VISUAL STUDIO 2015\PROJECTS\OPENGL 2D ENGINE\BENGINE\DEBUG\BENGINE\RESOURCEMANAGER.OBJ
C:\USERS\NABIL\DOCUMENTS\VISUAL STUDIO 2015\PROJECTS\OPENGL 2D ENGINE\BENGINE\DEBUG\BENGINE\SPRITE.OBJ
C:\USERS\NABIL\DOCUMENTS\VISUAL STUDIO 2015\PROJECTS\OPENGL 2D ENGINE\BENGINE\DEBUG\BENGINE\SPRITEBATCH.OBJ
C:\USERS\NABIL\DOCUMENTS\VISUAL STUDIO 2015\PROJECTS\OPENGL 2D ENGINE\BENGINE\DEBUG\BENGINE\TEXTURECACHE.OBJ
C:\USERS\NABIL\DOCUMENTS\VISUAL STUDIO 2015\PROJECTS\OPENGL 2D ENGINE\BENGINE\DEBUG\BENGINE\TIMING.OBJ
C:\USERS\NABIL\DOCUMENTS\VISUAL STUDIO 2015\PROJECTS\OPENGL 2D ENGINE\BENGINE\DEBUG\BENGINE\UTILITIES.OBJ
C:\USERS\NABIL\DOCUMENTS\VISUAL STUDIO 2015\PROJECTS\OPENGL 2D ENGINE\BENGINE\DEBUG\BENGINE\WINDOW.OBJ
C:\WINDOWS\GLOBALIZATION\SORTING\SORTDEFAULT.NLS
