^C:\USERS\NABIL\DOCUMENTS\VISUAL STUDIO 2015\PROJECTS\OPENGL 2D ENGINE\ASTEROIDSHOOTER\ASTEROIDSHOOTER.CPP
/c /I"C:\USERS\NABIL\DOCUMENTS\VISUAL STUDIO 2015\PROJECTS\OPENGL 2D ENGINE\INCLUDES/" /I"C:\USERS\NABIL\DOCUMENTS\VISUAL STUDIO 2015\PROJECTS\OPENGL 2D ENGINE\BENGINE/INCLUDES" /I"C:\PROGRAM FILES (X86)\VISUAL LEAK DETECTOR\INCLUDE" /ZI /nologo /W3 /WX- /Od /Oy- /D WIN32 /D _DEBUG /D _CONSOLE /D _UNICODE /D UNICODE /Gm /EHsc /RTC1 /MDd /GS /fp:precise /Zc:wchar_t /Zc:forScope /Zc:inline /Fo"DEBUG\\" /Fd"DEBUG\VC140.PDB" /Gd /TP /analyze- C:\USERS\NABIL\DOCUMENTS\VISUAL STUDIO 2015\PROJECTS\OPENGL 2D ENGINE\ASTEROIDSHOOTER\ASTEROIDSHOOTER.CPP
^C:\USERS\NABIL\DOCUMENTS\VISUAL STUDIO 2015\PROJECTS\OPENGL 2D ENGINE\ASTEROIDSHOOTER\BASEENTITY.CPP
/c /I"C:\USERS\NABIL\DOCUMENTS\VISUAL STUDIO 2015\PROJECTS\OPENGL 2D ENGINE\INCLUDES/" /I"C:\USERS\NABIL\DOCUMENTS\VISUAL STUDIO 2015\PROJECTS\OPENGL 2D ENGINE\BENGINE/INCLUDES" /I"C:\PROGRAM FILES (X86)\VISUAL LEAK DETECTOR\INCLUDE" /ZI /nologo /W3 /WX- /Od /Oy- /D WIN32 /D _DEBUG /D _CONSOLE /D _UNICODE /D UNICODE /Gm /EHsc /RTC1 /MDd /GS /fp:precise /Zc:wchar_t /Zc:forScope /Zc:inline /Fo"DEBUG\\" /Fd"DEBUG\VC140.PDB" /Gd /TP /analyze- C:\USERS\NABIL\DOCUMENTS\VISUAL STUDIO 2015\PROJECTS\OPENGL 2D ENGINE\ASTEROIDSHOOTER\BASEENTITY.CPP
^C:\USERS\NABIL\DOCUMENTS\VISUAL STUDIO 2015\PROJECTS\OPENGL 2D ENGINE\ASTEROIDSHOOTER\ENTITYASTEROID.CPP
/c /I"C:\USERS\NABIL\DOCUMENTS\VISUAL STUDIO 2015\PROJECTS\OPENGL 2D ENGINE\INCLUDES/" /I"C:\USERS\NABIL\DOCUMENTS\VISUAL STUDIO 2015\PROJECTS\OPENGL 2D ENGINE\BENGINE/INCLUDES" /I"C:\PROGRAM FILES (X86)\VISUAL LEAK DETECTOR\INCLUDE" /ZI /nologo /W3 /WX- /Od /Oy- /D WIN32 /D _DEBUG /D _CONSOLE /D _UNICODE /D UNICODE /Gm /EHsc /RTC1 /MDd /GS /fp:precise /Zc:wchar_t /Zc:forScope /Zc:inline /Fo"DEBUG\\" /Fd"DEBUG\VC140.PDB" /Gd /TP /analyze- C:\USERS\NABIL\DOCUMENTS\VISUAL STUDIO 2015\PROJECTS\OPENGL 2D ENGINE\ASTEROIDSHOOTER\ENTITYASTEROID.CPP
^C:\USERS\NABIL\DOCUMENTS\VISUAL STUDIO 2015\PROJECTS\OPENGL 2D ENGINE\ASTEROIDSHOOTER\ENTITYPLAYER.CPP
/c /I"C:\USERS\NABIL\DOCUMENTS\VISUAL STUDIO 2015\PROJECTS\OPENGL 2D ENGINE\INCLUDES/" /I"C:\USERS\NABIL\DOCUMENTS\VISUAL STUDIO 2015\PROJECTS\OPENGL 2D ENGINE\BENGINE/INCLUDES" /I"C:\PROGRAM FILES (X86)\VISUAL LEAK DETECTOR\INCLUDE" /ZI /nologo /W3 /WX- /Od /Oy- /D WIN32 /D _DEBUG /D _CONSOLE /D _UNICODE /D UNICODE /Gm /EHsc /RTC1 /MDd /GS /fp:precise /Zc:wchar_t /Zc:forScope /Zc:inline /Fo"DEBUG\\" /Fd"DEBUG\VC140.PDB" /Gd /TP /analyze- C:\USERS\NABIL\DOCUMENTS\VISUAL STUDIO 2015\PROJECTS\OPENGL 2D ENGINE\ASTEROIDSHOOTER\ENTITYPLAYER.CPP
^C:\USERS\NABIL\DOCUMENTS\VISUAL STUDIO 2015\PROJECTS\OPENGL 2D ENGINE\ASTEROIDSHOOTER\MAIN.CPP
/c /I"C:\USERS\NABIL\DOCUMENTS\VISUAL STUDIO 2015\PROJECTS\OPENGL 2D ENGINE\INCLUDES/" /I"C:\USERS\NABIL\DOCUMENTS\VISUAL STUDIO 2015\PROJECTS\OPENGL 2D ENGINE\BENGINE/INCLUDES" /I"C:\PROGRAM FILES (X86)\VISUAL LEAK DETECTOR\INCLUDE" /ZI /nologo /W3 /WX- /Od /Oy- /D WIN32 /D _DEBUG /D _CONSOLE /D _UNICODE /D UNICODE /Gm /EHsc /RTC1 /MDd /GS /fp:precise /Zc:wchar_t /Zc:forScope /Zc:inline /Fo"DEBUG\\" /Fd"DEBUG\VC140.PDB" /Gd /TP /analyze- C:\USERS\NABIL\DOCUMENTS\VISUAL STUDIO 2015\PROJECTS\OPENGL 2D ENGINE\ASTEROIDSHOOTER\MAIN.CPP
^C:\USERS\NABIL\DOCUMENTS\VISUAL STUDIO 2015\PROJECTS\OPENGL 2D ENGINE\ASTEROIDSHOOTER\MAP.CPP
/c /I"C:\USERS\NABIL\DOCUMENTS\VISUAL STUDIO 2015\PROJECTS\OPENGL 2D ENGINE\INCLUDES/" /I"C:\USERS\NABIL\DOCUMENTS\VISUAL STUDIO 2015\PROJECTS\OPENGL 2D ENGINE\BENGINE/INCLUDES" /I"C:\PROGRAM FILES (X86)\VISUAL LEAK DETECTOR\INCLUDE" /ZI /nologo /W3 /WX- /Od /Oy- /D WIN32 /D _DEBUG /D _CONSOLE /D _UNICODE /D UNICODE /Gm /EHsc /RTC1 /MDd /GS /fp:precise /Zc:wchar_t /Zc:forScope /Zc:inline /Fo"DEBUG\\" /Fd"DEBUG\VC140.PDB" /Gd /TP /analyze- C:\USERS\NABIL\DOCUMENTS\VISUAL STUDIO 2015\PROJECTS\OPENGL 2D ENGINE\ASTEROIDSHOOTER\MAP.CPP
^C:\USERS\NABIL\DOCUMENTS\VISUAL STUDIO 2015\PROJECTS\OPENGL 2D ENGINE\ASTEROIDSHOOTER\MAPBACKGROUND.CPP
/c /I"C:\USERS\NABIL\DOCUMENTS\VISUAL STUDIO 2015\PROJECTS\OPENGL 2D ENGINE\INCLUDES/" /I"C:\USERS\NABIL\DOCUMENTS\VISUAL STUDIO 2015\PROJECTS\OPENGL 2D ENGINE\BENGINE/INCLUDES" /I"C:\PROGRAM FILES (X86)\VISUAL LEAK DETECTOR\INCLUDE" /ZI /nologo /W3 /WX- /Od /Oy- /D WIN32 /D _DEBUG /D _CONSOLE /D _UNICODE /D UNICODE /Gm /EHsc /RTC1 /MDd /GS /fp:precise /Zc:wchar_t /Zc:forScope /Zc:inline /Fo"DEBUG\\" /Fd"DEBUG\VC140.PDB" /Gd /TP /analyze- C:\USERS\NABIL\DOCUMENTS\VISUAL STUDIO 2015\PROJECTS\OPENGL 2D ENGINE\ASTEROIDSHOOTER\MAPBACKGROUND.CPP
^C:\USERS\NABIL\DOCUMENTS\VISUAL STUDIO 2015\PROJECTS\OPENGL 2D ENGINE\ASTEROIDSHOOTER\ENTITYPLANETS.CPP
/c /I"C:\USERS\NABIL\DOCUMENTS\VISUAL STUDIO 2015\PROJECTS\OPENGL 2D ENGINE\INCLUDES/" /I"C:\USERS\NABIL\DOCUMENTS\VISUAL STUDIO 2015\PROJECTS\OPENGL 2D ENGINE\BENGINE/INCLUDES" /I"C:\PROGRAM FILES (X86)\VISUAL LEAK DETECTOR\INCLUDE" /ZI /nologo /W3 /WX- /Od /Oy- /D WIN32 /D _DEBUG /D _CONSOLE /D _UNICODE /D UNICODE /Gm /EHsc /RTC1 /MDd /GS /fp:precise /Zc:wchar_t /Zc:forScope /Zc:inline /Fo"DEBUG\\" /Fd"DEBUG\VC140.PDB" /Gd /TP /analyze- C:\USERS\NABIL\DOCUMENTS\VISUAL STUDIO 2015\PROJECTS\OPENGL 2D ENGINE\ASTEROIDSHOOTER\ENTITYPLANETS.CPP
^C:\USERS\NABIL\DOCUMENTS\VISUAL STUDIO 2015\PROJECTS\OPENGL 2D ENGINE\ASTEROIDSHOOTER\ASTEROIDBASEENTITY.CPP
/c /I"C:\USERS\NABIL\DOCUMENTS\VISUAL STUDIO 2015\PROJECTS\OPENGL 2D ENGINE\INCLUDES/" /I"C:\USERS\NABIL\DOCUMENTS\VISUAL STUDIO 2015\PROJECTS\OPENGL 2D ENGINE\BENGINE/INCLUDES" /I"C:\PROGRAM FILES (X86)\VISUAL LEAK DETECTOR\INCLUDE" /ZI /nologo /W3 /WX- /Od /Oy- /D WIN32 /D _DEBUG /D _CONSOLE /D _UNICODE /D UNICODE /Gm /EHsc /RTC1 /MDd /GS /fp:precise /Zc:wchar_t /Zc:forScope /Zc:inline /Fo"DEBUG\\" /Fd"DEBUG\VC140.PDB" /Gd /TP /analyze- C:\USERS\NABIL\DOCUMENTS\VISUAL STUDIO 2015\PROJECTS\OPENGL 2D ENGINE\ASTEROIDSHOOTER\ASTEROIDBASEENTITY.CPP
^C:\USERS\NABIL\DOCUMENTS\VISUAL STUDIO 2015\PROJECTS\OPENGL 2D ENGINE\ASTEROIDSHOOTER\ENTITYLASER.CPP
/c /I"C:\USERS\NABIL\DOCUMENTS\VISUAL STUDIO 2015\PROJECTS\OPENGL 2D ENGINE\INCLUDES/" /I"C:\USERS\NABIL\DOCUMENTS\VISUAL STUDIO 2015\PROJECTS\OPENGL 2D ENGINE\BENGINE/INCLUDES" /I"C:\PROGRAM FILES (X86)\VISUAL LEAK DETECTOR\INCLUDE" /ZI /nologo /W3 /WX- /Od /Oy- /D WIN32 /D _DEBUG /D _CONSOLE /D _UNICODE /D UNICODE /Gm /EHsc /RTC1 /MDd /GS /fp:precise /Zc:wchar_t /Zc:forScope /Zc:inline /Fo"DEBUG\\" /Fd"DEBUG\VC140.PDB" /Gd /TP /analyze- C:\USERS\NABIL\DOCUMENTS\VISUAL STUDIO 2015\PROJECTS\OPENGL 2D ENGINE\ASTEROIDSHOOTER\ENTITYLASER.CPP
