^C:\USERS\NABIL\DOCUMENTS\VISUAL STUDIO 2015\PROJECTS\OPENGL 2D ENGINE\OPENGL\MAINGAME.CPP
C:\USERS\NABIL\DOCUMENTS\VISUAL STUDIO 2015\PROJECTS\OPENGL 2D ENGINE\OPENGL\INCLUDES\MAINGAME.H
C:\USERS\NABIL\DOCUMENTS\VISUAL STUDIO 2015\PROJECTS\OPENGL 2D ENGINE\INCLUDES\SDL\INCLUDE\SDL.H
C:\USERS\NABIL\DOCUMENTS\VISUAL STUDIO 2015\PROJECTS\OPENGL 2D ENGINE\INCLUDES\SDL\INCLUDE\SDL_MAIN.H
C:\USERS\NABIL\DOCUMENTS\VISUAL STUDIO 2015\PROJECTS\OPENGL 2D ENGINE\INCLUDES\SDL\INCLUDE\SDL_STDINC.H
C:\USERS\NABIL\DOCUMENTS\VISUAL STUDIO 2015\PROJECTS\OPENGL 2D ENGINE\INCLUDES\SDL\INCLUDE\SDL_CONFIG.H
C:\USERS\NABIL\DOCUMENTS\VISUAL STUDIO 2015\PROJECTS\OPENGL 2D ENGINE\INCLUDES\SDL\INCLUDE\SDL_PLATFORM.H
C:\PROGRAM FILES (X86)\WINDOWS KITS\10\INCLUDE\10.0.10586.0\SHARED\WINAPIFAMILY.H
C:\PROGRAM FILES (X86)\WINDOWS KITS\10\INCLUDE\10.0.10586.0\SHARED\WINPACKAGEFAMILY.H
C:\USERS\NABIL\DOCUMENTS\VISUAL STUDIO 2015\PROJECTS\OPENGL 2D ENGINE\INCLUDES\SDL\INCLUDE\BEGIN_CODE.H
C:\USERS\NABIL\DOCUMENTS\VISUAL STUDIO 2015\PROJECTS\OPENGL 2D ENGINE\INCLUDES\SDL\INCLUDE\CLOSE_CODE.H
C:\USERS\NABIL\DOCUMENTS\VISUAL STUDIO 2015\PROJECTS\OPENGL 2D ENGINE\INCLUDES\SDL\INCLUDE\SDL_CONFIG_WINDOWS.H
C:\PROGRAM FILES (X86)\WINDOWS KITS\10\INCLUDE\10.0.10586.0\UCRT\STDDEF.H
C:\PROGRAM FILES (X86)\WINDOWS KITS\10\INCLUDE\10.0.10586.0\UCRT\CORECRT.H
C:\PROGRAM FILES (X86)\MICROSOFT VISUAL STUDIO 14.0\VC\INCLUDE\VCRUNTIME.H
C:\PROGRAM FILES (X86)\MICROSOFT VISUAL STUDIO 14.0\VC\INCLUDE\SAL.H
C:\PROGRAM FILES (X86)\MICROSOFT VISUAL STUDIO 14.0\VC\INCLUDE\CONCURRENCYSAL.H
C:\PROGRAM FILES (X86)\MICROSOFT VISUAL STUDIO 14.0\VC\INCLUDE\VADEFS.H
C:\PROGRAM FILES (X86)\MICROSOFT VISUAL STUDIO 14.0\VC\INCLUDE\STDARG.H
C:\USERS\NABIL\DOCUMENTS\VISUAL STUDIO 2015\PROJECTS\OPENGL 2D ENGINE\INCLUDES\SDL\INCLUDE\SDL_ASSERT.H
C:\USERS\NABIL\DOCUMENTS\VISUAL STUDIO 2015\PROJECTS\OPENGL 2D ENGINE\INCLUDES\SDL\INCLUDE\SDL_ATOMIC.H
C:\USERS\NABIL\DOCUMENTS\VISUAL STUDIO 2015\PROJECTS\OPENGL 2D ENGINE\INCLUDES\SDL\INCLUDE\SDL_AUDIO.H
C:\USERS\NABIL\DOCUMENTS\VISUAL STUDIO 2015\PROJECTS\OPENGL 2D ENGINE\INCLUDES\SDL\INCLUDE\SDL_ERROR.H
C:\USERS\NABIL\DOCUMENTS\VISUAL STUDIO 2015\PROJECTS\OPENGL 2D ENGINE\INCLUDES\SDL\INCLUDE\SDL_ENDIAN.H
C:\USERS\NABIL\DOCUMENTS\VISUAL STUDIO 2015\PROJECTS\OPENGL 2D ENGINE\INCLUDES\SDL\INCLUDE\SDL_MUTEX.H
C:\USERS\NABIL\DOCUMENTS\VISUAL STUDIO 2015\PROJECTS\OPENGL 2D ENGINE\INCLUDES\SDL\INCLUDE\SDL_THREAD.H
C:\PROGRAM FILES (X86)\WINDOWS KITS\10\INCLUDE\10.0.10586.0\UCRT\PROCESS.H
C:\PROGRAM FILES (X86)\WINDOWS KITS\10\INCLUDE\10.0.10586.0\UCRT\CORECRT_STARTUP.H
C:\PROGRAM FILES (X86)\WINDOWS KITS\10\INCLUDE\10.0.10586.0\UCRT\MATH.H
C:\PROGRAM FILES (X86)\MICROSOFT VISUAL STUDIO 14.0\VC\INCLUDE\VCRUNTIME_STARTUP.H
C:\PROGRAM FILES (X86)\MICROSOFT VISUAL STUDIO 14.0\VC\INCLUDE\STDBOOL.H
C:\PROGRAM FILES (X86)\WINDOWS KITS\10\INCLUDE\10.0.10586.0\UCRT\CORECRT_WPROCESS.H
C:\USERS\NABIL\DOCUMENTS\VISUAL STUDIO 2015\PROJECTS\OPENGL 2D ENGINE\INCLUDES\SDL\INCLUDE\SDL_RWOPS.H
C:\USERS\NABIL\DOCUMENTS\VISUAL STUDIO 2015\PROJECTS\OPENGL 2D ENGINE\INCLUDES\SDL\INCLUDE\SDL_CLIPBOARD.H
C:\USERS\NABIL\DOCUMENTS\VISUAL STUDIO 2015\PROJECTS\OPENGL 2D ENGINE\INCLUDES\SDL\INCLUDE\SDL_CPUINFO.H
C:\PROGRAM FILES (X86)\MICROSOFT VISUAL STUDIO 14.0\VC\INCLUDE\INTRIN.H
C:\PROGRAM FILES (X86)\MICROSOFT VISUAL STUDIO 14.0\VC\INCLUDE\SETJMP.H
C:\PROGRAM FILES (X86)\MICROSOFT VISUAL STUDIO 14.0\VC\INCLUDE\IMMINTRIN.H
C:\PROGRAM FILES (X86)\MICROSOFT VISUAL STUDIO 14.0\VC\INCLUDE\WMMINTRIN.H
C:\PROGRAM FILES (X86)\MICROSOFT VISUAL STUDIO 14.0\VC\INCLUDE\NMMINTRIN.H
C:\PROGRAM FILES (X86)\MICROSOFT VISUAL STUDIO 14.0\VC\INCLUDE\SMMINTRIN.H
C:\PROGRAM FILES (X86)\MICROSOFT VISUAL STUDIO 14.0\VC\INCLUDE\TMMINTRIN.H
C:\PROGRAM FILES (X86)\MICROSOFT VISUAL STUDIO 14.0\VC\INCLUDE\PMMINTRIN.H
C:\PROGRAM FILES (X86)\MICROSOFT VISUAL STUDIO 14.0\VC\INCLUDE\EMMINTRIN.H
C:\PROGRAM FILES (X86)\MICROSOFT VISUAL STUDIO 14.0\VC\INCLUDE\XMMINTRIN.H
C:\PROGRAM FILES (X86)\MICROSOFT VISUAL STUDIO 14.0\VC\INCLUDE\MMINTRIN.H
C:\PROGRAM FILES (X86)\WINDOWS KITS\10\INCLUDE\10.0.10586.0\UCRT\MALLOC.H
C:\PROGRAM FILES (X86)\WINDOWS KITS\10\INCLUDE\10.0.10586.0\UCRT\CORECRT_MALLOC.H
C:\PROGRAM FILES (X86)\MICROSOFT VISUAL STUDIO 14.0\VC\INCLUDE\AMMINTRIN.H
C:\PROGRAM FILES (X86)\MICROSOFT VISUAL STUDIO 14.0\VC\INCLUDE\MM3DNOW.H
C:\USERS\NABIL\DOCUMENTS\VISUAL STUDIO 2015\PROJECTS\OPENGL 2D ENGINE\INCLUDES\SDL\INCLUDE\SDL_EVENTS.H
C:\USERS\NABIL\DOCUMENTS\VISUAL STUDIO 2015\PROJECTS\OPENGL 2D ENGINE\INCLUDES\SDL\INCLUDE\SDL_VIDEO.H
C:\USERS\NABIL\DOCUMENTS\VISUAL STUDIO 2015\PROJECTS\OPENGL 2D ENGINE\INCLUDES\SDL\INCLUDE\SDL_PIXELS.H
C:\USERS\NABIL\DOCUMENTS\VISUAL STUDIO 2015\PROJECTS\OPENGL 2D ENGINE\INCLUDES\SDL\INCLUDE\SDL_RECT.H
C:\USERS\NABIL\DOCUMENTS\VISUAL STUDIO 2015\PROJECTS\OPENGL 2D ENGINE\INCLUDES\SDL\INCLUDE\SDL_SURFACE.H
C:\USERS\NABIL\DOCUMENTS\VISUAL STUDIO 2015\PROJECTS\OPENGL 2D ENGINE\INCLUDES\SDL\INCLUDE\SDL_BLENDMODE.H
C:\USERS\NABIL\DOCUMENTS\VISUAL STUDIO 2015\PROJECTS\OPENGL 2D ENGINE\INCLUDES\SDL\INCLUDE\SDL_KEYBOARD.H
C:\USERS\NABIL\DOCUMENTS\VISUAL STUDIO 2015\PROJECTS\OPENGL 2D ENGINE\INCLUDES\SDL\INCLUDE\SDL_KEYCODE.H
C:\USERS\NABIL\DOCUMENTS\VISUAL STUDIO 2015\PROJECTS\OPENGL 2D ENGINE\INCLUDES\SDL\INCLUDE\SDL_SCANCODE.H
C:\USERS\NABIL\DOCUMENTS\VISUAL STUDIO 2015\PROJECTS\OPENGL 2D ENGINE\INCLUDES\SDL\INCLUDE\SDL_MOUSE.H
C:\USERS\NABIL\DOCUMENTS\VISUAL STUDIO 2015\PROJECTS\OPENGL 2D ENGINE\INCLUDES\SDL\INCLUDE\SDL_JOYSTICK.H
C:\USERS\NABIL\DOCUMENTS\VISUAL STUDIO 2015\PROJECTS\OPENGL 2D ENGINE\INCLUDES\SDL\INCLUDE\SDL_GAMECONTROLLER.H
C:\USERS\NABIL\DOCUMENTS\VISUAL STUDIO 2015\PROJECTS\OPENGL 2D ENGINE\INCLUDES\SDL\INCLUDE\SDL_QUIT.H
C:\USERS\NABIL\DOCUMENTS\VISUAL STUDIO 2015\PROJECTS\OPENGL 2D ENGINE\INCLUDES\SDL\INCLUDE\SDL_GESTURE.H
C:\USERS\NABIL\DOCUMENTS\VISUAL STUDIO 2015\PROJECTS\OPENGL 2D ENGINE\INCLUDES\SDL\INCLUDE\SDL_TOUCH.H
C:\USERS\NABIL\DOCUMENTS\VISUAL STUDIO 2015\PROJECTS\OPENGL 2D ENGINE\INCLUDES\SDL\INCLUDE\SDL_FILESYSTEM.H
C:\USERS\NABIL\DOCUMENTS\VISUAL STUDIO 2015\PROJECTS\OPENGL 2D ENGINE\INCLUDES\SDL\INCLUDE\SDL_HAPTIC.H
C:\USERS\NABIL\DOCUMENTS\VISUAL STUDIO 2015\PROJECTS\OPENGL 2D ENGINE\INCLUDES\SDL\INCLUDE\SDL_HINTS.H
C:\USERS\NABIL\DOCUMENTS\VISUAL STUDIO 2015\PROJECTS\OPENGL 2D ENGINE\INCLUDES\SDL\INCLUDE\SDL_LOADSO.H
C:\USERS\NABIL\DOCUMENTS\VISUAL STUDIO 2015\PROJECTS\OPENGL 2D ENGINE\INCLUDES\SDL\INCLUDE\SDL_LOG.H
C:\USERS\NABIL\DOCUMENTS\VISUAL STUDIO 2015\PROJECTS\OPENGL 2D ENGINE\INCLUDES\SDL\INCLUDE\SDL_MESSAGEBOX.H
C:\USERS\NABIL\DOCUMENTS\VISUAL STUDIO 2015\PROJECTS\OPENGL 2D ENGINE\INCLUDES\SDL\INCLUDE\SDL_POWER.H
C:\USERS\NABIL\DOCUMENTS\VISUAL STUDIO 2015\PROJECTS\OPENGL 2D ENGINE\INCLUDES\SDL\INCLUDE\SDL_RENDER.H
C:\USERS\NABIL\DOCUMENTS\VISUAL STUDIO 2015\PROJECTS\OPENGL 2D ENGINE\INCLUDES\SDL\INCLUDE\SDL_SYSTEM.H
C:\USERS\NABIL\DOCUMENTS\VISUAL STUDIO 2015\PROJECTS\OPENGL 2D ENGINE\INCLUDES\SDL\INCLUDE\SDL_TIMER.H
C:\USERS\NABIL\DOCUMENTS\VISUAL STUDIO 2015\PROJECTS\OPENGL 2D ENGINE\INCLUDES\SDL\INCLUDE\SDL_VERSION.H
C:\USERS\NABIL\DOCUMENTS\VISUAL STUDIO 2015\PROJECTS\OPENGL 2D ENGINE\INCLUDES\GL\GLEW.H
C:\PROGRAM FILES (X86)\WINDOWS KITS\10\INCLUDE\10.0.10586.0\UM\GL\GLU.H
C:\PROGRAM FILES (X86)\WINDOWS KITS\10\INCLUDE\10.0.10586.0\UM\GL\GL.H
C:\USERS\NABIL\DOCUMENTS\VISUAL STUDIO 2015\PROJECTS\OPENGL 2D ENGINE\BENGINE\INCLUDES\ENGINE.H
C:\USERS\NABIL\DOCUMENTS\VISUAL STUDIO 2015\PROJECTS\OPENGL 2D ENGINE\BENGINE\INCLUDES\GLSLPROGRAM.H
C:\USERS\NABIL\DOCUMENTS\VISUAL STUDIO 2015\PROJECTS\OPENGL 2D ENGINE\BENGINE\INCLUDES\ERRORSUITE.H
C:\PROGRAM FILES (X86)\MICROSOFT VISUAL STUDIO 14.0\VC\INCLUDE\STRING
C:\PROGRAM FILES (X86)\MICROSOFT VISUAL STUDIO 14.0\VC\INCLUDE\ISTREAM
C:\PROGRAM FILES (X86)\MICROSOFT VISUAL STUDIO 14.0\VC\INCLUDE\OSTREAM
C:\PROGRAM FILES (X86)\MICROSOFT VISUAL STUDIO 14.0\VC\INCLUDE\IOS
C:\PROGRAM FILES (X86)\MICROSOFT VISUAL STUDIO 14.0\VC\INCLUDE\XLOCNUM
C:\PROGRAM FILES (X86)\MICROSOFT VISUAL STUDIO 14.0\VC\INCLUDE\CLIMITS
C:\PROGRAM FILES (X86)\MICROSOFT VISUAL STUDIO 14.0\VC\INCLUDE\YVALS.H
C:\PROGRAM FILES (X86)\MICROSOFT VISUAL STUDIO 14.0\VC\INCLUDE\XKEYCHECK.H
C:\PROGRAM FILES (X86)\MICROSOFT VISUAL STUDIO 14.0\VC\INCLUDE\CRTDEFS.H
C:\PROGRAM FILES (X86)\MICROSOFT VISUAL STUDIO 14.0\VC\INCLUDE\USE_ANSI.H
C:\PROGRAM FILES (X86)\MICROSOFT VISUAL STUDIO 14.0\VC\INCLUDE\LIMITS.H
C:\PROGRAM FILES (X86)\MICROSOFT VISUAL STUDIO 14.0\VC\INCLUDE\CMATH
C:\PROGRAM FILES (X86)\MICROSOFT VISUAL STUDIO 14.0\VC\INCLUDE\XTGMATH.H
C:\PROGRAM FILES (X86)\MICROSOFT VISUAL STUDIO 14.0\VC\INCLUDE\XTR1COMMON
C:\PROGRAM FILES (X86)\MICROSOFT VISUAL STUDIO 14.0\VC\INCLUDE\CSTDLIB
C:\PROGRAM FILES (X86)\WINDOWS KITS\10\INCLUDE\10.0.10586.0\UCRT\STDLIB.H
C:\PROGRAM FILES (X86)\WINDOWS KITS\10\INCLUDE\10.0.10586.0\UCRT\CORECRT_SEARCH.H
C:\PROGRAM FILES (X86)\WINDOWS KITS\10\INCLUDE\10.0.10586.0\UCRT\CORECRT_WSTDLIB.H
C:\PROGRAM FILES (X86)\MICROSOFT VISUAL STUDIO 14.0\VC\INCLUDE\CSTDIO
C:\PROGRAM FILES (X86)\WINDOWS KITS\10\INCLUDE\10.0.10586.0\UCRT\STDIO.H
C:\PROGRAM FILES (X86)\WINDOWS KITS\10\INCLUDE\10.0.10586.0\UCRT\CORECRT_WSTDIO.H
C:\PROGRAM FILES (X86)\WINDOWS KITS\10\INCLUDE\10.0.10586.0\UCRT\CORECRT_STDIO_CONFIG.H
C:\PROGRAM FILES (X86)\MICROSOFT VISUAL STUDIO 14.0\VC\INCLUDE\STREAMBUF
C:\PROGRAM FILES (X86)\MICROSOFT VISUAL STUDIO 14.0\VC\INCLUDE\XIOSBASE
C:\PROGRAM FILES (X86)\MICROSOFT VISUAL STUDIO 14.0\VC\INCLUDE\XLOCALE
C:\PROGRAM FILES (X86)\MICROSOFT VISUAL STUDIO 14.0\VC\INCLUDE\CSTRING
C:\PROGRAM FILES (X86)\WINDOWS KITS\10\INCLUDE\10.0.10586.0\UCRT\STRING.H
C:\PROGRAM FILES (X86)\WINDOWS KITS\10\INCLUDE\10.0.10586.0\UCRT\CORECRT_MEMORY.H
C:\PROGRAM FILES (X86)\WINDOWS KITS\10\INCLUDE\10.0.10586.0\UCRT\CORECRT_MEMCPY_S.H
C:\PROGRAM FILES (X86)\WINDOWS KITS\10\INCLUDE\10.0.10586.0\UCRT\ERRNO.H
C:\PROGRAM FILES (X86)\MICROSOFT VISUAL STUDIO 14.0\VC\INCLUDE\VCRUNTIME_STRING.H
C:\PROGRAM FILES (X86)\WINDOWS KITS\10\INCLUDE\10.0.10586.0\UCRT\CORECRT_WSTRING.H
C:\PROGRAM FILES (X86)\MICROSOFT VISUAL STUDIO 14.0\VC\INCLUDE\STDEXCEPT
C:\PROGRAM FILES (X86)\MICROSOFT VISUAL STUDIO 14.0\VC\INCLUDE\EXCEPTION
C:\PROGRAM FILES (X86)\MICROSOFT VISUAL STUDIO 14.0\VC\INCLUDE\TYPE_TRAITS
C:\PROGRAM FILES (X86)\MICROSOFT VISUAL STUDIO 14.0\VC\INCLUDE\XSTDDEF
C:\PROGRAM FILES (X86)\MICROSOFT VISUAL STUDIO 14.0\VC\INCLUDE\CSTDDEF
C:\PROGRAM FILES (X86)\MICROSOFT VISUAL STUDIO 14.0\VC\INCLUDE\INITIALIZER_LIST
C:\PROGRAM FILES (X86)\MICROSOFT VISUAL STUDIO 14.0\VC\INCLUDE\VCRUNTIME_EXCEPTION.H
C:\PROGRAM FILES (X86)\MICROSOFT VISUAL STUDIO 14.0\VC\INCLUDE\EH.H
C:\PROGRAM FILES (X86)\WINDOWS KITS\10\INCLUDE\10.0.10586.0\UCRT\CORECRT_TERMINATE.H
C:\PROGRAM FILES (X86)\MICROSOFT VISUAL STUDIO 14.0\VC\INCLUDE\XSTRING
C:\PROGRAM FILES (X86)\MICROSOFT VISUAL STUDIO 14.0\VC\INCLUDE\XMEMORY0
C:\PROGRAM FILES (X86)\MICROSOFT VISUAL STUDIO 14.0\VC\INCLUDE\CSTDINT
C:\PROGRAM FILES (X86)\MICROSOFT VISUAL STUDIO 14.0\VC\INCLUDE\STDINT.H
C:\PROGRAM FILES (X86)\MICROSOFT VISUAL STUDIO 14.0\VC\INCLUDE\LIMITS
C:\PROGRAM FILES (X86)\MICROSOFT VISUAL STUDIO 14.0\VC\INCLUDE\YMATH.H
C:\PROGRAM FILES (X86)\MICROSOFT VISUAL STUDIO 14.0\VC\INCLUDE\CFLOAT
C:\PROGRAM FILES (X86)\WINDOWS KITS\10\INCLUDE\10.0.10586.0\UCRT\FLOAT.H
C:\PROGRAM FILES (X86)\MICROSOFT VISUAL STUDIO 14.0\VC\INCLUDE\CWCHAR
C:\PROGRAM FILES (X86)\WINDOWS KITS\10\INCLUDE\10.0.10586.0\UCRT\WCHAR.H
C:\PROGRAM FILES (X86)\WINDOWS KITS\10\INCLUDE\10.0.10586.0\UCRT\CORECRT_WCONIO.H
C:\PROGRAM FILES (X86)\WINDOWS KITS\10\INCLUDE\10.0.10586.0\UCRT\CORECRT_WCTYPE.H
C:\PROGRAM FILES (X86)\WINDOWS KITS\10\INCLUDE\10.0.10586.0\UCRT\CORECRT_WDIRECT.H
C:\PROGRAM FILES (X86)\WINDOWS KITS\10\INCLUDE\10.0.10586.0\UCRT\CORECRT_WIO.H
C:\PROGRAM FILES (X86)\WINDOWS KITS\10\INCLUDE\10.0.10586.0\UCRT\CORECRT_SHARE.H
C:\PROGRAM FILES (X86)\WINDOWS KITS\10\INCLUDE\10.0.10586.0\UCRT\CORECRT_WTIME.H
C:\PROGRAM FILES (X86)\WINDOWS KITS\10\INCLUDE\10.0.10586.0\UCRT\SYS\STAT.H
C:\PROGRAM FILES (X86)\WINDOWS KITS\10\INCLUDE\10.0.10586.0\UCRT\SYS\TYPES.H
C:\PROGRAM FILES (X86)\MICROSOFT VISUAL STUDIO 14.0\VC\INCLUDE\NEW
C:\PROGRAM FILES (X86)\MICROSOFT VISUAL STUDIO 14.0\VC\INCLUDE\VCRUNTIME_NEW.H
C:\PROGRAM FILES (X86)\MICROSOFT VISUAL STUDIO 14.0\VC\INCLUDE\XUTILITY
C:\PROGRAM FILES (X86)\MICROSOFT VISUAL STUDIO 14.0\VC\INCLUDE\UTILITY
C:\PROGRAM FILES (X86)\MICROSOFT VISUAL STUDIO 14.0\VC\INCLUDE\IOSFWD
C:\PROGRAM FILES (X86)\WINDOWS KITS\10\INCLUDE\10.0.10586.0\UCRT\CRTDBG.H
C:\PROGRAM FILES (X86)\MICROSOFT VISUAL STUDIO 14.0\VC\INCLUDE\VCRUNTIME_NEW_DEBUG.H
C:\PROGRAM FILES (X86)\MICROSOFT VISUAL STUDIO 14.0\VC\INCLUDE\XATOMIC0.H
C:\PROGRAM FILES (X86)\MICROSOFT VISUAL STUDIO 14.0\VC\INCLUDE\TYPEINFO
C:\PROGRAM FILES (X86)\MICROSOFT VISUAL STUDIO 14.0\VC\INCLUDE\VCRUNTIME_TYPEINFO.H
C:\PROGRAM FILES (X86)\MICROSOFT VISUAL STUDIO 14.0\VC\INCLUDE\XLOCINFO
C:\PROGRAM FILES (X86)\MICROSOFT VISUAL STUDIO 14.0\VC\INCLUDE\XLOCINFO.H
C:\PROGRAM FILES (X86)\WINDOWS KITS\10\INCLUDE\10.0.10586.0\UCRT\CTYPE.H
C:\PROGRAM FILES (X86)\WINDOWS KITS\10\INCLUDE\10.0.10586.0\UCRT\LOCALE.H
C:\PROGRAM FILES (X86)\MICROSOFT VISUAL STUDIO 14.0\VC\INCLUDE\XFACET
C:\PROGRAM FILES (X86)\MICROSOFT VISUAL STUDIO 14.0\VC\INCLUDE\SYSTEM_ERROR
C:\PROGRAM FILES (X86)\MICROSOFT VISUAL STUDIO 14.0\VC\INCLUDE\CERRNO
C:\PROGRAM FILES (X86)\WINDOWS KITS\10\INCLUDE\10.0.10586.0\UCRT\SHARE.H
C:\PROGRAM FILES (X86)\MICROSOFT VISUAL STUDIO 14.0\VC\INCLUDE\IOSTREAM
C:\PROGRAM FILES (X86)\MICROSOFT VISUAL STUDIO 14.0\VC\INCLUDE\VECTOR
C:\PROGRAM FILES (X86)\MICROSOFT VISUAL STUDIO 14.0\VC\INCLUDE\XMEMORY
C:\PROGRAM FILES (X86)\MICROSOFT VISUAL STUDIO 14.0\VC\INCLUDE\FSTREAM
C:\USERS\NABIL\DOCUMENTS\VISUAL STUDIO 2015\PROJECTS\OPENGL 2D ENGINE\BENGINE\INCLUDES\SPRITE.H
C:\USERS\NABIL\DOCUMENTS\VISUAL STUDIO 2015\PROJECTS\OPENGL 2D ENGINE\BENGINE\INCLUDES\VERTEX.H
C:\USERS\NABIL\DOCUMENTS\VISUAL STUDIO 2015\PROJECTS\OPENGL 2D ENGINE\BENGINE\INCLUDES\GLTEXTURE.H
C:\USERS\NABIL\DOCUMENTS\VISUAL STUDIO 2015\PROJECTS\OPENGL 2D ENGINE\BENGINE\INCLUDES\RESOURCEMANAGER.H
C:\USERS\NABIL\DOCUMENTS\VISUAL STUDIO 2015\PROJECTS\OPENGL 2D ENGINE\BENGINE\INCLUDES\TEXTURECACHE.H
C:\PROGRAM FILES (X86)\MICROSOFT VISUAL STUDIO 14.0\VC\INCLUDE\MAP
C:\PROGRAM FILES (X86)\MICROSOFT VISUAL STUDIO 14.0\VC\INCLUDE\TUPLE
C:\PROGRAM FILES (X86)\MICROSOFT VISUAL STUDIO 14.0\VC\INCLUDE\XTREE
C:\USERS\NABIL\DOCUMENTS\VISUAL STUDIO 2015\PROJECTS\OPENGL 2D ENGINE\BENGINE\INCLUDES\IMAGELOADER.H
C:\USERS\NABIL\DOCUMENTS\VISUAL STUDIO 2015\PROJECTS\OPENGL 2D ENGINE\BENGINE\INCLUDES\WINDOW.H
C:\PROGRAM FILES (X86)\WINDOWS KITS\10\INCLUDE\10.0.10586.0\UM\WINDOWS.H
C:\PROGRAM FILES (X86)\WINDOWS KITS\10\INCLUDE\10.0.10586.0\SHARED\SDKDDKVER.H
C:\PROGRAM FILES (X86)\MICROSOFT VISUAL STUDIO 14.0\VC\INCLUDE\EXCPT.H
C:\PROGRAM FILES (X86)\WINDOWS KITS\10\INCLUDE\10.0.10586.0\SHARED\WINDEF.H
C:\PROGRAM FILES (X86)\WINDOWS KITS\10\INCLUDE\10.0.10586.0\SHARED\MINWINDEF.H
C:\PROGRAM FILES (X86)\WINDOWS KITS\10\INCLUDE\10.0.10586.0\SHARED\SPECSTRINGS.H
C:\PROGRAM FILES (X86)\WINDOWS KITS\10\INCLUDE\10.0.10586.0\SHARED\SPECSTRINGS_STRICT.H
C:\PROGRAM FILES (X86)\WINDOWS KITS\10\INCLUDE\10.0.10586.0\SHARED\SPECSTRINGS_UNDEF.H
C:\PROGRAM FILES (X86)\WINDOWS KITS\10\INCLUDE\10.0.10586.0\SHARED\DRIVERSPECS.H
C:\PROGRAM FILES (X86)\WINDOWS KITS\10\INCLUDE\10.0.10586.0\SHARED\SDV_DRIVERSPECS.H
C:\PROGRAM FILES (X86)\WINDOWS KITS\10\INCLUDE\10.0.10586.0\UM\WINNT.H
C:\PROGRAM FILES (X86)\WINDOWS KITS\10\INCLUDE\10.0.10586.0\SHARED\KERNELSPECS.H
C:\PROGRAM FILES (X86)\WINDOWS KITS\10\INCLUDE\10.0.10586.0\SHARED\BASETSD.H
C:\PROGRAM FILES (X86)\WINDOWS KITS\10\INCLUDE\10.0.10586.0\SHARED\GUIDDEF.H
C:\PROGRAM FILES (X86)\WINDOWS KITS\10\INCLUDE\10.0.10586.0\SHARED\PSHPACK4.H
C:\PROGRAM FILES (X86)\WINDOWS KITS\10\INCLUDE\10.0.10586.0\SHARED\POPPACK.H
C:\PROGRAM FILES (X86)\WINDOWS KITS\10\INCLUDE\10.0.10586.0\SHARED\PSHPACK2.H
C:\PROGRAM FILES (X86)\WINDOWS KITS\10\INCLUDE\10.0.10586.0\SHARED\PSHPACK8.H
C:\PROGRAM FILES (X86)\WINDOWS KITS\10\INCLUDE\10.0.10586.0\SHARED\APISET.H
C:\PROGRAM FILES (X86)\WINDOWS KITS\10\INCLUDE\10.0.10586.0\SHARED\KTMTYPES.H
C:\PROGRAM FILES (X86)\WINDOWS KITS\10\INCLUDE\10.0.10586.0\UM\WINBASE.H
C:\PROGRAM FILES (X86)\WINDOWS KITS\10\INCLUDE\10.0.10586.0\SHARED\APISETCCONV.H
C:\PROGRAM FILES (X86)\WINDOWS KITS\10\INCLUDE\10.0.10586.0\UM\MINWINBASE.H
C:\PROGRAM FILES (X86)\WINDOWS KITS\10\INCLUDE\10.0.10586.0\UM\PROCESSENV.H
C:\PROGRAM FILES (X86)\WINDOWS KITS\10\INCLUDE\10.0.10586.0\UM\FILEAPI.H
C:\PROGRAM FILES (X86)\WINDOWS KITS\10\INCLUDE\10.0.10586.0\UM\DEBUGAPI.H
C:\PROGRAM FILES (X86)\WINDOWS KITS\10\INCLUDE\10.0.10586.0\UM\UTILAPISET.H
C:\PROGRAM FILES (X86)\WINDOWS KITS\10\INCLUDE\10.0.10586.0\UM\HANDLEAPI.H
C:\PROGRAM FILES (X86)\WINDOWS KITS\10\INCLUDE\10.0.10586.0\UM\ERRHANDLINGAPI.H
C:\PROGRAM FILES (X86)\WINDOWS KITS\10\INCLUDE\10.0.10586.0\UM\FIBERSAPI.H
C:\PROGRAM FILES (X86)\WINDOWS KITS\10\INCLUDE\10.0.10586.0\UM\NAMEDPIPEAPI.H
C:\PROGRAM FILES (X86)\WINDOWS KITS\10\INCLUDE\10.0.10586.0\UM\PROFILEAPI.H
C:\PROGRAM FILES (X86)\WINDOWS KITS\10\INCLUDE\10.0.10586.0\UM\HEAPAPI.H
C:\PROGRAM FILES (X86)\WINDOWS KITS\10\INCLUDE\10.0.10586.0\UM\IOAPISET.H
C:\PROGRAM FILES (X86)\WINDOWS KITS\10\INCLUDE\10.0.10586.0\UM\SYNCHAPI.H
C:\PROGRAM FILES (X86)\WINDOWS KITS\10\INCLUDE\10.0.10586.0\UM\INTERLOCKEDAPI.H
C:\PROGRAM FILES (X86)\WINDOWS KITS\10\INCLUDE\10.0.10586.0\UM\PROCESSTHREADSAPI.H
C:\PROGRAM FILES (X86)\WINDOWS KITS\10\INCLUDE\10.0.10586.0\UM\SYSINFOAPI.H
C:\PROGRAM FILES (X86)\WINDOWS KITS\10\INCLUDE\10.0.10586.0\UM\MEMORYAPI.H
C:\PROGRAM FILES (X86)\WINDOWS KITS\10\INCLUDE\10.0.10586.0\UM\ENCLAVEAPI.H
C:\PROGRAM FILES (X86)\WINDOWS KITS\10\INCLUDE\10.0.10586.0\UM\THREADPOOLLEGACYAPISET.H
C:\PROGRAM FILES (X86)\WINDOWS KITS\10\INCLUDE\10.0.10586.0\UM\THREADPOOLAPISET.H
C:\PROGRAM FILES (X86)\WINDOWS KITS\10\INCLUDE\10.0.10586.0\UM\JOBAPI.H
C:\PROGRAM FILES (X86)\WINDOWS KITS\10\INCLUDE\10.0.10586.0\UM\JOBAPI2.H
C:\PROGRAM FILES (X86)\WINDOWS KITS\10\INCLUDE\10.0.10586.0\UM\WOW64APISET.H
C:\PROGRAM FILES (X86)\WINDOWS KITS\10\INCLUDE\10.0.10586.0\UM\LIBLOADERAPI.H
C:\PROGRAM FILES (X86)\WINDOWS KITS\10\INCLUDE\10.0.10586.0\UM\SECURITYBASEAPI.H
C:\PROGRAM FILES (X86)\WINDOWS KITS\10\INCLUDE\10.0.10586.0\UM\NAMESPACEAPI.H
C:\PROGRAM FILES (X86)\WINDOWS KITS\10\INCLUDE\10.0.10586.0\UM\SYSTEMTOPOLOGYAPI.H
C:\PROGRAM FILES (X86)\WINDOWS KITS\10\INCLUDE\10.0.10586.0\UM\PROCESSTOPOLOGYAPI.H
C:\PROGRAM FILES (X86)\WINDOWS KITS\10\INCLUDE\10.0.10586.0\UM\SECURITYAPPCONTAINER.H
C:\PROGRAM FILES (X86)\WINDOWS KITS\10\INCLUDE\10.0.10586.0\UM\REALTIMEAPISET.H
C:\PROGRAM FILES (X86)\WINDOWS KITS\10\INCLUDE\10.0.10586.0\SHARED\WINERROR.H
C:\PROGRAM FILES (X86)\WINDOWS KITS\10\INCLUDE\10.0.10586.0\UM\TIMEZONEAPI.H
C:\PROGRAM FILES (X86)\WINDOWS KITS\10\INCLUDE\10.0.10586.0\UM\WINGDI.H
C:\PROGRAM FILES (X86)\WINDOWS KITS\10\INCLUDE\10.0.10586.0\SHARED\PSHPACK1.H
C:\PROGRAM FILES (X86)\WINDOWS KITS\10\INCLUDE\10.0.10586.0\UM\WINUSER.H
C:\PROGRAM FILES (X86)\WINDOWS KITS\10\INCLUDE\10.0.10586.0\SHARED\TVOUT.H
C:\PROGRAM FILES (X86)\WINDOWS KITS\10\INCLUDE\10.0.10586.0\UM\WINNLS.H
C:\PROGRAM FILES (X86)\WINDOWS KITS\10\INCLUDE\10.0.10586.0\UM\DATETIMEAPI.H
C:\PROGRAM FILES (X86)\WINDOWS KITS\10\INCLUDE\10.0.10586.0\UM\STRINGAPISET.H
C:\PROGRAM FILES (X86)\WINDOWS KITS\10\INCLUDE\10.0.10586.0\UM\WINCON.H
C:\PROGRAM FILES (X86)\WINDOWS KITS\10\INCLUDE\10.0.10586.0\UM\CONSOLEAPI.H
C:\PROGRAM FILES (X86)\WINDOWS KITS\10\INCLUDE\10.0.10586.0\UM\WINVER.H
C:\PROGRAM FILES (X86)\WINDOWS KITS\10\INCLUDE\10.0.10586.0\UM\VERRSRC.H
C:\PROGRAM FILES (X86)\WINDOWS KITS\10\INCLUDE\10.0.10586.0\UM\WINREG.H
C:\PROGRAM FILES (X86)\WINDOWS KITS\10\INCLUDE\10.0.10586.0\UM\REASON.H
C:\PROGRAM FILES (X86)\WINDOWS KITS\10\INCLUDE\10.0.10586.0\UM\WINNETWK.H
C:\PROGRAM FILES (X86)\WINDOWS KITS\10\INCLUDE\10.0.10586.0\SHARED\WNNC.H
C:\PROGRAM FILES (X86)\WINDOWS KITS\10\INCLUDE\10.0.10586.0\SHARED\CDERR.H
C:\PROGRAM FILES (X86)\WINDOWS KITS\10\INCLUDE\10.0.10586.0\UM\DDE.H
C:\PROGRAM FILES (X86)\WINDOWS KITS\10\INCLUDE\10.0.10586.0\UM\DDEML.H
C:\PROGRAM FILES (X86)\WINDOWS KITS\10\INCLUDE\10.0.10586.0\UM\DLGS.H
C:\PROGRAM FILES (X86)\WINDOWS KITS\10\INCLUDE\10.0.10586.0\UM\LZEXPAND.H
C:\PROGRAM FILES (X86)\WINDOWS KITS\10\INCLUDE\10.0.10586.0\UM\MMSYSTEM.H
C:\PROGRAM FILES (X86)\WINDOWS KITS\10\INCLUDE\10.0.10586.0\UM\MMSYSCOM.H
C:\PROGRAM FILES (X86)\WINDOWS KITS\10\INCLUDE\10.0.10586.0\UM\MCIAPI.H
C:\PROGRAM FILES (X86)\WINDOWS KITS\10\INCLUDE\10.0.10586.0\UM\MMISCAPI.H
C:\PROGRAM FILES (X86)\WINDOWS KITS\10\INCLUDE\10.0.10586.0\UM\MMISCAPI2.H
C:\PROGRAM FILES (X86)\WINDOWS KITS\10\INCLUDE\10.0.10586.0\UM\PLAYSOUNDAPI.H
C:\PROGRAM FILES (X86)\WINDOWS KITS\10\INCLUDE\10.0.10586.0\UM\MMEAPI.H
C:\PROGRAM FILES (X86)\WINDOWS KITS\10\INCLUDE\10.0.10586.0\UM\TIMEAPI.H
C:\PROGRAM FILES (X86)\WINDOWS KITS\10\INCLUDE\10.0.10586.0\UM\JOYSTICKAPI.H
C:\PROGRAM FILES (X86)\WINDOWS KITS\10\INCLUDE\10.0.10586.0\UM\NB30.H
C:\PROGRAM FILES (X86)\WINDOWS KITS\10\INCLUDE\10.0.10586.0\SHARED\RPC.H
C:\PROGRAM FILES (X86)\WINDOWS KITS\10\INCLUDE\10.0.10586.0\SHARED\RPCDCE.H
C:\PROGRAM FILES (X86)\WINDOWS KITS\10\INCLUDE\10.0.10586.0\SHARED\RPCDCEP.H
C:\PROGRAM FILES (X86)\WINDOWS KITS\10\INCLUDE\10.0.10586.0\UM\RPCNSI.H
C:\PROGRAM FILES (X86)\WINDOWS KITS\10\INCLUDE\10.0.10586.0\SHARED\RPCNTERR.H
C:\PROGRAM FILES (X86)\WINDOWS KITS\10\INCLUDE\10.0.10586.0\SHARED\RPCASYNC.H
C:\PROGRAM FILES (X86)\WINDOWS KITS\10\INCLUDE\10.0.10586.0\UM\SHELLAPI.H
C:\PROGRAM FILES (X86)\WINDOWS KITS\10\INCLUDE\10.0.10586.0\UM\WINPERF.H
C:\PROGRAM FILES (X86)\WINDOWS KITS\10\INCLUDE\10.0.10586.0\UM\WINSOCK.H
C:\PROGRAM FILES (X86)\WINDOWS KITS\10\INCLUDE\10.0.10586.0\SHARED\INADDR.H
C:\PROGRAM FILES (X86)\WINDOWS KITS\10\INCLUDE\10.0.10586.0\UM\WINCRYPT.H
C:\PROGRAM FILES (X86)\WINDOWS KITS\10\INCLUDE\10.0.10586.0\SHARED\BCRYPT.H
C:\PROGRAM FILES (X86)\WINDOWS KITS\10\INCLUDE\10.0.10586.0\UM\NCRYPT.H
C:\PROGRAM FILES (X86)\WINDOWS KITS\10\INCLUDE\10.0.10586.0\UM\DPAPI.H
C:\PROGRAM FILES (X86)\WINDOWS KITS\10\INCLUDE\10.0.10586.0\UM\WINEFS.H
C:\PROGRAM FILES (X86)\WINDOWS KITS\10\INCLUDE\10.0.10586.0\UM\WINSCARD.H
C:\PROGRAM FILES (X86)\WINDOWS KITS\10\INCLUDE\10.0.10586.0\SHARED\WTYPES.H
C:\PROGRAM FILES (X86)\WINDOWS KITS\10\INCLUDE\10.0.10586.0\SHARED\RPCNDR.H
C:\PROGRAM FILES (X86)\WINDOWS KITS\10\INCLUDE\10.0.10586.0\UM\RPCNSIP.H
C:\PROGRAM FILES (X86)\WINDOWS KITS\10\INCLUDE\10.0.10586.0\SHARED\RPCSAL.H
C:\PROGRAM FILES (X86)\WINDOWS KITS\10\INCLUDE\10.0.10586.0\SHARED\WTYPESBASE.H
C:\PROGRAM FILES (X86)\WINDOWS KITS\10\INCLUDE\10.0.10586.0\UM\WINIOCTL.H
C:\PROGRAM FILES (X86)\WINDOWS KITS\10\INCLUDE\10.0.10586.0\SHARED\WINSMCRD.H
C:\PROGRAM FILES (X86)\WINDOWS KITS\10\INCLUDE\10.0.10586.0\UM\WINSPOOL.H
C:\PROGRAM FILES (X86)\WINDOWS KITS\10\INCLUDE\10.0.10586.0\UM\PRSHT.H
C:\PROGRAM FILES (X86)\WINDOWS KITS\10\INCLUDE\10.0.10586.0\UM\OLE2.H
C:\PROGRAM FILES (X86)\WINDOWS KITS\10\INCLUDE\10.0.10586.0\UM\OBJBASE.H
C:\PROGRAM FILES (X86)\WINDOWS KITS\10\INCLUDE\10.0.10586.0\UM\COMBASEAPI.H
C:\PROGRAM FILES (X86)\WINDOWS KITS\10\INCLUDE\10.0.10586.0\UM\UNKNWNBASE.H
C:\PROGRAM FILES (X86)\WINDOWS KITS\10\INCLUDE\10.0.10586.0\UM\OBJIDLBASE.H
C:\PROGRAM FILES (X86)\WINDOWS KITS\10\INCLUDE\10.0.10586.0\UM\CGUID.H
C:\PROGRAM FILES (X86)\WINDOWS KITS\10\INCLUDE\10.0.10586.0\UM\COML2API.H
C:\PROGRAM FILES (X86)\WINDOWS KITS\10\INCLUDE\10.0.10586.0\UM\OBJIDL.H
C:\PROGRAM FILES (X86)\WINDOWS KITS\10\INCLUDE\10.0.10586.0\UM\UNKNWN.H
C:\PROGRAM FILES (X86)\WINDOWS KITS\10\INCLUDE\10.0.10586.0\UM\PROPIDLBASE.H
C:\PROGRAM FILES (X86)\WINDOWS KITS\10\INCLUDE\10.0.10586.0\UM\OAIDL.H
C:\PROGRAM FILES (X86)\WINDOWS KITS\10\INCLUDE\10.0.10586.0\UM\URLMON.H
C:\PROGRAM FILES (X86)\WINDOWS KITS\10\INCLUDE\10.0.10586.0\UM\OLEIDL.H
C:\PROGRAM FILES (X86)\WINDOWS KITS\10\INCLUDE\10.0.10586.0\UM\SERVPROV.H
C:\PROGRAM FILES (X86)\WINDOWS KITS\10\INCLUDE\10.0.10586.0\UM\MSXML.H
C:\PROGRAM FILES (X86)\WINDOWS KITS\10\INCLUDE\10.0.10586.0\UM\PROPIDL.H
C:\PROGRAM FILES (X86)\WINDOWS KITS\10\INCLUDE\10.0.10586.0\UM\OLEAUTO.H
C:\PROGRAM FILES (X86)\WINDOWS KITS\10\INCLUDE\10.0.10586.0\UM\COMMDLG.H
C:\PROGRAM FILES (X86)\WINDOWS KITS\10\INCLUDE\10.0.10586.0\SHARED\STRALIGN.H
C:\PROGRAM FILES (X86)\WINDOWS KITS\10\INCLUDE\10.0.10586.0\UM\WINSVC.H
C:\PROGRAM FILES (X86)\WINDOWS KITS\10\INCLUDE\10.0.10586.0\UM\MCX.H
C:\PROGRAM FILES (X86)\WINDOWS KITS\10\INCLUDE\10.0.10586.0\UM\IMM.H
C:\PROGRAM FILES (X86)\WINDOWS KITS\10\INCLUDE\10.0.10586.0\UM\IME_CMODES.H
C:\USERS\NABIL\DOCUMENTS\VISUAL STUDIO 2015\PROJECTS\OPENGL 2D ENGINE\BENGINE\INCLUDES\CAMERA2D.H
C:\USERS\NABIL\DOCUMENTS\VISUAL STUDIO 2015\PROJECTS\OPENGL 2D ENGINE\INCLUDES\GLM\GLM.HPP
C:\USERS\NABIL\DOCUMENTS\VISUAL STUDIO 2015\PROJECTS\OPENGL 2D ENGINE\INCLUDES\GLM\DETAIL\_FIXES.HPP
C:\PROGRAM FILES (X86)\MICROSOFT VISUAL STUDIO 14.0\VC\INCLUDE\CASSERT
C:\PROGRAM FILES (X86)\WINDOWS KITS\10\INCLUDE\10.0.10586.0\UCRT\ASSERT.H
C:\USERS\NABIL\DOCUMENTS\VISUAL STUDIO 2015\PROJECTS\OPENGL 2D ENGINE\INCLUDES\GLM\FWD.HPP
C:\USERS\NABIL\DOCUMENTS\VISUAL STUDIO 2015\PROJECTS\OPENGL 2D ENGINE\INCLUDES\GLM\DETAIL\TYPE_INT.HPP
C:\USERS\NABIL\DOCUMENTS\VISUAL STUDIO 2015\PROJECTS\OPENGL 2D ENGINE\INCLUDES\GLM\DETAIL\SETUP.HPP
C:\USERS\NABIL\DOCUMENTS\VISUAL STUDIO 2015\PROJECTS\OPENGL 2D ENGINE\INCLUDES\GLM\DETAIL\TYPE_FLOAT.HPP
C:\USERS\NABIL\DOCUMENTS\VISUAL STUDIO 2015\PROJECTS\OPENGL 2D ENGINE\INCLUDES\GLM\DETAIL\TYPE_VEC.HPP
C:\USERS\NABIL\DOCUMENTS\VISUAL STUDIO 2015\PROJECTS\OPENGL 2D ENGINE\INCLUDES\GLM\DETAIL\PRECISION.HPP
C:\USERS\NABIL\DOCUMENTS\VISUAL STUDIO 2015\PROJECTS\OPENGL 2D ENGINE\INCLUDES\GLM\DETAIL\TYPE_MAT.HPP
C:\USERS\NABIL\DOCUMENTS\VISUAL STUDIO 2015\PROJECTS\OPENGL 2D ENGINE\INCLUDES\GLM\VEC2.HPP
C:\USERS\NABIL\DOCUMENTS\VISUAL STUDIO 2015\PROJECTS\OPENGL 2D ENGINE\INCLUDES\GLM\DETAIL\TYPE_VEC2.HPP
C:\USERS\NABIL\DOCUMENTS\VISUAL STUDIO 2015\PROJECTS\OPENGL 2D ENGINE\INCLUDES\GLM\DETAIL\TYPE_VEC2.INL
C:\USERS\NABIL\DOCUMENTS\VISUAL STUDIO 2015\PROJECTS\OPENGL 2D ENGINE\INCLUDES\GLM\VEC3.HPP
C:\USERS\NABIL\DOCUMENTS\VISUAL STUDIO 2015\PROJECTS\OPENGL 2D ENGINE\INCLUDES\GLM\DETAIL\TYPE_VEC3.HPP
C:\USERS\NABIL\DOCUMENTS\VISUAL STUDIO 2015\PROJECTS\OPENGL 2D ENGINE\INCLUDES\GLM\DETAIL\TYPE_VEC3.INL
C:\USERS\NABIL\DOCUMENTS\VISUAL STUDIO 2015\PROJECTS\OPENGL 2D ENGINE\INCLUDES\GLM\VEC4.HPP
C:\USERS\NABIL\DOCUMENTS\VISUAL STUDIO 2015\PROJECTS\OPENGL 2D ENGINE\INCLUDES\GLM\DETAIL\TYPE_VEC4.HPP
C:\USERS\NABIL\DOCUMENTS\VISUAL STUDIO 2015\PROJECTS\OPENGL 2D ENGINE\INCLUDES\GLM\DETAIL\TYPE_VEC4.INL
C:\USERS\NABIL\DOCUMENTS\VISUAL STUDIO 2015\PROJECTS\OPENGL 2D ENGINE\INCLUDES\GLM\DETAIL\TYPE_VEC4_SSE2.INL
C:\USERS\NABIL\DOCUMENTS\VISUAL STUDIO 2015\PROJECTS\OPENGL 2D ENGINE\INCLUDES\GLM\MAT2X2.HPP
C:\USERS\NABIL\DOCUMENTS\VISUAL STUDIO 2015\PROJECTS\OPENGL 2D ENGINE\INCLUDES\GLM\DETAIL\TYPE_MAT2X2.HPP
C:\USERS\NABIL\DOCUMENTS\VISUAL STUDIO 2015\PROJECTS\OPENGL 2D ENGINE\INCLUDES\GLM\DETAIL\TYPE_MAT2X2.INL
C:\USERS\NABIL\DOCUMENTS\VISUAL STUDIO 2015\PROJECTS\OPENGL 2D ENGINE\INCLUDES\GLM\MAT2X3.HPP
C:\USERS\NABIL\DOCUMENTS\VISUAL STUDIO 2015\PROJECTS\OPENGL 2D ENGINE\INCLUDES\GLM\DETAIL\TYPE_MAT2X3.HPP
C:\USERS\NABIL\DOCUMENTS\VISUAL STUDIO 2015\PROJECTS\OPENGL 2D ENGINE\INCLUDES\GLM\DETAIL\TYPE_MAT2X3.INL
C:\USERS\NABIL\DOCUMENTS\VISUAL STUDIO 2015\PROJECTS\OPENGL 2D ENGINE\INCLUDES\GLM\MAT2X4.HPP
C:\USERS\NABIL\DOCUMENTS\VISUAL STUDIO 2015\PROJECTS\OPENGL 2D ENGINE\INCLUDES\GLM\DETAIL\TYPE_MAT2X4.HPP
C:\USERS\NABIL\DOCUMENTS\VISUAL STUDIO 2015\PROJECTS\OPENGL 2D ENGINE\INCLUDES\GLM\DETAIL\TYPE_MAT2X4.INL
C:\USERS\NABIL\DOCUMENTS\VISUAL STUDIO 2015\PROJECTS\OPENGL 2D ENGINE\INCLUDES\GLM\MAT3X2.HPP
C:\USERS\NABIL\DOCUMENTS\VISUAL STUDIO 2015\PROJECTS\OPENGL 2D ENGINE\INCLUDES\GLM\DETAIL\TYPE_MAT3X2.HPP
C:\USERS\NABIL\DOCUMENTS\VISUAL STUDIO 2015\PROJECTS\OPENGL 2D ENGINE\INCLUDES\GLM\DETAIL\TYPE_MAT3X2.INL
C:\USERS\NABIL\DOCUMENTS\VISUAL STUDIO 2015\PROJECTS\OPENGL 2D ENGINE\INCLUDES\GLM\MAT3X3.HPP
C:\USERS\NABIL\DOCUMENTS\VISUAL STUDIO 2015\PROJECTS\OPENGL 2D ENGINE\INCLUDES\GLM\DETAIL\TYPE_MAT3X3.HPP
C:\USERS\NABIL\DOCUMENTS\VISUAL STUDIO 2015\PROJECTS\OPENGL 2D ENGINE\INCLUDES\GLM\DETAIL\TYPE_MAT3X3.INL
C:\USERS\NABIL\DOCUMENTS\VISUAL STUDIO 2015\PROJECTS\OPENGL 2D ENGINE\INCLUDES\GLM\MAT3X4.HPP
C:\USERS\NABIL\DOCUMENTS\VISUAL STUDIO 2015\PROJECTS\OPENGL 2D ENGINE\INCLUDES\GLM\DETAIL\TYPE_MAT3X4.HPP
C:\USERS\NABIL\DOCUMENTS\VISUAL STUDIO 2015\PROJECTS\OPENGL 2D ENGINE\INCLUDES\GLM\DETAIL\TYPE_MAT3X4.INL
C:\USERS\NABIL\DOCUMENTS\VISUAL STUDIO 2015\PROJECTS\OPENGL 2D ENGINE\INCLUDES\GLM\MAT4X2.HPP
C:\USERS\NABIL\DOCUMENTS\VISUAL STUDIO 2015\PROJECTS\OPENGL 2D ENGINE\INCLUDES\GLM\DETAIL\TYPE_MAT4X2.HPP
C:\USERS\NABIL\DOCUMENTS\VISUAL STUDIO 2015\PROJECTS\OPENGL 2D ENGINE\INCLUDES\GLM\DETAIL\TYPE_MAT4X2.INL
C:\USERS\NABIL\DOCUMENTS\VISUAL STUDIO 2015\PROJECTS\OPENGL 2D ENGINE\INCLUDES\GLM\MAT4X3.HPP
C:\USERS\NABIL\DOCUMENTS\VISUAL STUDIO 2015\PROJECTS\OPENGL 2D ENGINE\INCLUDES\GLM\DETAIL\TYPE_MAT4X3.HPP
C:\USERS\NABIL\DOCUMENTS\VISUAL STUDIO 2015\PROJECTS\OPENGL 2D ENGINE\INCLUDES\GLM\DETAIL\TYPE_MAT4X3.INL
C:\USERS\NABIL\DOCUMENTS\VISUAL STUDIO 2015\PROJECTS\OPENGL 2D ENGINE\INCLUDES\GLM\MAT4X4.HPP
C:\USERS\NABIL\DOCUMENTS\VISUAL STUDIO 2015\PROJECTS\OPENGL 2D ENGINE\INCLUDES\GLM\DETAIL\TYPE_MAT4X4.HPP
C:\USERS\NABIL\DOCUMENTS\VISUAL STUDIO 2015\PROJECTS\OPENGL 2D ENGINE\INCLUDES\GLM\DETAIL\TYPE_MAT4X4.INL
C:\USERS\NABIL\DOCUMENTS\VISUAL STUDIO 2015\PROJECTS\OPENGL 2D ENGINE\INCLUDES\GLM\TRIGONOMETRIC.HPP
C:\USERS\NABIL\DOCUMENTS\VISUAL STUDIO 2015\PROJECTS\OPENGL 2D ENGINE\INCLUDES\GLM\DETAIL\FUNC_TRIGONOMETRIC.HPP
C:\USERS\NABIL\DOCUMENTS\VISUAL STUDIO 2015\PROJECTS\OPENGL 2D ENGINE\INCLUDES\GLM\DETAIL\FUNC_TRIGONOMETRIC.INL
C:\USERS\NABIL\DOCUMENTS\VISUAL STUDIO 2015\PROJECTS\OPENGL 2D ENGINE\INCLUDES\GLM\DETAIL\_VECTORIZE.HPP
C:\USERS\NABIL\DOCUMENTS\VISUAL STUDIO 2015\PROJECTS\OPENGL 2D ENGINE\INCLUDES\GLM\DETAIL\TYPE_VEC1.HPP
C:\USERS\NABIL\DOCUMENTS\VISUAL STUDIO 2015\PROJECTS\OPENGL 2D ENGINE\INCLUDES\GLM\DETAIL\TYPE_VEC1.INL
C:\USERS\NABIL\DOCUMENTS\VISUAL STUDIO 2015\PROJECTS\OPENGL 2D ENGINE\INCLUDES\GLM\EXPONENTIAL.HPP
C:\USERS\NABIL\DOCUMENTS\VISUAL STUDIO 2015\PROJECTS\OPENGL 2D ENGINE\INCLUDES\GLM\DETAIL\FUNC_EXPONENTIAL.HPP
C:\USERS\NABIL\DOCUMENTS\VISUAL STUDIO 2015\PROJECTS\OPENGL 2D ENGINE\INCLUDES\GLM\DETAIL\FUNC_EXPONENTIAL.INL
C:\USERS\NABIL\DOCUMENTS\VISUAL STUDIO 2015\PROJECTS\OPENGL 2D ENGINE\INCLUDES\GLM\DETAIL\FUNC_VECTOR_RELATIONAL.HPP
C:\USERS\NABIL\DOCUMENTS\VISUAL STUDIO 2015\PROJECTS\OPENGL 2D ENGINE\INCLUDES\GLM\DETAIL\FUNC_VECTOR_RELATIONAL.INL
C:\USERS\NABIL\DOCUMENTS\VISUAL STUDIO 2015\PROJECTS\OPENGL 2D ENGINE\INCLUDES\GLM\COMMON.HPP
C:\USERS\NABIL\DOCUMENTS\VISUAL STUDIO 2015\PROJECTS\OPENGL 2D ENGINE\INCLUDES\GLM\DETAIL\FUNC_COMMON.HPP
C:\USERS\NABIL\DOCUMENTS\VISUAL STUDIO 2015\PROJECTS\OPENGL 2D ENGINE\INCLUDES\GLM\DETAIL\FUNC_COMMON.INL
C:\USERS\NABIL\DOCUMENTS\VISUAL STUDIO 2015\PROJECTS\OPENGL 2D ENGINE\INCLUDES\GLM\PACKING.HPP
C:\USERS\NABIL\DOCUMENTS\VISUAL STUDIO 2015\PROJECTS\OPENGL 2D ENGINE\INCLUDES\GLM\DETAIL\FUNC_PACKING.HPP
C:\USERS\NABIL\DOCUMENTS\VISUAL STUDIO 2015\PROJECTS\OPENGL 2D ENGINE\INCLUDES\GLM\DETAIL\FUNC_PACKING.INL
C:\USERS\NABIL\DOCUMENTS\VISUAL STUDIO 2015\PROJECTS\OPENGL 2D ENGINE\INCLUDES\GLM\DETAIL\TYPE_HALF.HPP
C:\USERS\NABIL\DOCUMENTS\VISUAL STUDIO 2015\PROJECTS\OPENGL 2D ENGINE\INCLUDES\GLM\DETAIL\TYPE_HALF.INL
C:\USERS\NABIL\DOCUMENTS\VISUAL STUDIO 2015\PROJECTS\OPENGL 2D ENGINE\INCLUDES\GLM\GEOMETRIC.HPP
C:\USERS\NABIL\DOCUMENTS\VISUAL STUDIO 2015\PROJECTS\OPENGL 2D ENGINE\INCLUDES\GLM\DETAIL\FUNC_GEOMETRIC.HPP
C:\USERS\NABIL\DOCUMENTS\VISUAL STUDIO 2015\PROJECTS\OPENGL 2D ENGINE\INCLUDES\GLM\DETAIL\FUNC_GEOMETRIC.INL
C:\USERS\NABIL\DOCUMENTS\VISUAL STUDIO 2015\PROJECTS\OPENGL 2D ENGINE\INCLUDES\GLM\MATRIX.HPP
C:\USERS\NABIL\DOCUMENTS\VISUAL STUDIO 2015\PROJECTS\OPENGL 2D ENGINE\INCLUDES\GLM\DETAIL\FUNC_MATRIX.HPP
C:\USERS\NABIL\DOCUMENTS\VISUAL STUDIO 2015\PROJECTS\OPENGL 2D ENGINE\INCLUDES\GLM\DETAIL\FUNC_MATRIX.INL
C:\USERS\NABIL\DOCUMENTS\VISUAL STUDIO 2015\PROJECTS\OPENGL 2D ENGINE\INCLUDES\GLM\VECTOR_RELATIONAL.HPP
C:\USERS\NABIL\DOCUMENTS\VISUAL STUDIO 2015\PROJECTS\OPENGL 2D ENGINE\INCLUDES\GLM\INTEGER.HPP
C:\USERS\NABIL\DOCUMENTS\VISUAL STUDIO 2015\PROJECTS\OPENGL 2D ENGINE\INCLUDES\GLM\DETAIL\FUNC_INTEGER.HPP
C:\USERS\NABIL\DOCUMENTS\VISUAL STUDIO 2015\PROJECTS\OPENGL 2D ENGINE\INCLUDES\GLM\DETAIL\FUNC_INTEGER.INL
C:\USERS\NABIL\DOCUMENTS\VISUAL STUDIO 2015\PROJECTS\OPENGL 2D ENGINE\INCLUDES\GLM\GTC\MATRIX_TRANSFORM.HPP
C:\USERS\NABIL\DOCUMENTS\VISUAL STUDIO 2015\PROJECTS\OPENGL 2D ENGINE\INCLUDES\GLM\GTC\CONSTANTS.HPP
C:\USERS\NABIL\DOCUMENTS\VISUAL STUDIO 2015\PROJECTS\OPENGL 2D ENGINE\INCLUDES\GLM\GTC\CONSTANTS.INL
C:\USERS\NABIL\DOCUMENTS\VISUAL STUDIO 2015\PROJECTS\OPENGL 2D ENGINE\INCLUDES\GLM\GTC\MATRIX_TRANSFORM.INL
C:\USERS\NABIL\DOCUMENTS\VISUAL STUDIO 2015\PROJECTS\OPENGL 2D ENGINE\BENGINE\INCLUDES\SPRITEBATCH.H
C:\PROGRAM FILES (X86)\MICROSOFT VISUAL STUDIO 14.0\VC\INCLUDE\ALGORITHM
C:\USERS\NABIL\DOCUMENTS\VISUAL STUDIO 2015\PROJECTS\OPENGL 2D ENGINE\BENGINE\INCLUDES\INPUTMANAGER.H
C:\PROGRAM FILES (X86)\MICROSOFT VISUAL STUDIO 14.0\VC\INCLUDE\UNORDERED_MAP
C:\PROGRAM FILES (X86)\MICROSOFT VISUAL STUDIO 14.0\VC\INCLUDE\XHASH
C:\PROGRAM FILES (X86)\MICROSOFT VISUAL STUDIO 14.0\VC\INCLUDE\LIST
C:\USERS\NABIL\DOCUMENTS\VISUAL STUDIO 2015\PROJECTS\OPENGL 2D ENGINE\BENGINE\INCLUDES\TIMING.H
C:\USERS\NABIL\DOCUMENTS\VISUAL STUDIO 2015\PROJECTS\OPENGL 2D ENGINE\OPENGL\INCLUDES\BULLET.H
C:\PROGRAM FILES (X86)\MICROSOFT VISUAL STUDIO 14.0\VC\BIN\1033\CLUI.DLL
C:\WINDOWS\GLOBALIZATION\SORTING\SORTDEFAULT.NLS
C:\WINDOWS\SYSTEM32\TZRES.DLL
^C:\USERS\NABIL\DOCUMENTS\VISUAL STUDIO 2015\PROJECTS\OPENGL 2D ENGINE\OPENGL\MAIN.CPP
C:\USERS\NABIL\DOCUMENTS\VISUAL STUDIO 2015\PROJECTS\OPENGL 2D ENGINE\OPENGL\INCLUDES\MAINGAME.H
C:\USERS\NABIL\DOCUMENTS\VISUAL STUDIO 2015\PROJECTS\OPENGL 2D ENGINE\INCLUDES\SDL\INCLUDE\SDL.H
C:\USERS\NABIL\DOCUMENTS\VISUAL STUDIO 2015\PROJECTS\OPENGL 2D ENGINE\INCLUDES\SDL\INCLUDE\SDL_MAIN.H
C:\USERS\NABIL\DOCUMENTS\VISUAL STUDIO 2015\PROJECTS\OPENGL 2D ENGINE\INCLUDES\SDL\INCLUDE\SDL_STDINC.H
C:\USERS\NABIL\DOCUMENTS\VISUAL STUDIO 2015\PROJECTS\OPENGL 2D ENGINE\INCLUDES\SDL\INCLUDE\SDL_CONFIG.H
C:\USERS\NABIL\DOCUMENTS\VISUAL STUDIO 2015\PROJECTS\OPENGL 2D ENGINE\INCLUDES\SDL\INCLUDE\SDL_PLATFORM.H
C:\PROGRAM FILES (X86)\WINDOWS KITS\10\INCLUDE\10.0.10586.0\SHARED\WINAPIFAMILY.H
C:\PROGRAM FILES (X86)\WINDOWS KITS\10\INCLUDE\10.0.10586.0\SHARED\WINPACKAGEFAMILY.H
C:\USERS\NABIL\DOCUMENTS\VISUAL STUDIO 2015\PROJECTS\OPENGL 2D ENGINE\INCLUDES\SDL\INCLUDE\BEGIN_CODE.H
C:\USERS\NABIL\DOCUMENTS\VISUAL STUDIO 2015\PROJECTS\OPENGL 2D ENGINE\INCLUDES\SDL\INCLUDE\CLOSE_CODE.H
C:\USERS\NABIL\DOCUMENTS\VISUAL STUDIO 2015\PROJECTS\OPENGL 2D ENGINE\INCLUDES\SDL\INCLUDE\SDL_CONFIG_WINDOWS.H
C:\PROGRAM FILES (X86)\WINDOWS KITS\10\INCLUDE\10.0.10586.0\UCRT\STDDEF.H
C:\PROGRAM FILES (X86)\WINDOWS KITS\10\INCLUDE\10.0.10586.0\UCRT\CORECRT.H
C:\PROGRAM FILES (X86)\MICROSOFT VISUAL STUDIO 14.0\VC\INCLUDE\VCRUNTIME.H
C:\PROGRAM FILES (X86)\MICROSOFT VISUAL STUDIO 14.0\VC\INCLUDE\SAL.H
C:\PROGRAM FILES (X86)\MICROSOFT VISUAL STUDIO 14.0\VC\INCLUDE\CONCURRENCYSAL.H
C:\PROGRAM FILES (X86)\MICROSOFT VISUAL STUDIO 14.0\VC\INCLUDE\VADEFS.H
C:\PROGRAM FILES (X86)\MICROSOFT VISUAL STUDIO 14.0\VC\INCLUDE\STDARG.H
C:\USERS\NABIL\DOCUMENTS\VISUAL STUDIO 2015\PROJECTS\OPENGL 2D ENGINE\INCLUDES\SDL\INCLUDE\SDL_ASSERT.H
C:\USERS\NABIL\DOCUMENTS\VISUAL STUDIO 2015\PROJECTS\OPENGL 2D ENGINE\INCLUDES\SDL\INCLUDE\SDL_ATOMIC.H
C:\USERS\NABIL\DOCUMENTS\VISUAL STUDIO 2015\PROJECTS\OPENGL 2D ENGINE\INCLUDES\SDL\INCLUDE\SDL_AUDIO.H
C:\USERS\NABIL\DOCUMENTS\VISUAL STUDIO 2015\PROJECTS\OPENGL 2D ENGINE\INCLUDES\SDL\INCLUDE\SDL_ERROR.H
C:\USERS\NABIL\DOCUMENTS\VISUAL STUDIO 2015\PROJECTS\OPENGL 2D ENGINE\INCLUDES\SDL\INCLUDE\SDL_ENDIAN.H
C:\USERS\NABIL\DOCUMENTS\VISUAL STUDIO 2015\PROJECTS\OPENGL 2D ENGINE\INCLUDES\SDL\INCLUDE\SDL_MUTEX.H
C:\USERS\NABIL\DOCUMENTS\VISUAL STUDIO 2015\PROJECTS\OPENGL 2D ENGINE\INCLUDES\SDL\INCLUDE\SDL_THREAD.H
C:\PROGRAM FILES (X86)\WINDOWS KITS\10\INCLUDE\10.0.10586.0\UCRT\PROCESS.H
C:\PROGRAM FILES (X86)\WINDOWS KITS\10\INCLUDE\10.0.10586.0\UCRT\CORECRT_STARTUP.H
C:\PROGRAM FILES (X86)\WINDOWS KITS\10\INCLUDE\10.0.10586.0\UCRT\MATH.H
C:\PROGRAM FILES (X86)\MICROSOFT VISUAL STUDIO 14.0\VC\INCLUDE\VCRUNTIME_STARTUP.H
C:\PROGRAM FILES (X86)\MICROSOFT VISUAL STUDIO 14.0\VC\INCLUDE\STDBOOL.H
C:\PROGRAM FILES (X86)\WINDOWS KITS\10\INCLUDE\10.0.10586.0\UCRT\CORECRT_WPROCESS.H
C:\USERS\NABIL\DOCUMENTS\VISUAL STUDIO 2015\PROJECTS\OPENGL 2D ENGINE\INCLUDES\SDL\INCLUDE\SDL_RWOPS.H
C:\USERS\NABIL\DOCUMENTS\VISUAL STUDIO 2015\PROJECTS\OPENGL 2D ENGINE\INCLUDES\SDL\INCLUDE\SDL_CLIPBOARD.H
C:\USERS\NABIL\DOCUMENTS\VISUAL STUDIO 2015\PROJECTS\OPENGL 2D ENGINE\INCLUDES\SDL\INCLUDE\SDL_CPUINFO.H
C:\PROGRAM FILES (X86)\MICROSOFT VISUAL STUDIO 14.0\VC\INCLUDE\INTRIN.H
C:\PROGRAM FILES (X86)\MICROSOFT VISUAL STUDIO 14.0\VC\INCLUDE\SETJMP.H
C:\PROGRAM FILES (X86)\MICROSOFT VISUAL STUDIO 14.0\VC\INCLUDE\IMMINTRIN.H
C:\PROGRAM FILES (X86)\MICROSOFT VISUAL STUDIO 14.0\VC\INCLUDE\WMMINTRIN.H
C:\PROGRAM FILES (X86)\MICROSOFT VISUAL STUDIO 14.0\VC\INCLUDE\NMMINTRIN.H
C:\PROGRAM FILES (X86)\MICROSOFT VISUAL STUDIO 14.0\VC\INCLUDE\SMMINTRIN.H
C:\PROGRAM FILES (X86)\MICROSOFT VISUAL STUDIO 14.0\VC\INCLUDE\TMMINTRIN.H
C:\PROGRAM FILES (X86)\MICROSOFT VISUAL STUDIO 14.0\VC\INCLUDE\PMMINTRIN.H
C:\PROGRAM FILES (X86)\MICROSOFT VISUAL STUDIO 14.0\VC\INCLUDE\EMMINTRIN.H
C:\PROGRAM FILES (X86)\MICROSOFT VISUAL STUDIO 14.0\VC\INCLUDE\XMMINTRIN.H
C:\PROGRAM FILES (X86)\MICROSOFT VISUAL STUDIO 14.0\VC\INCLUDE\MMINTRIN.H
C:\PROGRAM FILES (X86)\WINDOWS KITS\10\INCLUDE\10.0.10586.0\UCRT\MALLOC.H
C:\PROGRAM FILES (X86)\WINDOWS KITS\10\INCLUDE\10.0.10586.0\UCRT\CORECRT_MALLOC.H
C:\PROGRAM FILES (X86)\MICROSOFT VISUAL STUDIO 14.0\VC\INCLUDE\AMMINTRIN.H
C:\PROGRAM FILES (X86)\MICROSOFT VISUAL STUDIO 14.0\VC\INCLUDE\MM3DNOW.H
C:\USERS\NABIL\DOCUMENTS\VISUAL STUDIO 2015\PROJECTS\OPENGL 2D ENGINE\INCLUDES\SDL\INCLUDE\SDL_EVENTS.H
C:\USERS\NABIL\DOCUMENTS\VISUAL STUDIO 2015\PROJECTS\OPENGL 2D ENGINE\INCLUDES\SDL\INCLUDE\SDL_VIDEO.H
C:\USERS\NABIL\DOCUMENTS\VISUAL STUDIO 2015\PROJECTS\OPENGL 2D ENGINE\INCLUDES\SDL\INCLUDE\SDL_PIXELS.H
C:\USERS\NABIL\DOCUMENTS\VISUAL STUDIO 2015\PROJECTS\OPENGL 2D ENGINE\INCLUDES\SDL\INCLUDE\SDL_RECT.H
C:\USERS\NABIL\DOCUMENTS\VISUAL STUDIO 2015\PROJECTS\OPENGL 2D ENGINE\INCLUDES\SDL\INCLUDE\SDL_SURFACE.H
C:\USERS\NABIL\DOCUMENTS\VISUAL STUDIO 2015\PROJECTS\OPENGL 2D ENGINE\INCLUDES\SDL\INCLUDE\SDL_BLENDMODE.H
C:\USERS\NABIL\DOCUMENTS\VISUAL STUDIO 2015\PROJECTS\OPENGL 2D ENGINE\INCLUDES\SDL\INCLUDE\SDL_KEYBOARD.H
C:\USERS\NABIL\DOCUMENTS\VISUAL STUDIO 2015\PROJECTS\OPENGL 2D ENGINE\INCLUDES\SDL\INCLUDE\SDL_KEYCODE.H
C:\USERS\NABIL\DOCUMENTS\VISUAL STUDIO 2015\PROJECTS\OPENGL 2D ENGINE\INCLUDES\SDL\INCLUDE\SDL_SCANCODE.H
C:\USERS\NABIL\DOCUMENTS\VISUAL STUDIO 2015\PROJECTS\OPENGL 2D ENGINE\INCLUDES\SDL\INCLUDE\SDL_MOUSE.H
C:\USERS\NABIL\DOCUMENTS\VISUAL STUDIO 2015\PROJECTS\OPENGL 2D ENGINE\INCLUDES\SDL\INCLUDE\SDL_JOYSTICK.H
C:\USERS\NABIL\DOCUMENTS\VISUAL STUDIO 2015\PROJECTS\OPENGL 2D ENGINE\INCLUDES\SDL\INCLUDE\SDL_GAMECONTROLLER.H
C:\USERS\NABIL\DOCUMENTS\VISUAL STUDIO 2015\PROJECTS\OPENGL 2D ENGINE\INCLUDES\SDL\INCLUDE\SDL_QUIT.H
C:\USERS\NABIL\DOCUMENTS\VISUAL STUDIO 2015\PROJECTS\OPENGL 2D ENGINE\INCLUDES\SDL\INCLUDE\SDL_GESTURE.H
C:\USERS\NABIL\DOCUMENTS\VISUAL STUDIO 2015\PROJECTS\OPENGL 2D ENGINE\INCLUDES\SDL\INCLUDE\SDL_TOUCH.H
C:\USERS\NABIL\DOCUMENTS\VISUAL STUDIO 2015\PROJECTS\OPENGL 2D ENGINE\INCLUDES\SDL\INCLUDE\SDL_FILESYSTEM.H
C:\USERS\NABIL\DOCUMENTS\VISUAL STUDIO 2015\PROJECTS\OPENGL 2D ENGINE\INCLUDES\SDL\INCLUDE\SDL_HAPTIC.H
C:\USERS\NABIL\DOCUMENTS\VISUAL STUDIO 2015\PROJECTS\OPENGL 2D ENGINE\INCLUDES\SDL\INCLUDE\SDL_HINTS.H
C:\USERS\NABIL\DOCUMENTS\VISUAL STUDIO 2015\PROJECTS\OPENGL 2D ENGINE\INCLUDES\SDL\INCLUDE\SDL_LOADSO.H
C:\USERS\NABIL\DOCUMENTS\VISUAL STUDIO 2015\PROJECTS\OPENGL 2D ENGINE\INCLUDES\SDL\INCLUDE\SDL_LOG.H
C:\USERS\NABIL\DOCUMENTS\VISUAL STUDIO 2015\PROJECTS\OPENGL 2D ENGINE\INCLUDES\SDL\INCLUDE\SDL_MESSAGEBOX.H
C:\USERS\NABIL\DOCUMENTS\VISUAL STUDIO 2015\PROJECTS\OPENGL 2D ENGINE\INCLUDES\SDL\INCLUDE\SDL_POWER.H
C:\USERS\NABIL\DOCUMENTS\VISUAL STUDIO 2015\PROJECTS\OPENGL 2D ENGINE\INCLUDES\SDL\INCLUDE\SDL_RENDER.H
C:\USERS\NABIL\DOCUMENTS\VISUAL STUDIO 2015\PROJECTS\OPENGL 2D ENGINE\INCLUDES\SDL\INCLUDE\SDL_SYSTEM.H
C:\USERS\NABIL\DOCUMENTS\VISUAL STUDIO 2015\PROJECTS\OPENGL 2D ENGINE\INCLUDES\SDL\INCLUDE\SDL_TIMER.H
C:\USERS\NABIL\DOCUMENTS\VISUAL STUDIO 2015\PROJECTS\OPENGL 2D ENGINE\INCLUDES\SDL\INCLUDE\SDL_VERSION.H
C:\USERS\NABIL\DOCUMENTS\VISUAL STUDIO 2015\PROJECTS\OPENGL 2D ENGINE\INCLUDES\GL\GLEW.H
C:\PROGRAM FILES (X86)\WINDOWS KITS\10\INCLUDE\10.0.10586.0\UM\GL\GLU.H
C:\PROGRAM FILES (X86)\WINDOWS KITS\10\INCLUDE\10.0.10586.0\UM\GL\GL.H
C:\USERS\NABIL\DOCUMENTS\VISUAL STUDIO 2015\PROJECTS\OPENGL 2D ENGINE\BENGINE\INCLUDES\ENGINE.H
C:\USERS\NABIL\DOCUMENTS\VISUAL STUDIO 2015\PROJECTS\OPENGL 2D ENGINE\BENGINE\INCLUDES\GLSLPROGRAM.H
C:\USERS\NABIL\DOCUMENTS\VISUAL STUDIO 2015\PROJECTS\OPENGL 2D ENGINE\BENGINE\INCLUDES\ERRORSUITE.H
C:\PROGRAM FILES (X86)\MICROSOFT VISUAL STUDIO 14.0\VC\INCLUDE\STRING
C:\PROGRAM FILES (X86)\MICROSOFT VISUAL STUDIO 14.0\VC\INCLUDE\ISTREAM
C:\PROGRAM FILES (X86)\MICROSOFT VISUAL STUDIO 14.0\VC\INCLUDE\OSTREAM
C:\PROGRAM FILES (X86)\MICROSOFT VISUAL STUDIO 14.0\VC\INCLUDE\IOS
C:\PROGRAM FILES (X86)\MICROSOFT VISUAL STUDIO 14.0\VC\INCLUDE\XLOCNUM
C:\PROGRAM FILES (X86)\MICROSOFT VISUAL STUDIO 14.0\VC\INCLUDE\CLIMITS
C:\PROGRAM FILES (X86)\MICROSOFT VISUAL STUDIO 14.0\VC\INCLUDE\YVALS.H
C:\PROGRAM FILES (X86)\MICROSOFT VISUAL STUDIO 14.0\VC\INCLUDE\XKEYCHECK.H
C:\PROGRAM FILES (X86)\MICROSOFT VISUAL STUDIO 14.0\VC\INCLUDE\CRTDEFS.H
C:\PROGRAM FILES (X86)\MICROSOFT VISUAL STUDIO 14.0\VC\INCLUDE\USE_ANSI.H
C:\PROGRAM FILES (X86)\MICROSOFT VISUAL STUDIO 14.0\VC\INCLUDE\LIMITS.H
C:\PROGRAM FILES (X86)\MICROSOFT VISUAL STUDIO 14.0\VC\INCLUDE\CMATH
C:\PROGRAM FILES (X86)\MICROSOFT VISUAL STUDIO 14.0\VC\INCLUDE\XTGMATH.H
C:\PROGRAM FILES (X86)\MICROSOFT VISUAL STUDIO 14.0\VC\INCLUDE\XTR1COMMON
C:\PROGRAM FILES (X86)\MICROSOFT VISUAL STUDIO 14.0\VC\INCLUDE\CSTDLIB
C:\PROGRAM FILES (X86)\WINDOWS KITS\10\INCLUDE\10.0.10586.0\UCRT\STDLIB.H
C:\PROGRAM FILES (X86)\WINDOWS KITS\10\INCLUDE\10.0.10586.0\UCRT\CORECRT_SEARCH.H
C:\PROGRAM FILES (X86)\WINDOWS KITS\10\INCLUDE\10.0.10586.0\UCRT\CORECRT_WSTDLIB.H
C:\PROGRAM FILES (X86)\MICROSOFT VISUAL STUDIO 14.0\VC\INCLUDE\CSTDIO
C:\PROGRAM FILES (X86)\WINDOWS KITS\10\INCLUDE\10.0.10586.0\UCRT\STDIO.H
C:\PROGRAM FILES (X86)\WINDOWS KITS\10\INCLUDE\10.0.10586.0\UCRT\CORECRT_WSTDIO.H
C:\PROGRAM FILES (X86)\WINDOWS KITS\10\INCLUDE\10.0.10586.0\UCRT\CORECRT_STDIO_CONFIG.H
C:\PROGRAM FILES (X86)\MICROSOFT VISUAL STUDIO 14.0\VC\INCLUDE\STREAMBUF
C:\PROGRAM FILES (X86)\MICROSOFT VISUAL STUDIO 14.0\VC\INCLUDE\XIOSBASE
C:\PROGRAM FILES (X86)\MICROSOFT VISUAL STUDIO 14.0\VC\INCLUDE\XLOCALE
C:\PROGRAM FILES (X86)\MICROSOFT VISUAL STUDIO 14.0\VC\INCLUDE\CSTRING
C:\PROGRAM FILES (X86)\WINDOWS KITS\10\INCLUDE\10.0.10586.0\UCRT\STRING.H
C:\PROGRAM FILES (X86)\WINDOWS KITS\10\INCLUDE\10.0.10586.0\UCRT\CORECRT_MEMORY.H
C:\PROGRAM FILES (X86)\WINDOWS KITS\10\INCLUDE\10.0.10586.0\UCRT\CORECRT_MEMCPY_S.H
C:\PROGRAM FILES (X86)\WINDOWS KITS\10\INCLUDE\10.0.10586.0\UCRT\ERRNO.H
C:\PROGRAM FILES (X86)\MICROSOFT VISUAL STUDIO 14.0\VC\INCLUDE\VCRUNTIME_STRING.H
C:\PROGRAM FILES (X86)\WINDOWS KITS\10\INCLUDE\10.0.10586.0\UCRT\CORECRT_WSTRING.H
C:\PROGRAM FILES (X86)\MICROSOFT VISUAL STUDIO 14.0\VC\INCLUDE\STDEXCEPT
C:\PROGRAM FILES (X86)\MICROSOFT VISUAL STUDIO 14.0\VC\INCLUDE\EXCEPTION
C:\PROGRAM FILES (X86)\MICROSOFT VISUAL STUDIO 14.0\VC\INCLUDE\TYPE_TRAITS
C:\PROGRAM FILES (X86)\MICROSOFT VISUAL STUDIO 14.0\VC\INCLUDE\XSTDDEF
C:\PROGRAM FILES (X86)\MICROSOFT VISUAL STUDIO 14.0\VC\INCLUDE\CSTDDEF
C:\PROGRAM FILES (X86)\MICROSOFT VISUAL STUDIO 14.0\VC\INCLUDE\INITIALIZER_LIST
C:\PROGRAM FILES (X86)\MICROSOFT VISUAL STUDIO 14.0\VC\INCLUDE\VCRUNTIME_EXCEPTION.H
C:\PROGRAM FILES (X86)\MICROSOFT VISUAL STUDIO 14.0\VC\INCLUDE\EH.H
C:\PROGRAM FILES (X86)\WINDOWS KITS\10\INCLUDE\10.0.10586.0\UCRT\CORECRT_TERMINATE.H
C:\PROGRAM FILES (X86)\MICROSOFT VISUAL STUDIO 14.0\VC\INCLUDE\XSTRING
C:\PROGRAM FILES (X86)\MICROSOFT VISUAL STUDIO 14.0\VC\INCLUDE\XMEMORY0
C:\PROGRAM FILES (X86)\MICROSOFT VISUAL STUDIO 14.0\VC\INCLUDE\CSTDINT
C:\PROGRAM FILES (X86)\MICROSOFT VISUAL STUDIO 14.0\VC\INCLUDE\STDINT.H
C:\PROGRAM FILES (X86)\MICROSOFT VISUAL STUDIO 14.0\VC\INCLUDE\LIMITS
C:\PROGRAM FILES (X86)\MICROSOFT VISUAL STUDIO 14.0\VC\INCLUDE\YMATH.H
C:\PROGRAM FILES (X86)\MICROSOFT VISUAL STUDIO 14.0\VC\INCLUDE\CFLOAT
C:\PROGRAM FILES (X86)\WINDOWS KITS\10\INCLUDE\10.0.10586.0\UCRT\FLOAT.H
C:\PROGRAM FILES (X86)\MICROSOFT VISUAL STUDIO 14.0\VC\INCLUDE\CWCHAR
C:\PROGRAM FILES (X86)\WINDOWS KITS\10\INCLUDE\10.0.10586.0\UCRT\WCHAR.H
C:\PROGRAM FILES (X86)\WINDOWS KITS\10\INCLUDE\10.0.10586.0\UCRT\CORECRT_WCONIO.H
C:\PROGRAM FILES (X86)\WINDOWS KITS\10\INCLUDE\10.0.10586.0\UCRT\CORECRT_WCTYPE.H
C:\PROGRAM FILES (X86)\WINDOWS KITS\10\INCLUDE\10.0.10586.0\UCRT\CORECRT_WDIRECT.H
C:\PROGRAM FILES (X86)\WINDOWS KITS\10\INCLUDE\10.0.10586.0\UCRT\CORECRT_WIO.H
C:\PROGRAM FILES (X86)\WINDOWS KITS\10\INCLUDE\10.0.10586.0\UCRT\CORECRT_SHARE.H
C:\PROGRAM FILES (X86)\WINDOWS KITS\10\INCLUDE\10.0.10586.0\UCRT\CORECRT_WTIME.H
C:\PROGRAM FILES (X86)\WINDOWS KITS\10\INCLUDE\10.0.10586.0\UCRT\SYS\STAT.H
C:\PROGRAM FILES (X86)\WINDOWS KITS\10\INCLUDE\10.0.10586.0\UCRT\SYS\TYPES.H
C:\PROGRAM FILES (X86)\MICROSOFT VISUAL STUDIO 14.0\VC\INCLUDE\NEW
C:\PROGRAM FILES (X86)\MICROSOFT VISUAL STUDIO 14.0\VC\INCLUDE\VCRUNTIME_NEW.H
C:\PROGRAM FILES (X86)\MICROSOFT VISUAL STUDIO 14.0\VC\INCLUDE\XUTILITY
C:\PROGRAM FILES (X86)\MICROSOFT VISUAL STUDIO 14.0\VC\INCLUDE\UTILITY
C:\PROGRAM FILES (X86)\MICROSOFT VISUAL STUDIO 14.0\VC\INCLUDE\IOSFWD
C:\PROGRAM FILES (X86)\WINDOWS KITS\10\INCLUDE\10.0.10586.0\UCRT\CRTDBG.H
C:\PROGRAM FILES (X86)\MICROSOFT VISUAL STUDIO 14.0\VC\INCLUDE\VCRUNTIME_NEW_DEBUG.H
C:\PROGRAM FILES (X86)\MICROSOFT VISUAL STUDIO 14.0\VC\INCLUDE\XATOMIC0.H
C:\PROGRAM FILES (X86)\MICROSOFT VISUAL STUDIO 14.0\VC\INCLUDE\TYPEINFO
C:\PROGRAM FILES (X86)\MICROSOFT VISUAL STUDIO 14.0\VC\INCLUDE\VCRUNTIME_TYPEINFO.H
C:\PROGRAM FILES (X86)\MICROSOFT VISUAL STUDIO 14.0\VC\INCLUDE\XLOCINFO
C:\PROGRAM FILES (X86)\MICROSOFT VISUAL STUDIO 14.0\VC\INCLUDE\XLOCINFO.H
C:\PROGRAM FILES (X86)\WINDOWS KITS\10\INCLUDE\10.0.10586.0\UCRT\CTYPE.H
C:\PROGRAM FILES (X86)\WINDOWS KITS\10\INCLUDE\10.0.10586.0\UCRT\LOCALE.H
C:\PROGRAM FILES (X86)\MICROSOFT VISUAL STUDIO 14.0\VC\INCLUDE\XFACET
C:\PROGRAM FILES (X86)\MICROSOFT VISUAL STUDIO 14.0\VC\INCLUDE\SYSTEM_ERROR
C:\PROGRAM FILES (X86)\MICROSOFT VISUAL STUDIO 14.0\VC\INCLUDE\CERRNO
C:\PROGRAM FILES (X86)\WINDOWS KITS\10\INCLUDE\10.0.10586.0\UCRT\SHARE.H
C:\PROGRAM FILES (X86)\MICROSOFT VISUAL STUDIO 14.0\VC\INCLUDE\IOSTREAM
C:\PROGRAM FILES (X86)\MICROSOFT VISUAL STUDIO 14.0\VC\INCLUDE\VECTOR
C:\PROGRAM FILES (X86)\MICROSOFT VISUAL STUDIO 14.0\VC\INCLUDE\XMEMORY
C:\PROGRAM FILES (X86)\MICROSOFT VISUAL STUDIO 14.0\VC\INCLUDE\FSTREAM
C:\USERS\NABIL\DOCUMENTS\VISUAL STUDIO 2015\PROJECTS\OPENGL 2D ENGINE\BENGINE\INCLUDES\SPRITE.H
C:\USERS\NABIL\DOCUMENTS\VISUAL STUDIO 2015\PROJECTS\OPENGL 2D ENGINE\BENGINE\INCLUDES\VERTEX.H
C:\USERS\NABIL\DOCUMENTS\VISUAL STUDIO 2015\PROJECTS\OPENGL 2D ENGINE\BENGINE\INCLUDES\GLTEXTURE.H
C:\USERS\NABIL\DOCUMENTS\VISUAL STUDIO 2015\PROJECTS\OPENGL 2D ENGINE\BENGINE\INCLUDES\RESOURCEMANAGER.H
C:\USERS\NABIL\DOCUMENTS\VISUAL STUDIO 2015\PROJECTS\OPENGL 2D ENGINE\BENGINE\INCLUDES\TEXTURECACHE.H
C:\PROGRAM FILES (X86)\MICROSOFT VISUAL STUDIO 14.0\VC\INCLUDE\MAP
C:\PROGRAM FILES (X86)\MICROSOFT VISUAL STUDIO 14.0\VC\INCLUDE\TUPLE
C:\PROGRAM FILES (X86)\MICROSOFT VISUAL STUDIO 14.0\VC\INCLUDE\XTREE
C:\USERS\NABIL\DOCUMENTS\VISUAL STUDIO 2015\PROJECTS\OPENGL 2D ENGINE\BENGINE\INCLUDES\IMAGELOADER.H
C:\USERS\NABIL\DOCUMENTS\VISUAL STUDIO 2015\PROJECTS\OPENGL 2D ENGINE\BENGINE\INCLUDES\WINDOW.H
C:\PROGRAM FILES (X86)\WINDOWS KITS\10\INCLUDE\10.0.10586.0\UM\WINDOWS.H
C:\PROGRAM FILES (X86)\WINDOWS KITS\10\INCLUDE\10.0.10586.0\SHARED\SDKDDKVER.H
C:\PROGRAM FILES (X86)\MICROSOFT VISUAL STUDIO 14.0\VC\INCLUDE\EXCPT.H
C:\PROGRAM FILES (X86)\WINDOWS KITS\10\INCLUDE\10.0.10586.0\SHARED\WINDEF.H
C:\PROGRAM FILES (X86)\WINDOWS KITS\10\INCLUDE\10.0.10586.0\SHARED\MINWINDEF.H
C:\PROGRAM FILES (X86)\WINDOWS KITS\10\INCLUDE\10.0.10586.0\SHARED\SPECSTRINGS.H
C:\PROGRAM FILES (X86)\WINDOWS KITS\10\INCLUDE\10.0.10586.0\SHARED\SPECSTRINGS_STRICT.H
C:\PROGRAM FILES (X86)\WINDOWS KITS\10\INCLUDE\10.0.10586.0\SHARED\SPECSTRINGS_UNDEF.H
C:\PROGRAM FILES (X86)\WINDOWS KITS\10\INCLUDE\10.0.10586.0\SHARED\DRIVERSPECS.H
C:\PROGRAM FILES (X86)\WINDOWS KITS\10\INCLUDE\10.0.10586.0\SHARED\SDV_DRIVERSPECS.H
C:\PROGRAM FILES (X86)\WINDOWS KITS\10\INCLUDE\10.0.10586.0\UM\WINNT.H
C:\PROGRAM FILES (X86)\WINDOWS KITS\10\INCLUDE\10.0.10586.0\SHARED\KERNELSPECS.H
C:\PROGRAM FILES (X86)\WINDOWS KITS\10\INCLUDE\10.0.10586.0\SHARED\BASETSD.H
C:\PROGRAM FILES (X86)\WINDOWS KITS\10\INCLUDE\10.0.10586.0\SHARED\GUIDDEF.H
C:\PROGRAM FILES (X86)\WINDOWS KITS\10\INCLUDE\10.0.10586.0\SHARED\PSHPACK4.H
C:\PROGRAM FILES (X86)\WINDOWS KITS\10\INCLUDE\10.0.10586.0\SHARED\POPPACK.H
C:\PROGRAM FILES (X86)\WINDOWS KITS\10\INCLUDE\10.0.10586.0\SHARED\PSHPACK2.H
C:\PROGRAM FILES (X86)\WINDOWS KITS\10\INCLUDE\10.0.10586.0\SHARED\PSHPACK8.H
C:\PROGRAM FILES (X86)\WINDOWS KITS\10\INCLUDE\10.0.10586.0\SHARED\APISET.H
C:\PROGRAM FILES (X86)\WINDOWS KITS\10\INCLUDE\10.0.10586.0\SHARED\KTMTYPES.H
C:\PROGRAM FILES (X86)\WINDOWS KITS\10\INCLUDE\10.0.10586.0\UM\WINBASE.H
C:\PROGRAM FILES (X86)\WINDOWS KITS\10\INCLUDE\10.0.10586.0\SHARED\APISETCCONV.H
C:\PROGRAM FILES (X86)\WINDOWS KITS\10\INCLUDE\10.0.10586.0\UM\MINWINBASE.H
C:\PROGRAM FILES (X86)\WINDOWS KITS\10\INCLUDE\10.0.10586.0\UM\PROCESSENV.H
C:\PROGRAM FILES (X86)\WINDOWS KITS\10\INCLUDE\10.0.10586.0\UM\FILEAPI.H
C:\PROGRAM FILES (X86)\WINDOWS KITS\10\INCLUDE\10.0.10586.0\UM\DEBUGAPI.H
C:\PROGRAM FILES (X86)\WINDOWS KITS\10\INCLUDE\10.0.10586.0\UM\UTILAPISET.H
C:\PROGRAM FILES (X86)\WINDOWS KITS\10\INCLUDE\10.0.10586.0\UM\HANDLEAPI.H
C:\PROGRAM FILES (X86)\WINDOWS KITS\10\INCLUDE\10.0.10586.0\UM\ERRHANDLINGAPI.H
C:\PROGRAM FILES (X86)\WINDOWS KITS\10\INCLUDE\10.0.10586.0\UM\FIBERSAPI.H
C:\PROGRAM FILES (X86)\WINDOWS KITS\10\INCLUDE\10.0.10586.0\UM\NAMEDPIPEAPI.H
C:\PROGRAM FILES (X86)\WINDOWS KITS\10\INCLUDE\10.0.10586.0\UM\PROFILEAPI.H
C:\PROGRAM FILES (X86)\WINDOWS KITS\10\INCLUDE\10.0.10586.0\UM\HEAPAPI.H
C:\PROGRAM FILES (X86)\WINDOWS KITS\10\INCLUDE\10.0.10586.0\UM\IOAPISET.H
C:\PROGRAM FILES (X86)\WINDOWS KITS\10\INCLUDE\10.0.10586.0\UM\SYNCHAPI.H
C:\PROGRAM FILES (X86)\WINDOWS KITS\10\INCLUDE\10.0.10586.0\UM\INTERLOCKEDAPI.H
C:\PROGRAM FILES (X86)\WINDOWS KITS\10\INCLUDE\10.0.10586.0\UM\PROCESSTHREADSAPI.H
C:\PROGRAM FILES (X86)\WINDOWS KITS\10\INCLUDE\10.0.10586.0\UM\SYSINFOAPI.H
C:\PROGRAM FILES (X86)\WINDOWS KITS\10\INCLUDE\10.0.10586.0\UM\MEMORYAPI.H
C:\PROGRAM FILES (X86)\WINDOWS KITS\10\INCLUDE\10.0.10586.0\UM\ENCLAVEAPI.H
C:\PROGRAM FILES (X86)\WINDOWS KITS\10\INCLUDE\10.0.10586.0\UM\THREADPOOLLEGACYAPISET.H
C:\PROGRAM FILES (X86)\WINDOWS KITS\10\INCLUDE\10.0.10586.0\UM\THREADPOOLAPISET.H
C:\PROGRAM FILES (X86)\WINDOWS KITS\10\INCLUDE\10.0.10586.0\UM\JOBAPI.H
C:\PROGRAM FILES (X86)\WINDOWS KITS\10\INCLUDE\10.0.10586.0\UM\JOBAPI2.H
C:\PROGRAM FILES (X86)\WINDOWS KITS\10\INCLUDE\10.0.10586.0\UM\WOW64APISET.H
C:\PROGRAM FILES (X86)\WINDOWS KITS\10\INCLUDE\10.0.10586.0\UM\LIBLOADERAPI.H
C:\PROGRAM FILES (X86)\WINDOWS KITS\10\INCLUDE\10.0.10586.0\UM\SECURITYBASEAPI.H
C:\PROGRAM FILES (X86)\WINDOWS KITS\10\INCLUDE\10.0.10586.0\UM\NAMESPACEAPI.H
C:\PROGRAM FILES (X86)\WINDOWS KITS\10\INCLUDE\10.0.10586.0\UM\SYSTEMTOPOLOGYAPI.H
C:\PROGRAM FILES (X86)\WINDOWS KITS\10\INCLUDE\10.0.10586.0\UM\PROCESSTOPOLOGYAPI.H
C:\PROGRAM FILES (X86)\WINDOWS KITS\10\INCLUDE\10.0.10586.0\UM\SECURITYAPPCONTAINER.H
C:\PROGRAM FILES (X86)\WINDOWS KITS\10\INCLUDE\10.0.10586.0\UM\REALTIMEAPISET.H
C:\PROGRAM FILES (X86)\WINDOWS KITS\10\INCLUDE\10.0.10586.0\SHARED\WINERROR.H
C:\PROGRAM FILES (X86)\WINDOWS KITS\10\INCLUDE\10.0.10586.0\UM\TIMEZONEAPI.H
C:\PROGRAM FILES (X86)\WINDOWS KITS\10\INCLUDE\10.0.10586.0\UM\WINGDI.H
C:\PROGRAM FILES (X86)\WINDOWS KITS\10\INCLUDE\10.0.10586.0\SHARED\PSHPACK1.H
C:\PROGRAM FILES (X86)\WINDOWS KITS\10\INCLUDE\10.0.10586.0\UM\WINUSER.H
C:\PROGRAM FILES (X86)\WINDOWS KITS\10\INCLUDE\10.0.10586.0\SHARED\TVOUT.H
C:\PROGRAM FILES (X86)\WINDOWS KITS\10\INCLUDE\10.0.10586.0\UM\WINNLS.H
C:\PROGRAM FILES (X86)\WINDOWS KITS\10\INCLUDE\10.0.10586.0\UM\DATETIMEAPI.H
C:\PROGRAM FILES (X86)\WINDOWS KITS\10\INCLUDE\10.0.10586.0\UM\STRINGAPISET.H
C:\PROGRAM FILES (X86)\WINDOWS KITS\10\INCLUDE\10.0.10586.0\UM\WINCON.H
C:\PROGRAM FILES (X86)\WINDOWS KITS\10\INCLUDE\10.0.10586.0\UM\CONSOLEAPI.H
C:\PROGRAM FILES (X86)\WINDOWS KITS\10\INCLUDE\10.0.10586.0\UM\WINVER.H
C:\PROGRAM FILES (X86)\WINDOWS KITS\10\INCLUDE\10.0.10586.0\UM\VERRSRC.H
C:\PROGRAM FILES (X86)\WINDOWS KITS\10\INCLUDE\10.0.10586.0\UM\WINREG.H
C:\PROGRAM FILES (X86)\WINDOWS KITS\10\INCLUDE\10.0.10586.0\UM\REASON.H
C:\PROGRAM FILES (X86)\WINDOWS KITS\10\INCLUDE\10.0.10586.0\UM\WINNETWK.H
C:\PROGRAM FILES (X86)\WINDOWS KITS\10\INCLUDE\10.0.10586.0\SHARED\WNNC.H
C:\PROGRAM FILES (X86)\WINDOWS KITS\10\INCLUDE\10.0.10586.0\SHARED\CDERR.H
C:\PROGRAM FILES (X86)\WINDOWS KITS\10\INCLUDE\10.0.10586.0\UM\DDE.H
C:\PROGRAM FILES (X86)\WINDOWS KITS\10\INCLUDE\10.0.10586.0\UM\DDEML.H
C:\PROGRAM FILES (X86)\WINDOWS KITS\10\INCLUDE\10.0.10586.0\UM\DLGS.H
C:\PROGRAM FILES (X86)\WINDOWS KITS\10\INCLUDE\10.0.10586.0\UM\LZEXPAND.H
C:\PROGRAM FILES (X86)\WINDOWS KITS\10\INCLUDE\10.0.10586.0\UM\MMSYSTEM.H
C:\PROGRAM FILES (X86)\WINDOWS KITS\10\INCLUDE\10.0.10586.0\UM\MMSYSCOM.H
C:\PROGRAM FILES (X86)\WINDOWS KITS\10\INCLUDE\10.0.10586.0\UM\MCIAPI.H
C:\PROGRAM FILES (X86)\WINDOWS KITS\10\INCLUDE\10.0.10586.0\UM\MMISCAPI.H
C:\PROGRAM FILES (X86)\WINDOWS KITS\10\INCLUDE\10.0.10586.0\UM\MMISCAPI2.H
C:\PROGRAM FILES (X86)\WINDOWS KITS\10\INCLUDE\10.0.10586.0\UM\PLAYSOUNDAPI.H
C:\PROGRAM FILES (X86)\WINDOWS KITS\10\INCLUDE\10.0.10586.0\UM\MMEAPI.H
C:\PROGRAM FILES (X86)\WINDOWS KITS\10\INCLUDE\10.0.10586.0\UM\TIMEAPI.H
C:\PROGRAM FILES (X86)\WINDOWS KITS\10\INCLUDE\10.0.10586.0\UM\JOYSTICKAPI.H
C:\PROGRAM FILES (X86)\WINDOWS KITS\10\INCLUDE\10.0.10586.0\UM\NB30.H
C:\PROGRAM FILES (X86)\WINDOWS KITS\10\INCLUDE\10.0.10586.0\SHARED\RPC.H
C:\PROGRAM FILES (X86)\WINDOWS KITS\10\INCLUDE\10.0.10586.0\SHARED\RPCDCE.H
C:\PROGRAM FILES (X86)\WINDOWS KITS\10\INCLUDE\10.0.10586.0\SHARED\RPCDCEP.H
C:\PROGRAM FILES (X86)\WINDOWS KITS\10\INCLUDE\10.0.10586.0\UM\RPCNSI.H
C:\PROGRAM FILES (X86)\WINDOWS KITS\10\INCLUDE\10.0.10586.0\SHARED\RPCNTERR.H
C:\PROGRAM FILES (X86)\WINDOWS KITS\10\INCLUDE\10.0.10586.0\SHARED\RPCASYNC.H
C:\PROGRAM FILES (X86)\WINDOWS KITS\10\INCLUDE\10.0.10586.0\UM\SHELLAPI.H
C:\PROGRAM FILES (X86)\WINDOWS KITS\10\INCLUDE\10.0.10586.0\UM\WINPERF.H
C:\PROGRAM FILES (X86)\WINDOWS KITS\10\INCLUDE\10.0.10586.0\UM\WINSOCK.H
C:\PROGRAM FILES (X86)\WINDOWS KITS\10\INCLUDE\10.0.10586.0\SHARED\INADDR.H
C:\PROGRAM FILES (X86)\WINDOWS KITS\10\INCLUDE\10.0.10586.0\UM\WINCRYPT.H
C:\PROGRAM FILES (X86)\WINDOWS KITS\10\INCLUDE\10.0.10586.0\SHARED\BCRYPT.H
C:\PROGRAM FILES (X86)\WINDOWS KITS\10\INCLUDE\10.0.10586.0\UM\NCRYPT.H
C:\PROGRAM FILES (X86)\WINDOWS KITS\10\INCLUDE\10.0.10586.0\UM\DPAPI.H
C:\PROGRAM FILES (X86)\WINDOWS KITS\10\INCLUDE\10.0.10586.0\UM\WINEFS.H
C:\PROGRAM FILES (X86)\WINDOWS KITS\10\INCLUDE\10.0.10586.0\UM\WINSCARD.H
C:\PROGRAM FILES (X86)\WINDOWS KITS\10\INCLUDE\10.0.10586.0\SHARED\WTYPES.H
C:\PROGRAM FILES (X86)\WINDOWS KITS\10\INCLUDE\10.0.10586.0\SHARED\RPCNDR.H
C:\PROGRAM FILES (X86)\WINDOWS KITS\10\INCLUDE\10.0.10586.0\UM\RPCNSIP.H
C:\PROGRAM FILES (X86)\WINDOWS KITS\10\INCLUDE\10.0.10586.0\SHARED\RPCSAL.H
C:\PROGRAM FILES (X86)\WINDOWS KITS\10\INCLUDE\10.0.10586.0\SHARED\WTYPESBASE.H
C:\PROGRAM FILES (X86)\WINDOWS KITS\10\INCLUDE\10.0.10586.0\UM\WINIOCTL.H
C:\PROGRAM FILES (X86)\WINDOWS KITS\10\INCLUDE\10.0.10586.0\SHARED\WINSMCRD.H
C:\PROGRAM FILES (X86)\WINDOWS KITS\10\INCLUDE\10.0.10586.0\UM\WINSPOOL.H
C:\PROGRAM FILES (X86)\WINDOWS KITS\10\INCLUDE\10.0.10586.0\UM\PRSHT.H
C:\PROGRAM FILES (X86)\WINDOWS KITS\10\INCLUDE\10.0.10586.0\UM\OLE2.H
C:\PROGRAM FILES (X86)\WINDOWS KITS\10\INCLUDE\10.0.10586.0\UM\OBJBASE.H
C:\PROGRAM FILES (X86)\WINDOWS KITS\10\INCLUDE\10.0.10586.0\UM\COMBASEAPI.H
C:\PROGRAM FILES (X86)\WINDOWS KITS\10\INCLUDE\10.0.10586.0\UM\UNKNWNBASE.H
C:\PROGRAM FILES (X86)\WINDOWS KITS\10\INCLUDE\10.0.10586.0\UM\OBJIDLBASE.H
C:\PROGRAM FILES (X86)\WINDOWS KITS\10\INCLUDE\10.0.10586.0\UM\CGUID.H
C:\PROGRAM FILES (X86)\WINDOWS KITS\10\INCLUDE\10.0.10586.0\UM\COML2API.H
C:\PROGRAM FILES (X86)\WINDOWS KITS\10\INCLUDE\10.0.10586.0\UM\OBJIDL.H
C:\PROGRAM FILES (X86)\WINDOWS KITS\10\INCLUDE\10.0.10586.0\UM\UNKNWN.H
C:\PROGRAM FILES (X86)\WINDOWS KITS\10\INCLUDE\10.0.10586.0\UM\PROPIDLBASE.H
C:\PROGRAM FILES (X86)\WINDOWS KITS\10\INCLUDE\10.0.10586.0\UM\OAIDL.H
C:\PROGRAM FILES (X86)\WINDOWS KITS\10\INCLUDE\10.0.10586.0\UM\URLMON.H
C:\PROGRAM FILES (X86)\WINDOWS KITS\10\INCLUDE\10.0.10586.0\UM\OLEIDL.H
C:\PROGRAM FILES (X86)\WINDOWS KITS\10\INCLUDE\10.0.10586.0\UM\SERVPROV.H
C:\PROGRAM FILES (X86)\WINDOWS KITS\10\INCLUDE\10.0.10586.0\UM\MSXML.H
C:\PROGRAM FILES (X86)\WINDOWS KITS\10\INCLUDE\10.0.10586.0\UM\PROPIDL.H
C:\PROGRAM FILES (X86)\WINDOWS KITS\10\INCLUDE\10.0.10586.0\UM\OLEAUTO.H
C:\PROGRAM FILES (X86)\WINDOWS KITS\10\INCLUDE\10.0.10586.0\UM\COMMDLG.H
C:\PROGRAM FILES (X86)\WINDOWS KITS\10\INCLUDE\10.0.10586.0\SHARED\STRALIGN.H
C:\PROGRAM FILES (X86)\WINDOWS KITS\10\INCLUDE\10.0.10586.0\UM\WINSVC.H
C:\PROGRAM FILES (X86)\WINDOWS KITS\10\INCLUDE\10.0.10586.0\UM\MCX.H
C:\PROGRAM FILES (X86)\WINDOWS KITS\10\INCLUDE\10.0.10586.0\UM\IMM.H
C:\PROGRAM FILES (X86)\WINDOWS KITS\10\INCLUDE\10.0.10586.0\UM\IME_CMODES.H
C:\USERS\NABIL\DOCUMENTS\VISUAL STUDIO 2015\PROJECTS\OPENGL 2D ENGINE\BENGINE\INCLUDES\CAMERA2D.H
C:\USERS\NABIL\DOCUMENTS\VISUAL STUDIO 2015\PROJECTS\OPENGL 2D ENGINE\INCLUDES\GLM\GLM.HPP
C:\USERS\NABIL\DOCUMENTS\VISUAL STUDIO 2015\PROJECTS\OPENGL 2D ENGINE\INCLUDES\GLM\DETAIL\_FIXES.HPP
C:\PROGRAM FILES (X86)\MICROSOFT VISUAL STUDIO 14.0\VC\INCLUDE\CASSERT
C:\PROGRAM FILES (X86)\WINDOWS KITS\10\INCLUDE\10.0.10586.0\UCRT\ASSERT.H
C:\USERS\NABIL\DOCUMENTS\VISUAL STUDIO 2015\PROJECTS\OPENGL 2D ENGINE\INCLUDES\GLM\FWD.HPP
C:\USERS\NABIL\DOCUMENTS\VISUAL STUDIO 2015\PROJECTS\OPENGL 2D ENGINE\INCLUDES\GLM\DETAIL\TYPE_INT.HPP
C:\USERS\NABIL\DOCUMENTS\VISUAL STUDIO 2015\PROJECTS\OPENGL 2D ENGINE\INCLUDES\GLM\DETAIL\SETUP.HPP
C:\USERS\NABIL\DOCUMENTS\VISUAL STUDIO 2015\PROJECTS\OPENGL 2D ENGINE\INCLUDES\GLM\DETAIL\TYPE_FLOAT.HPP
C:\USERS\NABIL\DOCUMENTS\VISUAL STUDIO 2015\PROJECTS\OPENGL 2D ENGINE\INCLUDES\GLM\DETAIL\TYPE_VEC.HPP
C:\USERS\NABIL\DOCUMENTS\VISUAL STUDIO 2015\PROJECTS\OPENGL 2D ENGINE\INCLUDES\GLM\DETAIL\PRECISION.HPP
C:\USERS\NABIL\DOCUMENTS\VISUAL STUDIO 2015\PROJECTS\OPENGL 2D ENGINE\INCLUDES\GLM\DETAIL\TYPE_MAT.HPP
C:\USERS\NABIL\DOCUMENTS\VISUAL STUDIO 2015\PROJECTS\OPENGL 2D ENGINE\INCLUDES\GLM\VEC2.HPP
C:\USERS\NABIL\DOCUMENTS\VISUAL STUDIO 2015\PROJECTS\OPENGL 2D ENGINE\INCLUDES\GLM\DETAIL\TYPE_VEC2.HPP
C:\USERS\NABIL\DOCUMENTS\VISUAL STUDIO 2015\PROJECTS\OPENGL 2D ENGINE\INCLUDES\GLM\DETAIL\TYPE_VEC2.INL
C:\USERS\NABIL\DOCUMENTS\VISUAL STUDIO 2015\PROJECTS\OPENGL 2D ENGINE\INCLUDES\GLM\VEC3.HPP
C:\USERS\NABIL\DOCUMENTS\VISUAL STUDIO 2015\PROJECTS\OPENGL 2D ENGINE\INCLUDES\GLM\DETAIL\TYPE_VEC3.HPP
C:\USERS\NABIL\DOCUMENTS\VISUAL STUDIO 2015\PROJECTS\OPENGL 2D ENGINE\INCLUDES\GLM\DETAIL\TYPE_VEC3.INL
C:\USERS\NABIL\DOCUMENTS\VISUAL STUDIO 2015\PROJECTS\OPENGL 2D ENGINE\INCLUDES\GLM\VEC4.HPP
C:\USERS\NABIL\DOCUMENTS\VISUAL STUDIO 2015\PROJECTS\OPENGL 2D ENGINE\INCLUDES\GLM\DETAIL\TYPE_VEC4.HPP
C:\USERS\NABIL\DOCUMENTS\VISUAL STUDIO 2015\PROJECTS\OPENGL 2D ENGINE\INCLUDES\GLM\DETAIL\TYPE_VEC4.INL
C:\USERS\NABIL\DOCUMENTS\VISUAL STUDIO 2015\PROJECTS\OPENGL 2D ENGINE\INCLUDES\GLM\DETAIL\TYPE_VEC4_SSE2.INL
C:\USERS\NABIL\DOCUMENTS\VISUAL STUDIO 2015\PROJECTS\OPENGL 2D ENGINE\INCLUDES\GLM\MAT2X2.HPP
C:\USERS\NABIL\DOCUMENTS\VISUAL STUDIO 2015\PROJECTS\OPENGL 2D ENGINE\INCLUDES\GLM\DETAIL\TYPE_MAT2X2.HPP
C:\USERS\NABIL\DOCUMENTS\VISUAL STUDIO 2015\PROJECTS\OPENGL 2D ENGINE\INCLUDES\GLM\DETAIL\TYPE_MAT2X2.INL
C:\USERS\NABIL\DOCUMENTS\VISUAL STUDIO 2015\PROJECTS\OPENGL 2D ENGINE\INCLUDES\GLM\MAT2X3.HPP
C:\USERS\NABIL\DOCUMENTS\VISUAL STUDIO 2015\PROJECTS\OPENGL 2D ENGINE\INCLUDES\GLM\DETAIL\TYPE_MAT2X3.HPP
C:\USERS\NABIL\DOCUMENTS\VISUAL STUDIO 2015\PROJECTS\OPENGL 2D ENGINE\INCLUDES\GLM\DETAIL\TYPE_MAT2X3.INL
C:\USERS\NABIL\DOCUMENTS\VISUAL STUDIO 2015\PROJECTS\OPENGL 2D ENGINE\INCLUDES\GLM\MAT2X4.HPP
C:\USERS\NABIL\DOCUMENTS\VISUAL STUDIO 2015\PROJECTS\OPENGL 2D ENGINE\INCLUDES\GLM\DETAIL\TYPE_MAT2X4.HPP
C:\USERS\NABIL\DOCUMENTS\VISUAL STUDIO 2015\PROJECTS\OPENGL 2D ENGINE\INCLUDES\GLM\DETAIL\TYPE_MAT2X4.INL
C:\USERS\NABIL\DOCUMENTS\VISUAL STUDIO 2015\PROJECTS\OPENGL 2D ENGINE\INCLUDES\GLM\MAT3X2.HPP
C:\USERS\NABIL\DOCUMENTS\VISUAL STUDIO 2015\PROJECTS\OPENGL 2D ENGINE\INCLUDES\GLM\DETAIL\TYPE_MAT3X2.HPP
C:\USERS\NABIL\DOCUMENTS\VISUAL STUDIO 2015\PROJECTS\OPENGL 2D ENGINE\INCLUDES\GLM\DETAIL\TYPE_MAT3X2.INL
C:\USERS\NABIL\DOCUMENTS\VISUAL STUDIO 2015\PROJECTS\OPENGL 2D ENGINE\INCLUDES\GLM\MAT3X3.HPP
C:\USERS\NABIL\DOCUMENTS\VISUAL STUDIO 2015\PROJECTS\OPENGL 2D ENGINE\INCLUDES\GLM\DETAIL\TYPE_MAT3X3.HPP
C:\USERS\NABIL\DOCUMENTS\VISUAL STUDIO 2015\PROJECTS\OPENGL 2D ENGINE\INCLUDES\GLM\DETAIL\TYPE_MAT3X3.INL
C:\USERS\NABIL\DOCUMENTS\VISUAL STUDIO 2015\PROJECTS\OPENGL 2D ENGINE\INCLUDES\GLM\MAT3X4.HPP
C:\USERS\NABIL\DOCUMENTS\VISUAL STUDIO 2015\PROJECTS\OPENGL 2D ENGINE\INCLUDES\GLM\DETAIL\TYPE_MAT3X4.HPP
C:\USERS\NABIL\DOCUMENTS\VISUAL STUDIO 2015\PROJECTS\OPENGL 2D ENGINE\INCLUDES\GLM\DETAIL\TYPE_MAT3X4.INL
C:\USERS\NABIL\DOCUMENTS\VISUAL STUDIO 2015\PROJECTS\OPENGL 2D ENGINE\INCLUDES\GLM\MAT4X2.HPP
C:\USERS\NABIL\DOCUMENTS\VISUAL STUDIO 2015\PROJECTS\OPENGL 2D ENGINE\INCLUDES\GLM\DETAIL\TYPE_MAT4X2.HPP
C:\USERS\NABIL\DOCUMENTS\VISUAL STUDIO 2015\PROJECTS\OPENGL 2D ENGINE\INCLUDES\GLM\DETAIL\TYPE_MAT4X2.INL
C:\USERS\NABIL\DOCUMENTS\VISUAL STUDIO 2015\PROJECTS\OPENGL 2D ENGINE\INCLUDES\GLM\MAT4X3.HPP
C:\USERS\NABIL\DOCUMENTS\VISUAL STUDIO 2015\PROJECTS\OPENGL 2D ENGINE\INCLUDES\GLM\DETAIL\TYPE_MAT4X3.HPP
C:\USERS\NABIL\DOCUMENTS\VISUAL STUDIO 2015\PROJECTS\OPENGL 2D ENGINE\INCLUDES\GLM\DETAIL\TYPE_MAT4X3.INL
C:\USERS\NABIL\DOCUMENTS\VISUAL STUDIO 2015\PROJECTS\OPENGL 2D ENGINE\INCLUDES\GLM\MAT4X4.HPP
C:\USERS\NABIL\DOCUMENTS\VISUAL STUDIO 2015\PROJECTS\OPENGL 2D ENGINE\INCLUDES\GLM\DETAIL\TYPE_MAT4X4.HPP
C:\USERS\NABIL\DOCUMENTS\VISUAL STUDIO 2015\PROJECTS\OPENGL 2D ENGINE\INCLUDES\GLM\DETAIL\TYPE_MAT4X4.INL
C:\USERS\NABIL\DOCUMENTS\VISUAL STUDIO 2015\PROJECTS\OPENGL 2D ENGINE\INCLUDES\GLM\TRIGONOMETRIC.HPP
C:\USERS\NABIL\DOCUMENTS\VISUAL STUDIO 2015\PROJECTS\OPENGL 2D ENGINE\INCLUDES\GLM\DETAIL\FUNC_TRIGONOMETRIC.HPP
C:\USERS\NABIL\DOCUMENTS\VISUAL STUDIO 2015\PROJECTS\OPENGL 2D ENGINE\INCLUDES\GLM\DETAIL\FUNC_TRIGONOMETRIC.INL
C:\USERS\NABIL\DOCUMENTS\VISUAL STUDIO 2015\PROJECTS\OPENGL 2D ENGINE\INCLUDES\GLM\DETAIL\_VECTORIZE.HPP
C:\USERS\NABIL\DOCUMENTS\VISUAL STUDIO 2015\PROJECTS\OPENGL 2D ENGINE\INCLUDES\GLM\DETAIL\TYPE_VEC1.HPP
C:\USERS\NABIL\DOCUMENTS\VISUAL STUDIO 2015\PROJECTS\OPENGL 2D ENGINE\INCLUDES\GLM\DETAIL\TYPE_VEC1.INL
C:\USERS\NABIL\DOCUMENTS\VISUAL STUDIO 2015\PROJECTS\OPENGL 2D ENGINE\INCLUDES\GLM\EXPONENTIAL.HPP
C:\USERS\NABIL\DOCUMENTS\VISUAL STUDIO 2015\PROJECTS\OPENGL 2D ENGINE\INCLUDES\GLM\DETAIL\FUNC_EXPONENTIAL.HPP
C:\USERS\NABIL\DOCUMENTS\VISUAL STUDIO 2015\PROJECTS\OPENGL 2D ENGINE\INCLUDES\GLM\DETAIL\FUNC_EXPONENTIAL.INL
C:\USERS\NABIL\DOCUMENTS\VISUAL STUDIO 2015\PROJECTS\OPENGL 2D ENGINE\INCLUDES\GLM\DETAIL\FUNC_VECTOR_RELATIONAL.HPP
C:\USERS\NABIL\DOCUMENTS\VISUAL STUDIO 2015\PROJECTS\OPENGL 2D ENGINE\INCLUDES\GLM\DETAIL\FUNC_VECTOR_RELATIONAL.INL
C:\USERS\NABIL\DOCUMENTS\VISUAL STUDIO 2015\PROJECTS\OPENGL 2D ENGINE\INCLUDES\GLM\COMMON.HPP
C:\USERS\NABIL\DOCUMENTS\VISUAL STUDIO 2015\PROJECTS\OPENGL 2D ENGINE\INCLUDES\GLM\DETAIL\FUNC_COMMON.HPP
C:\USERS\NABIL\DOCUMENTS\VISUAL STUDIO 2015\PROJECTS\OPENGL 2D ENGINE\INCLUDES\GLM\DETAIL\FUNC_COMMON.INL
C:\USERS\NABIL\DOCUMENTS\VISUAL STUDIO 2015\PROJECTS\OPENGL 2D ENGINE\INCLUDES\GLM\PACKING.HPP
C:\USERS\NABIL\DOCUMENTS\VISUAL STUDIO 2015\PROJECTS\OPENGL 2D ENGINE\INCLUDES\GLM\DETAIL\FUNC_PACKING.HPP
C:\USERS\NABIL\DOCUMENTS\VISUAL STUDIO 2015\PROJECTS\OPENGL 2D ENGINE\INCLUDES\GLM\DETAIL\FUNC_PACKING.INL
C:\USERS\NABIL\DOCUMENTS\VISUAL STUDIO 2015\PROJECTS\OPENGL 2D ENGINE\INCLUDES\GLM\DETAIL\TYPE_HALF.HPP
C:\USERS\NABIL\DOCUMENTS\VISUAL STUDIO 2015\PROJECTS\OPENGL 2D ENGINE\INCLUDES\GLM\DETAIL\TYPE_HALF.INL
C:\USERS\NABIL\DOCUMENTS\VISUAL STUDIO 2015\PROJECTS\OPENGL 2D ENGINE\INCLUDES\GLM\GEOMETRIC.HPP
C:\USERS\NABIL\DOCUMENTS\VISUAL STUDIO 2015\PROJECTS\OPENGL 2D ENGINE\INCLUDES\GLM\DETAIL\FUNC_GEOMETRIC.HPP
C:\USERS\NABIL\DOCUMENTS\VISUAL STUDIO 2015\PROJECTS\OPENGL 2D ENGINE\INCLUDES\GLM\DETAIL\FUNC_GEOMETRIC.INL
C:\USERS\NABIL\DOCUMENTS\VISUAL STUDIO 2015\PROJECTS\OPENGL 2D ENGINE\INCLUDES\GLM\MATRIX.HPP
C:\USERS\NABIL\DOCUMENTS\VISUAL STUDIO 2015\PROJECTS\OPENGL 2D ENGINE\INCLUDES\GLM\DETAIL\FUNC_MATRIX.HPP
C:\USERS\NABIL\DOCUMENTS\VISUAL STUDIO 2015\PROJECTS\OPENGL 2D ENGINE\INCLUDES\GLM\DETAIL\FUNC_MATRIX.INL
C:\USERS\NABIL\DOCUMENTS\VISUAL STUDIO 2015\PROJECTS\OPENGL 2D ENGINE\INCLUDES\GLM\VECTOR_RELATIONAL.HPP
C:\USERS\NABIL\DOCUMENTS\VISUAL STUDIO 2015\PROJECTS\OPENGL 2D ENGINE\INCLUDES\GLM\INTEGER.HPP
C:\USERS\NABIL\DOCUMENTS\VISUAL STUDIO 2015\PROJECTS\OPENGL 2D ENGINE\INCLUDES\GLM\DETAIL\FUNC_INTEGER.HPP
C:\USERS\NABIL\DOCUMENTS\VISUAL STUDIO 2015\PROJECTS\OPENGL 2D ENGINE\INCLUDES\GLM\DETAIL\FUNC_INTEGER.INL
C:\USERS\NABIL\DOCUMENTS\VISUAL STUDIO 2015\PROJECTS\OPENGL 2D ENGINE\INCLUDES\GLM\GTC\MATRIX_TRANSFORM.HPP
C:\USERS\NABIL\DOCUMENTS\VISUAL STUDIO 2015\PROJECTS\OPENGL 2D ENGINE\INCLUDES\GLM\GTC\CONSTANTS.HPP
C:\USERS\NABIL\DOCUMENTS\VISUAL STUDIO 2015\PROJECTS\OPENGL 2D ENGINE\INCLUDES\GLM\GTC\CONSTANTS.INL
C:\USERS\NABIL\DOCUMENTS\VISUAL STUDIO 2015\PROJECTS\OPENGL 2D ENGINE\INCLUDES\GLM\GTC\MATRIX_TRANSFORM.INL
C:\USERS\NABIL\DOCUMENTS\VISUAL STUDIO 2015\PROJECTS\OPENGL 2D ENGINE\BENGINE\INCLUDES\SPRITEBATCH.H
C:\PROGRAM FILES (X86)\MICROSOFT VISUAL STUDIO 14.0\VC\INCLUDE\ALGORITHM
C:\USERS\NABIL\DOCUMENTS\VISUAL STUDIO 2015\PROJECTS\OPENGL 2D ENGINE\BENGINE\INCLUDES\INPUTMANAGER.H
C:\PROGRAM FILES (X86)\MICROSOFT VISUAL STUDIO 14.0\VC\INCLUDE\UNORDERED_MAP
C:\PROGRAM FILES (X86)\MICROSOFT VISUAL STUDIO 14.0\VC\INCLUDE\XHASH
C:\PROGRAM FILES (X86)\MICROSOFT VISUAL STUDIO 14.0\VC\INCLUDE\LIST
C:\USERS\NABIL\DOCUMENTS\VISUAL STUDIO 2015\PROJECTS\OPENGL 2D ENGINE\BENGINE\INCLUDES\TIMING.H
C:\USERS\NABIL\DOCUMENTS\VISUAL STUDIO 2015\PROJECTS\OPENGL 2D ENGINE\OPENGL\INCLUDES\BULLET.H
^C:\USERS\NABIL\DOCUMENTS\VISUAL STUDIO 2015\PROJECTS\OPENGL 2D ENGINE\OPENGL\BULLET.CPP
C:\USERS\NABIL\DOCUMENTS\VISUAL STUDIO 2015\PROJECTS\OPENGL 2D ENGINE\OPENGL\INCLUDES\BULLET.H
C:\USERS\NABIL\DOCUMENTS\VISUAL STUDIO 2015\PROJECTS\OPENGL 2D ENGINE\INCLUDES\GLM\GLM.HPP
C:\USERS\NABIL\DOCUMENTS\VISUAL STUDIO 2015\PROJECTS\OPENGL 2D ENGINE\INCLUDES\GLM\DETAIL\_FIXES.HPP
C:\PROGRAM FILES (X86)\MICROSOFT VISUAL STUDIO 14.0\VC\INCLUDE\CMATH
C:\PROGRAM FILES (X86)\MICROSOFT VISUAL STUDIO 14.0\VC\INCLUDE\YVALS.H
C:\PROGRAM FILES (X86)\MICROSOFT VISUAL STUDIO 14.0\VC\INCLUDE\XKEYCHECK.H
C:\PROGRAM FILES (X86)\MICROSOFT VISUAL STUDIO 14.0\VC\INCLUDE\CRTDEFS.H
C:\PROGRAM FILES (X86)\MICROSOFT VISUAL STUDIO 14.0\VC\INCLUDE\VCRUNTIME.H
C:\PROGRAM FILES (X86)\MICROSOFT VISUAL STUDIO 14.0\VC\INCLUDE\SAL.H
C:\PROGRAM FILES (X86)\MICROSOFT VISUAL STUDIO 14.0\VC\INCLUDE\CONCURRENCYSAL.H
C:\PROGRAM FILES (X86)\MICROSOFT VISUAL STUDIO 14.0\VC\INCLUDE\VADEFS.H
C:\PROGRAM FILES (X86)\WINDOWS KITS\10\INCLUDE\10.0.10586.0\UCRT\CORECRT.H
C:\PROGRAM FILES (X86)\MICROSOFT VISUAL STUDIO 14.0\VC\INCLUDE\USE_ANSI.H
C:\PROGRAM FILES (X86)\WINDOWS KITS\10\INCLUDE\10.0.10586.0\UCRT\MATH.H
C:\PROGRAM FILES (X86)\MICROSOFT VISUAL STUDIO 14.0\VC\INCLUDE\XTGMATH.H
C:\PROGRAM FILES (X86)\MICROSOFT VISUAL STUDIO 14.0\VC\INCLUDE\XTR1COMMON
C:\PROGRAM FILES (X86)\MICROSOFT VISUAL STUDIO 14.0\VC\INCLUDE\CSTDLIB
C:\PROGRAM FILES (X86)\WINDOWS KITS\10\INCLUDE\10.0.10586.0\UCRT\STDLIB.H
C:\PROGRAM FILES (X86)\WINDOWS KITS\10\INCLUDE\10.0.10586.0\UCRT\CORECRT_MALLOC.H
C:\PROGRAM FILES (X86)\WINDOWS KITS\10\INCLUDE\10.0.10586.0\UCRT\CORECRT_SEARCH.H
C:\PROGRAM FILES (X86)\WINDOWS KITS\10\INCLUDE\10.0.10586.0\UCRT\STDDEF.H
C:\PROGRAM FILES (X86)\WINDOWS KITS\10\INCLUDE\10.0.10586.0\UCRT\CORECRT_WSTDLIB.H
C:\PROGRAM FILES (X86)\MICROSOFT VISUAL STUDIO 14.0\VC\INCLUDE\LIMITS.H
C:\PROGRAM FILES (X86)\MICROSOFT VISUAL STUDIO 14.0\VC\INCLUDE\CLIMITS
C:\PROGRAM FILES (X86)\MICROSOFT VISUAL STUDIO 14.0\VC\INCLUDE\CFLOAT
C:\PROGRAM FILES (X86)\WINDOWS KITS\10\INCLUDE\10.0.10586.0\UCRT\FLOAT.H
C:\PROGRAM FILES (X86)\MICROSOFT VISUAL STUDIO 14.0\VC\INCLUDE\LIMITS
C:\PROGRAM FILES (X86)\MICROSOFT VISUAL STUDIO 14.0\VC\INCLUDE\YMATH.H
C:\PROGRAM FILES (X86)\MICROSOFT VISUAL STUDIO 14.0\VC\INCLUDE\CWCHAR
C:\PROGRAM FILES (X86)\WINDOWS KITS\10\INCLUDE\10.0.10586.0\UCRT\WCHAR.H
C:\PROGRAM FILES (X86)\WINDOWS KITS\10\INCLUDE\10.0.10586.0\UCRT\CORECRT_MEMCPY_S.H
C:\PROGRAM FILES (X86)\WINDOWS KITS\10\INCLUDE\10.0.10586.0\UCRT\ERRNO.H
C:\PROGRAM FILES (X86)\MICROSOFT VISUAL STUDIO 14.0\VC\INCLUDE\VCRUNTIME_STRING.H
C:\PROGRAM FILES (X86)\WINDOWS KITS\10\INCLUDE\10.0.10586.0\UCRT\CORECRT_WCONIO.H
C:\PROGRAM FILES (X86)\WINDOWS KITS\10\INCLUDE\10.0.10586.0\UCRT\CORECRT_STDIO_CONFIG.H
C:\PROGRAM FILES (X86)\WINDOWS KITS\10\INCLUDE\10.0.10586.0\UCRT\CORECRT_WCTYPE.H
C:\PROGRAM FILES (X86)\WINDOWS KITS\10\INCLUDE\10.0.10586.0\UCRT\CORECRT_WDIRECT.H
C:\PROGRAM FILES (X86)\WINDOWS KITS\10\INCLUDE\10.0.10586.0\UCRT\CORECRT_WIO.H
C:\PROGRAM FILES (X86)\WINDOWS KITS\10\INCLUDE\10.0.10586.0\UCRT\CORECRT_SHARE.H
C:\PROGRAM FILES (X86)\WINDOWS KITS\10\INCLUDE\10.0.10586.0\UCRT\CORECRT_WPROCESS.H
C:\PROGRAM FILES (X86)\WINDOWS KITS\10\INCLUDE\10.0.10586.0\UCRT\CORECRT_WSTDIO.H
C:\PROGRAM FILES (X86)\WINDOWS KITS\10\INCLUDE\10.0.10586.0\UCRT\CORECRT_WSTRING.H
C:\PROGRAM FILES (X86)\WINDOWS KITS\10\INCLUDE\10.0.10586.0\UCRT\CORECRT_WTIME.H
C:\PROGRAM FILES (X86)\WINDOWS KITS\10\INCLUDE\10.0.10586.0\UCRT\SYS\STAT.H
C:\PROGRAM FILES (X86)\WINDOWS KITS\10\INCLUDE\10.0.10586.0\UCRT\SYS\TYPES.H
C:\PROGRAM FILES (X86)\MICROSOFT VISUAL STUDIO 14.0\VC\INCLUDE\XSTDDEF
C:\PROGRAM FILES (X86)\MICROSOFT VISUAL STUDIO 14.0\VC\INCLUDE\CSTDDEF
C:\PROGRAM FILES (X86)\MICROSOFT VISUAL STUDIO 14.0\VC\INCLUDE\INITIALIZER_LIST
C:\PROGRAM FILES (X86)\MICROSOFT VISUAL STUDIO 14.0\VC\INCLUDE\CASSERT
C:\PROGRAM FILES (X86)\WINDOWS KITS\10\INCLUDE\10.0.10586.0\UCRT\ASSERT.H
C:\USERS\NABIL\DOCUMENTS\VISUAL STUDIO 2015\PROJECTS\OPENGL 2D ENGINE\INCLUDES\GLM\FWD.HPP
C:\USERS\NABIL\DOCUMENTS\VISUAL STUDIO 2015\PROJECTS\OPENGL 2D ENGINE\INCLUDES\GLM\DETAIL\TYPE_INT.HPP
C:\USERS\NABIL\DOCUMENTS\VISUAL STUDIO 2015\PROJECTS\OPENGL 2D ENGINE\INCLUDES\GLM\DETAIL\SETUP.HPP
C:\PROGRAM FILES (X86)\MICROSOFT VISUAL STUDIO 14.0\VC\INCLUDE\EMMINTRIN.H
C:\PROGRAM FILES (X86)\MICROSOFT VISUAL STUDIO 14.0\VC\INCLUDE\XMMINTRIN.H
C:\PROGRAM FILES (X86)\MICROSOFT VISUAL STUDIO 14.0\VC\INCLUDE\MMINTRIN.H
C:\PROGRAM FILES (X86)\WINDOWS KITS\10\INCLUDE\10.0.10586.0\UCRT\MALLOC.H
C:\PROGRAM FILES (X86)\MICROSOFT VISUAL STUDIO 14.0\VC\INCLUDE\TYPE_TRAITS
C:\PROGRAM FILES (X86)\MICROSOFT VISUAL STUDIO 14.0\VC\INCLUDE\CSTDINT
C:\PROGRAM FILES (X86)\MICROSOFT VISUAL STUDIO 14.0\VC\INCLUDE\STDINT.H
C:\USERS\NABIL\DOCUMENTS\VISUAL STUDIO 2015\PROJECTS\OPENGL 2D ENGINE\INCLUDES\GLM\DETAIL\TYPE_FLOAT.HPP
C:\USERS\NABIL\DOCUMENTS\VISUAL STUDIO 2015\PROJECTS\OPENGL 2D ENGINE\INCLUDES\GLM\DETAIL\TYPE_VEC.HPP
C:\USERS\NABIL\DOCUMENTS\VISUAL STUDIO 2015\PROJECTS\OPENGL 2D ENGINE\INCLUDES\GLM\DETAIL\PRECISION.HPP
C:\USERS\NABIL\DOCUMENTS\VISUAL STUDIO 2015\PROJECTS\OPENGL 2D ENGINE\INCLUDES\GLM\DETAIL\TYPE_MAT.HPP
C:\USERS\NABIL\DOCUMENTS\VISUAL STUDIO 2015\PROJECTS\OPENGL 2D ENGINE\INCLUDES\GLM\VEC2.HPP
C:\USERS\NABIL\DOCUMENTS\VISUAL STUDIO 2015\PROJECTS\OPENGL 2D ENGINE\INCLUDES\GLM\DETAIL\TYPE_VEC2.HPP
C:\USERS\NABIL\DOCUMENTS\VISUAL STUDIO 2015\PROJECTS\OPENGL 2D ENGINE\INCLUDES\GLM\DETAIL\TYPE_VEC2.INL
C:\USERS\NABIL\DOCUMENTS\VISUAL STUDIO 2015\PROJECTS\OPENGL 2D ENGINE\INCLUDES\GLM\VEC3.HPP
C:\USERS\NABIL\DOCUMENTS\VISUAL STUDIO 2015\PROJECTS\OPENGL 2D ENGINE\INCLUDES\GLM\DETAIL\TYPE_VEC3.HPP
C:\USERS\NABIL\DOCUMENTS\VISUAL STUDIO 2015\PROJECTS\OPENGL 2D ENGINE\INCLUDES\GLM\DETAIL\TYPE_VEC3.INL
C:\USERS\NABIL\DOCUMENTS\VISUAL STUDIO 2015\PROJECTS\OPENGL 2D ENGINE\INCLUDES\GLM\VEC4.HPP
C:\USERS\NABIL\DOCUMENTS\VISUAL STUDIO 2015\PROJECTS\OPENGL 2D ENGINE\INCLUDES\GLM\DETAIL\TYPE_VEC4.HPP
C:\USERS\NABIL\DOCUMENTS\VISUAL STUDIO 2015\PROJECTS\OPENGL 2D ENGINE\INCLUDES\GLM\DETAIL\TYPE_VEC4.INL
C:\USERS\NABIL\DOCUMENTS\VISUAL STUDIO 2015\PROJECTS\OPENGL 2D ENGINE\INCLUDES\GLM\DETAIL\TYPE_VEC4_SSE2.INL
C:\USERS\NABIL\DOCUMENTS\VISUAL STUDIO 2015\PROJECTS\OPENGL 2D ENGINE\INCLUDES\GLM\MAT2X2.HPP
C:\USERS\NABIL\DOCUMENTS\VISUAL STUDIO 2015\PROJECTS\OPENGL 2D ENGINE\INCLUDES\GLM\DETAIL\TYPE_MAT2X2.HPP
C:\USERS\NABIL\DOCUMENTS\VISUAL STUDIO 2015\PROJECTS\OPENGL 2D ENGINE\INCLUDES\GLM\DETAIL\TYPE_MAT2X2.INL
C:\USERS\NABIL\DOCUMENTS\VISUAL STUDIO 2015\PROJECTS\OPENGL 2D ENGINE\INCLUDES\GLM\MAT2X3.HPP
C:\USERS\NABIL\DOCUMENTS\VISUAL STUDIO 2015\PROJECTS\OPENGL 2D ENGINE\INCLUDES\GLM\DETAIL\TYPE_MAT2X3.HPP
C:\USERS\NABIL\DOCUMENTS\VISUAL STUDIO 2015\PROJECTS\OPENGL 2D ENGINE\INCLUDES\GLM\DETAIL\TYPE_MAT2X3.INL
C:\USERS\NABIL\DOCUMENTS\VISUAL STUDIO 2015\PROJECTS\OPENGL 2D ENGINE\INCLUDES\GLM\MAT2X4.HPP
C:\USERS\NABIL\DOCUMENTS\VISUAL STUDIO 2015\PROJECTS\OPENGL 2D ENGINE\INCLUDES\GLM\DETAIL\TYPE_MAT2X4.HPP
C:\USERS\NABIL\DOCUMENTS\VISUAL STUDIO 2015\PROJECTS\OPENGL 2D ENGINE\INCLUDES\GLM\DETAIL\TYPE_MAT2X4.INL
C:\USERS\NABIL\DOCUMENTS\VISUAL STUDIO 2015\PROJECTS\OPENGL 2D ENGINE\INCLUDES\GLM\MAT3X2.HPP
C:\USERS\NABIL\DOCUMENTS\VISUAL STUDIO 2015\PROJECTS\OPENGL 2D ENGINE\INCLUDES\GLM\DETAIL\TYPE_MAT3X2.HPP
C:\USERS\NABIL\DOCUMENTS\VISUAL STUDIO 2015\PROJECTS\OPENGL 2D ENGINE\INCLUDES\GLM\DETAIL\TYPE_MAT3X2.INL
C:\USERS\NABIL\DOCUMENTS\VISUAL STUDIO 2015\PROJECTS\OPENGL 2D ENGINE\INCLUDES\GLM\MAT3X3.HPP
C:\USERS\NABIL\DOCUMENTS\VISUAL STUDIO 2015\PROJECTS\OPENGL 2D ENGINE\INCLUDES\GLM\DETAIL\TYPE_MAT3X3.HPP
C:\USERS\NABIL\DOCUMENTS\VISUAL STUDIO 2015\PROJECTS\OPENGL 2D ENGINE\INCLUDES\GLM\DETAIL\TYPE_MAT3X3.INL
C:\USERS\NABIL\DOCUMENTS\VISUAL STUDIO 2015\PROJECTS\OPENGL 2D ENGINE\INCLUDES\GLM\MAT3X4.HPP
C:\USERS\NABIL\DOCUMENTS\VISUAL STUDIO 2015\PROJECTS\OPENGL 2D ENGINE\INCLUDES\GLM\DETAIL\TYPE_MAT3X4.HPP
C:\USERS\NABIL\DOCUMENTS\VISUAL STUDIO 2015\PROJECTS\OPENGL 2D ENGINE\INCLUDES\GLM\DETAIL\TYPE_MAT3X4.INL
C:\USERS\NABIL\DOCUMENTS\VISUAL STUDIO 2015\PROJECTS\OPENGL 2D ENGINE\INCLUDES\GLM\MAT4X2.HPP
C:\USERS\NABIL\DOCUMENTS\VISUAL STUDIO 2015\PROJECTS\OPENGL 2D ENGINE\INCLUDES\GLM\DETAIL\TYPE_MAT4X2.HPP
C:\USERS\NABIL\DOCUMENTS\VISUAL STUDIO 2015\PROJECTS\OPENGL 2D ENGINE\INCLUDES\GLM\DETAIL\TYPE_MAT4X2.INL
C:\USERS\NABIL\DOCUMENTS\VISUAL STUDIO 2015\PROJECTS\OPENGL 2D ENGINE\INCLUDES\GLM\MAT4X3.HPP
C:\USERS\NABIL\DOCUMENTS\VISUAL STUDIO 2015\PROJECTS\OPENGL 2D ENGINE\INCLUDES\GLM\DETAIL\TYPE_MAT4X3.HPP
C:\USERS\NABIL\DOCUMENTS\VISUAL STUDIO 2015\PROJECTS\OPENGL 2D ENGINE\INCLUDES\GLM\DETAIL\TYPE_MAT4X3.INL
C:\USERS\NABIL\DOCUMENTS\VISUAL STUDIO 2015\PROJECTS\OPENGL 2D ENGINE\INCLUDES\GLM\MAT4X4.HPP
C:\USERS\NABIL\DOCUMENTS\VISUAL STUDIO 2015\PROJECTS\OPENGL 2D ENGINE\INCLUDES\GLM\DETAIL\TYPE_MAT4X4.HPP
C:\USERS\NABIL\DOCUMENTS\VISUAL STUDIO 2015\PROJECTS\OPENGL 2D ENGINE\INCLUDES\GLM\DETAIL\TYPE_MAT4X4.INL
C:\USERS\NABIL\DOCUMENTS\VISUAL STUDIO 2015\PROJECTS\OPENGL 2D ENGINE\INCLUDES\GLM\TRIGONOMETRIC.HPP
C:\USERS\NABIL\DOCUMENTS\VISUAL STUDIO 2015\PROJECTS\OPENGL 2D ENGINE\INCLUDES\GLM\DETAIL\FUNC_TRIGONOMETRIC.HPP
C:\USERS\NABIL\DOCUMENTS\VISUAL STUDIO 2015\PROJECTS\OPENGL 2D ENGINE\INCLUDES\GLM\DETAIL\FUNC_TRIGONOMETRIC.INL
C:\USERS\NABIL\DOCUMENTS\VISUAL STUDIO 2015\PROJECTS\OPENGL 2D ENGINE\INCLUDES\GLM\DETAIL\_VECTORIZE.HPP
C:\USERS\NABIL\DOCUMENTS\VISUAL STUDIO 2015\PROJECTS\OPENGL 2D ENGINE\INCLUDES\GLM\DETAIL\TYPE_VEC1.HPP
C:\USERS\NABIL\DOCUMENTS\VISUAL STUDIO 2015\PROJECTS\OPENGL 2D ENGINE\INCLUDES\GLM\DETAIL\TYPE_VEC1.INL
C:\USERS\NABIL\DOCUMENTS\VISUAL STUDIO 2015\PROJECTS\OPENGL 2D ENGINE\INCLUDES\GLM\EXPONENTIAL.HPP
C:\USERS\NABIL\DOCUMENTS\VISUAL STUDIO 2015\PROJECTS\OPENGL 2D ENGINE\INCLUDES\GLM\DETAIL\FUNC_EXPONENTIAL.HPP
C:\USERS\NABIL\DOCUMENTS\VISUAL STUDIO 2015\PROJECTS\OPENGL 2D ENGINE\INCLUDES\GLM\DETAIL\FUNC_EXPONENTIAL.INL
C:\USERS\NABIL\DOCUMENTS\VISUAL STUDIO 2015\PROJECTS\OPENGL 2D ENGINE\INCLUDES\GLM\DETAIL\FUNC_VECTOR_RELATIONAL.HPP
C:\USERS\NABIL\DOCUMENTS\VISUAL STUDIO 2015\PROJECTS\OPENGL 2D ENGINE\INCLUDES\GLM\DETAIL\FUNC_VECTOR_RELATIONAL.INL
C:\USERS\NABIL\DOCUMENTS\VISUAL STUDIO 2015\PROJECTS\OPENGL 2D ENGINE\INCLUDES\GLM\COMMON.HPP
C:\USERS\NABIL\DOCUMENTS\VISUAL STUDIO 2015\PROJECTS\OPENGL 2D ENGINE\INCLUDES\GLM\DETAIL\FUNC_COMMON.HPP
C:\USERS\NABIL\DOCUMENTS\VISUAL STUDIO 2015\PROJECTS\OPENGL 2D ENGINE\INCLUDES\GLM\DETAIL\FUNC_COMMON.INL
C:\USERS\NABIL\DOCUMENTS\VISUAL STUDIO 2015\PROJECTS\OPENGL 2D ENGINE\INCLUDES\GLM\PACKING.HPP
C:\USERS\NABIL\DOCUMENTS\VISUAL STUDIO 2015\PROJECTS\OPENGL 2D ENGINE\INCLUDES\GLM\DETAIL\FUNC_PACKING.HPP
C:\USERS\NABIL\DOCUMENTS\VISUAL STUDIO 2015\PROJECTS\OPENGL 2D ENGINE\INCLUDES\GLM\DETAIL\FUNC_PACKING.INL
C:\USERS\NABIL\DOCUMENTS\VISUAL STUDIO 2015\PROJECTS\OPENGL 2D ENGINE\INCLUDES\GLM\DETAIL\TYPE_HALF.HPP
C:\USERS\NABIL\DOCUMENTS\VISUAL STUDIO 2015\PROJECTS\OPENGL 2D ENGINE\INCLUDES\GLM\DETAIL\TYPE_HALF.INL
C:\USERS\NABIL\DOCUMENTS\VISUAL STUDIO 2015\PROJECTS\OPENGL 2D ENGINE\INCLUDES\GLM\GEOMETRIC.HPP
C:\USERS\NABIL\DOCUMENTS\VISUAL STUDIO 2015\PROJECTS\OPENGL 2D ENGINE\INCLUDES\GLM\DETAIL\FUNC_GEOMETRIC.HPP
C:\USERS\NABIL\DOCUMENTS\VISUAL STUDIO 2015\PROJECTS\OPENGL 2D ENGINE\INCLUDES\GLM\DETAIL\FUNC_GEOMETRIC.INL
C:\USERS\NABIL\DOCUMENTS\VISUAL STUDIO 2015\PROJECTS\OPENGL 2D ENGINE\INCLUDES\GLM\MATRIX.HPP
C:\USERS\NABIL\DOCUMENTS\VISUAL STUDIO 2015\PROJECTS\OPENGL 2D ENGINE\INCLUDES\GLM\DETAIL\FUNC_MATRIX.HPP
C:\USERS\NABIL\DOCUMENTS\VISUAL STUDIO 2015\PROJECTS\OPENGL 2D ENGINE\INCLUDES\GLM\DETAIL\FUNC_MATRIX.INL
C:\USERS\NABIL\DOCUMENTS\VISUAL STUDIO 2015\PROJECTS\OPENGL 2D ENGINE\INCLUDES\GLM\VECTOR_RELATIONAL.HPP
C:\USERS\NABIL\DOCUMENTS\VISUAL STUDIO 2015\PROJECTS\OPENGL 2D ENGINE\INCLUDES\GLM\INTEGER.HPP
C:\USERS\NABIL\DOCUMENTS\VISUAL STUDIO 2015\PROJECTS\OPENGL 2D ENGINE\INCLUDES\GLM\DETAIL\FUNC_INTEGER.HPP
C:\USERS\NABIL\DOCUMENTS\VISUAL STUDIO 2015\PROJECTS\OPENGL 2D ENGINE\INCLUDES\GLM\DETAIL\FUNC_INTEGER.INL
C:\PROGRAM FILES (X86)\MICROSOFT VISUAL STUDIO 14.0\VC\INCLUDE\INTRIN.H
C:\PROGRAM FILES (X86)\MICROSOFT VISUAL STUDIO 14.0\VC\INCLUDE\SETJMP.H
C:\PROGRAM FILES (X86)\MICROSOFT VISUAL STUDIO 14.0\VC\INCLUDE\IMMINTRIN.H
C:\PROGRAM FILES (X86)\MICROSOFT VISUAL STUDIO 14.0\VC\INCLUDE\WMMINTRIN.H
C:\PROGRAM FILES (X86)\MICROSOFT VISUAL STUDIO 14.0\VC\INCLUDE\NMMINTRIN.H
C:\PROGRAM FILES (X86)\MICROSOFT VISUAL STUDIO 14.0\VC\INCLUDE\SMMINTRIN.H
C:\PROGRAM FILES (X86)\MICROSOFT VISUAL STUDIO 14.0\VC\INCLUDE\TMMINTRIN.H
C:\PROGRAM FILES (X86)\MICROSOFT VISUAL STUDIO 14.0\VC\INCLUDE\PMMINTRIN.H
C:\PROGRAM FILES (X86)\MICROSOFT VISUAL STUDIO 14.0\VC\INCLUDE\AMMINTRIN.H
C:\PROGRAM FILES (X86)\MICROSOFT VISUAL STUDIO 14.0\VC\INCLUDE\MM3DNOW.H
C:\USERS\NABIL\DOCUMENTS\VISUAL STUDIO 2015\PROJECTS\OPENGL 2D ENGINE\BENGINE\INCLUDES\SPRITEBATCH.H
C:\USERS\NABIL\DOCUMENTS\VISUAL STUDIO 2015\PROJECTS\OPENGL 2D ENGINE\INCLUDES\GL\GLEW.H
C:\PROGRAM FILES (X86)\WINDOWS KITS\10\INCLUDE\10.0.10586.0\UM\GL\GLU.H
C:\PROGRAM FILES (X86)\WINDOWS KITS\10\INCLUDE\10.0.10586.0\SHARED\WINAPIFAMILY.H
C:\PROGRAM FILES (X86)\WINDOWS KITS\10\INCLUDE\10.0.10586.0\SHARED\WINPACKAGEFAMILY.H
C:\PROGRAM FILES (X86)\WINDOWS KITS\10\INCLUDE\10.0.10586.0\UM\GL\GL.H
C:\USERS\NABIL\DOCUMENTS\VISUAL STUDIO 2015\PROJECTS\OPENGL 2D ENGINE\BENGINE\INCLUDES\VERTEX.H
C:\PROGRAM FILES (X86)\MICROSOFT VISUAL STUDIO 14.0\VC\INCLUDE\VECTOR
C:\PROGRAM FILES (X86)\MICROSOFT VISUAL STUDIO 14.0\VC\INCLUDE\XMEMORY
C:\PROGRAM FILES (X86)\MICROSOFT VISUAL STUDIO 14.0\VC\INCLUDE\XMEMORY0
C:\PROGRAM FILES (X86)\MICROSOFT VISUAL STUDIO 14.0\VC\INCLUDE\NEW
C:\PROGRAM FILES (X86)\MICROSOFT VISUAL STUDIO 14.0\VC\INCLUDE\EXCEPTION
C:\PROGRAM FILES (X86)\MICROSOFT VISUAL STUDIO 14.0\VC\INCLUDE\VCRUNTIME_EXCEPTION.H
C:\PROGRAM FILES (X86)\MICROSOFT VISUAL STUDIO 14.0\VC\INCLUDE\EH.H
C:\PROGRAM FILES (X86)\WINDOWS KITS\10\INCLUDE\10.0.10586.0\UCRT\CORECRT_TERMINATE.H
C:\PROGRAM FILES (X86)\MICROSOFT VISUAL STUDIO 14.0\VC\INCLUDE\VCRUNTIME_NEW.H
C:\PROGRAM FILES (X86)\MICROSOFT VISUAL STUDIO 14.0\VC\INCLUDE\XUTILITY
C:\PROGRAM FILES (X86)\MICROSOFT VISUAL STUDIO 14.0\VC\INCLUDE\UTILITY
C:\PROGRAM FILES (X86)\MICROSOFT VISUAL STUDIO 14.0\VC\INCLUDE\IOSFWD
C:\PROGRAM FILES (X86)\MICROSOFT VISUAL STUDIO 14.0\VC\INCLUDE\CSTDIO
C:\PROGRAM FILES (X86)\WINDOWS KITS\10\INCLUDE\10.0.10586.0\UCRT\STDIO.H
C:\PROGRAM FILES (X86)\MICROSOFT VISUAL STUDIO 14.0\VC\INCLUDE\CSTRING
C:\PROGRAM FILES (X86)\WINDOWS KITS\10\INCLUDE\10.0.10586.0\UCRT\STRING.H
C:\PROGRAM FILES (X86)\WINDOWS KITS\10\INCLUDE\10.0.10586.0\UCRT\CORECRT_MEMORY.H
C:\PROGRAM FILES (X86)\WINDOWS KITS\10\INCLUDE\10.0.10586.0\UCRT\CRTDBG.H
C:\PROGRAM FILES (X86)\MICROSOFT VISUAL STUDIO 14.0\VC\INCLUDE\VCRUNTIME_NEW_DEBUG.H
C:\PROGRAM FILES (X86)\MICROSOFT VISUAL STUDIO 14.0\VC\INCLUDE\XATOMIC0.H
C:\PROGRAM FILES (X86)\MICROSOFT VISUAL STUDIO 14.0\VC\INCLUDE\STDEXCEPT
C:\PROGRAM FILES (X86)\MICROSOFT VISUAL STUDIO 14.0\VC\INCLUDE\XSTRING
C:\PROGRAM FILES (X86)\MICROSOFT VISUAL STUDIO 14.0\VC\INCLUDE\ALGORITHM
C:\USERS\NABIL\DOCUMENTS\VISUAL STUDIO 2015\PROJECTS\OPENGL 2D ENGINE\BENGINE\INCLUDES\RESOURCEMANAGER.H
C:\USERS\NABIL\DOCUMENTS\VISUAL STUDIO 2015\PROJECTS\OPENGL 2D ENGINE\BENGINE\INCLUDES\TEXTURECACHE.H
C:\PROGRAM FILES (X86)\MICROSOFT VISUAL STUDIO 14.0\VC\INCLUDE\MAP
C:\PROGRAM FILES (X86)\MICROSOFT VISUAL STUDIO 14.0\VC\INCLUDE\TUPLE
C:\PROGRAM FILES (X86)\MICROSOFT VISUAL STUDIO 14.0\VC\INCLUDE\XTREE
C:\PROGRAM FILES (X86)\MICROSOFT VISUAL STUDIO 14.0\VC\INCLUDE\STRING
C:\PROGRAM FILES (X86)\MICROSOFT VISUAL STUDIO 14.0\VC\INCLUDE\ISTREAM
C:\PROGRAM FILES (X86)\MICROSOFT VISUAL STUDIO 14.0\VC\INCLUDE\OSTREAM
C:\PROGRAM FILES (X86)\MICROSOFT VISUAL STUDIO 14.0\VC\INCLUDE\IOS
C:\PROGRAM FILES (X86)\MICROSOFT VISUAL STUDIO 14.0\VC\INCLUDE\XLOCNUM
C:\PROGRAM FILES (X86)\MICROSOFT VISUAL STUDIO 14.0\VC\INCLUDE\STREAMBUF
C:\PROGRAM FILES (X86)\MICROSOFT VISUAL STUDIO 14.0\VC\INCLUDE\XIOSBASE
C:\PROGRAM FILES (X86)\MICROSOFT VISUAL STUDIO 14.0\VC\INCLUDE\XLOCALE
C:\PROGRAM FILES (X86)\MICROSOFT VISUAL STUDIO 14.0\VC\INCLUDE\TYPEINFO
C:\PROGRAM FILES (X86)\MICROSOFT VISUAL STUDIO 14.0\VC\INCLUDE\VCRUNTIME_TYPEINFO.H
C:\PROGRAM FILES (X86)\MICROSOFT VISUAL STUDIO 14.0\VC\INCLUDE\XLOCINFO
C:\PROGRAM FILES (X86)\MICROSOFT VISUAL STUDIO 14.0\VC\INCLUDE\XLOCINFO.H
C:\PROGRAM FILES (X86)\WINDOWS KITS\10\INCLUDE\10.0.10586.0\UCRT\CTYPE.H
C:\PROGRAM FILES (X86)\WINDOWS KITS\10\INCLUDE\10.0.10586.0\UCRT\LOCALE.H
C:\PROGRAM FILES (X86)\MICROSOFT VISUAL STUDIO 14.0\VC\INCLUDE\XFACET
C:\PROGRAM FILES (X86)\MICROSOFT VISUAL STUDIO 14.0\VC\INCLUDE\SYSTEM_ERROR
C:\PROGRAM FILES (X86)\MICROSOFT VISUAL STUDIO 14.0\VC\INCLUDE\CERRNO
C:\PROGRAM FILES (X86)\WINDOWS KITS\10\INCLUDE\10.0.10586.0\UCRT\SHARE.H
C:\PROGRAM FILES (X86)\MICROSOFT VISUAL STUDIO 14.0\VC\INCLUDE\IOSTREAM
C:\USERS\NABIL\DOCUMENTS\VISUAL STUDIO 2015\PROJECTS\OPENGL 2D ENGINE\BENGINE\INCLUDES\GLTEXTURE.H
C:\USERS\NABIL\DOCUMENTS\VISUAL STUDIO 2015\PROJECTS\OPENGL 2D ENGINE\BENGINE\INCLUDES\IMAGELOADER.H
C:\USERS\NABIL\DOCUMENTS\VISUAL STUDIO 2015\PROJECTS\OPENGL 2D ENGINE\BENGINE\INCLUDES\ERRORSUITE.H
C:\USERS\NABIL\DOCUMENTS\VISUAL STUDIO 2015\PROJECTS\OPENGL 2D ENGINE\INCLUDES\SDL\INCLUDE\SDL.H
C:\USERS\NABIL\DOCUMENTS\VISUAL STUDIO 2015\PROJECTS\OPENGL 2D ENGINE\INCLUDES\SDL\INCLUDE\SDL_MAIN.H
C:\USERS\NABIL\DOCUMENTS\VISUAL STUDIO 2015\PROJECTS\OPENGL 2D ENGINE\INCLUDES\SDL\INCLUDE\SDL_STDINC.H
C:\USERS\NABIL\DOCUMENTS\VISUAL STUDIO 2015\PROJECTS\OPENGL 2D ENGINE\INCLUDES\SDL\INCLUDE\SDL_CONFIG.H
C:\USERS\NABIL\DOCUMENTS\VISUAL STUDIO 2015\PROJECTS\OPENGL 2D ENGINE\INCLUDES\SDL\INCLUDE\SDL_PLATFORM.H
C:\USERS\NABIL\DOCUMENTS\VISUAL STUDIO 2015\PROJECTS\OPENGL 2D ENGINE\INCLUDES\SDL\INCLUDE\BEGIN_CODE.H
C:\USERS\NABIL\DOCUMENTS\VISUAL STUDIO 2015\PROJECTS\OPENGL 2D ENGINE\INCLUDES\SDL\INCLUDE\CLOSE_CODE.H
C:\USERS\NABIL\DOCUMENTS\VISUAL STUDIO 2015\PROJECTS\OPENGL 2D ENGINE\INCLUDES\SDL\INCLUDE\SDL_CONFIG_WINDOWS.H
C:\PROGRAM FILES (X86)\MICROSOFT VISUAL STUDIO 14.0\VC\INCLUDE\STDARG.H
C:\USERS\NABIL\DOCUMENTS\VISUAL STUDIO 2015\PROJECTS\OPENGL 2D ENGINE\INCLUDES\SDL\INCLUDE\SDL_ASSERT.H
C:\USERS\NABIL\DOCUMENTS\VISUAL STUDIO 2015\PROJECTS\OPENGL 2D ENGINE\INCLUDES\SDL\INCLUDE\SDL_ATOMIC.H
C:\USERS\NABIL\DOCUMENTS\VISUAL STUDIO 2015\PROJECTS\OPENGL 2D ENGINE\INCLUDES\SDL\INCLUDE\SDL_AUDIO.H
C:\USERS\NABIL\DOCUMENTS\VISUAL STUDIO 2015\PROJECTS\OPENGL 2D ENGINE\INCLUDES\SDL\INCLUDE\SDL_ERROR.H
C:\USERS\NABIL\DOCUMENTS\VISUAL STUDIO 2015\PROJECTS\OPENGL 2D ENGINE\INCLUDES\SDL\INCLUDE\SDL_ENDIAN.H
C:\USERS\NABIL\DOCUMENTS\VISUAL STUDIO 2015\PROJECTS\OPENGL 2D ENGINE\INCLUDES\SDL\INCLUDE\SDL_MUTEX.H
C:\USERS\NABIL\DOCUMENTS\VISUAL STUDIO 2015\PROJECTS\OPENGL 2D ENGINE\INCLUDES\SDL\INCLUDE\SDL_THREAD.H
C:\PROGRAM FILES (X86)\WINDOWS KITS\10\INCLUDE\10.0.10586.0\UCRT\PROCESS.H
C:\PROGRAM FILES (X86)\WINDOWS KITS\10\INCLUDE\10.0.10586.0\UCRT\CORECRT_STARTUP.H
C:\PROGRAM FILES (X86)\MICROSOFT VISUAL STUDIO 14.0\VC\INCLUDE\VCRUNTIME_STARTUP.H
C:\PROGRAM FILES (X86)\MICROSOFT VISUAL STUDIO 14.0\VC\INCLUDE\STDBOOL.H
C:\USERS\NABIL\DOCUMENTS\VISUAL STUDIO 2015\PROJECTS\OPENGL 2D ENGINE\INCLUDES\SDL\INCLUDE\SDL_RWOPS.H
C:\USERS\NABIL\DOCUMENTS\VISUAL STUDIO 2015\PROJECTS\OPENGL 2D ENGINE\INCLUDES\SDL\INCLUDE\SDL_CLIPBOARD.H
C:\USERS\NABIL\DOCUMENTS\VISUAL STUDIO 2015\PROJECTS\OPENGL 2D ENGINE\INCLUDES\SDL\INCLUDE\SDL_CPUINFO.H
C:\USERS\NABIL\DOCUMENTS\VISUAL STUDIO 2015\PROJECTS\OPENGL 2D ENGINE\INCLUDES\SDL\INCLUDE\SDL_EVENTS.H
C:\USERS\NABIL\DOCUMENTS\VISUAL STUDIO 2015\PROJECTS\OPENGL 2D ENGINE\INCLUDES\SDL\INCLUDE\SDL_VIDEO.H
C:\USERS\NABIL\DOCUMENTS\VISUAL STUDIO 2015\PROJECTS\OPENGL 2D ENGINE\INCLUDES\SDL\INCLUDE\SDL_PIXELS.H
C:\USERS\NABIL\DOCUMENTS\VISUAL STUDIO 2015\PROJECTS\OPENGL 2D ENGINE\INCLUDES\SDL\INCLUDE\SDL_RECT.H
C:\USERS\NABIL\DOCUMENTS\VISUAL STUDIO 2015\PROJECTS\OPENGL 2D ENGINE\INCLUDES\SDL\INCLUDE\SDL_SURFACE.H
C:\USERS\NABIL\DOCUMENTS\VISUAL STUDIO 2015\PROJECTS\OPENGL 2D ENGINE\INCLUDES\SDL\INCLUDE\SDL_BLENDMODE.H
C:\USERS\NABIL\DOCUMENTS\VISUAL STUDIO 2015\PROJECTS\OPENGL 2D ENGINE\INCLUDES\SDL\INCLUDE\SDL_KEYBOARD.H
C:\USERS\NABIL\DOCUMENTS\VISUAL STUDIO 2015\PROJECTS\OPENGL 2D ENGINE\INCLUDES\SDL\INCLUDE\SDL_KEYCODE.H
C:\USERS\NABIL\DOCUMENTS\VISUAL STUDIO 2015\PROJECTS\OPENGL 2D ENGINE\INCLUDES\SDL\INCLUDE\SDL_SCANCODE.H
C:\USERS\NABIL\DOCUMENTS\VISUAL STUDIO 2015\PROJECTS\OPENGL 2D ENGINE\INCLUDES\SDL\INCLUDE\SDL_MOUSE.H
C:\USERS\NABIL\DOCUMENTS\VISUAL STUDIO 2015\PROJECTS\OPENGL 2D ENGINE\INCLUDES\SDL\INCLUDE\SDL_JOYSTICK.H
C:\USERS\NABIL\DOCUMENTS\VISUAL STUDIO 2015\PROJECTS\OPENGL 2D ENGINE\INCLUDES\SDL\INCLUDE\SDL_GAMECONTROLLER.H
C:\USERS\NABIL\DOCUMENTS\VISUAL STUDIO 2015\PROJECTS\OPENGL 2D ENGINE\INCLUDES\SDL\INCLUDE\SDL_QUIT.H
C:\USERS\NABIL\DOCUMENTS\VISUAL STUDIO 2015\PROJECTS\OPENGL 2D ENGINE\INCLUDES\SDL\INCLUDE\SDL_GESTURE.H
C:\USERS\NABIL\DOCUMENTS\VISUAL STUDIO 2015\PROJECTS\OPENGL 2D ENGINE\INCLUDES\SDL\INCLUDE\SDL_TOUCH.H
C:\USERS\NABIL\DOCUMENTS\VISUAL STUDIO 2015\PROJECTS\OPENGL 2D ENGINE\INCLUDES\SDL\INCLUDE\SDL_FILESYSTEM.H
C:\USERS\NABIL\DOCUMENTS\VISUAL STUDIO 2015\PROJECTS\OPENGL 2D ENGINE\INCLUDES\SDL\INCLUDE\SDL_HAPTIC.H
C:\USERS\NABIL\DOCUMENTS\VISUAL STUDIO 2015\PROJECTS\OPENGL 2D ENGINE\INCLUDES\SDL\INCLUDE\SDL_HINTS.H
C:\USERS\NABIL\DOCUMENTS\VISUAL STUDIO 2015\PROJECTS\OPENGL 2D ENGINE\INCLUDES\SDL\INCLUDE\SDL_LOADSO.H
C:\USERS\NABIL\DOCUMENTS\VISUAL STUDIO 2015\PROJECTS\OPENGL 2D ENGINE\INCLUDES\SDL\INCLUDE\SDL_LOG.H
C:\USERS\NABIL\DOCUMENTS\VISUAL STUDIO 2015\PROJECTS\OPENGL 2D ENGINE\INCLUDES\SDL\INCLUDE\SDL_MESSAGEBOX.H
C:\USERS\NABIL\DOCUMENTS\VISUAL STUDIO 2015\PROJECTS\OPENGL 2D ENGINE\INCLUDES\SDL\INCLUDE\SDL_POWER.H
C:\USERS\NABIL\DOCUMENTS\VISUAL STUDIO 2015\PROJECTS\OPENGL 2D ENGINE\INCLUDES\SDL\INCLUDE\SDL_RENDER.H
C:\USERS\NABIL\DOCUMENTS\VISUAL STUDIO 2015\PROJECTS\OPENGL 2D ENGINE\INCLUDES\SDL\INCLUDE\SDL_SYSTEM.H
C:\USERS\NABIL\DOCUMENTS\VISUAL STUDIO 2015\PROJECTS\OPENGL 2D ENGINE\INCLUDES\SDL\INCLUDE\SDL_TIMER.H
C:\USERS\NABIL\DOCUMENTS\VISUAL STUDIO 2015\PROJECTS\OPENGL 2D ENGINE\INCLUDES\SDL\INCLUDE\SDL_VERSION.H
