^C:\USERS\NABIL\DOCUMENTS\VISUAL STUDIO 2015\PROJECTS\OPENGL 2D ENGINE\BENGINE\CAMERA2D.CPP|C:\USERS\NABIL\DOCUMENTS\VISUAL STUDIO 2015\PROJECTS\OPENGL 2D ENGINE\BENGINE\ENGINE.CPP|C:\USERS\NABIL\DOCUMENTS\VISUAL STUDIO 2015\PROJECTS\OPENGL 2D ENGINE\BENGINE\ERRORSUITE.CPP|C:\USERS\NABIL\DOCUMENTS\VISUAL STUDIO 2015\PROJECTS\OPENGL 2D ENGINE\BENGINE\GLSLPROGRAM.CPP|C:\USERS\NABIL\DOCUMENTS\VISUAL STUDIO 2015\PROJECTS\OPENGL 2D ENGINE\BENGINE\IMAGELOADER.CPP|C:\USERS\NABIL\DOCUMENTS\VISUAL STUDIO 2015\PROJECTS\OPENGL 2D ENGINE\BENGINE\INPUTMANAGER.CPP|C:\USERS\NABIL\DOCUMENTS\VISUAL STUDIO 2015\PROJECTS\OPENGL 2D ENGINE\BENGINE\IOMANAGER.CPP|C:\USERS\NABIL\DOCUMENTS\VISUAL STUDIO 2015\PROJECTS\OPENGL 2D ENGINE\BENGINE\RESOURCEMANAGER.CPP|C:\USERS\NABIL\DOCUMENTS\VISUAL STUDIO 2015\PROJECTS\OPENGL 2D ENGINE\BENGINE\SPRITE.CPP|C:\USERS\NABIL\DOCUMENTS\VISUAL STUDIO 2015\PROJECTS\OPENGL 2D ENGINE\BENGINE\SPRITEBATCH.CPP|C:\USERS\NABIL\DOCUMENTS\VISUAL STUDIO 2015\PROJECTS\OPENGL 2D ENGINE\BENGINE\TEXTURECACHE.CPP|C:\USERS\NABIL\DOCUMENTS\VISUAL STUDIO 2015\PROJECTS\OPENGL 2D ENGINE\BENGINE\TIMING.CPP|C:\USERS\NABIL\DOCUMENTS\VISUAL STUDIO 2015\PROJECTS\OPENGL 2D ENGINE\BENGINE\WINDOW.CPP
C:\USERS\NABIL\DOCUMENTS\VISUAL STUDIO 2015\PROJECTS\OPENGL 2D ENGINE\BENGINE\DEBUG\BENGINE.PDB
C:\USERS\NABIL\DOCUMENTS\VISUAL STUDIO 2015\PROJECTS\OPENGL 2D ENGINE\BENGINE\DEBUG\BENGINE.IDB
C:\USERS\NABIL\DOCUMENTS\VISUAL STUDIO 2015\PROJECTS\OPENGL 2D ENGINE\BENGINE\DEBUG\CAMERA2D.OBJ
C:\USERS\NABIL\DOCUMENTS\VISUAL STUDIO 2015\PROJECTS\OPENGL 2D ENGINE\BENGINE\DEBUG\ENGINE.OBJ
C:\USERS\NABIL\DOCUMENTS\VISUAL STUDIO 2015\PROJECTS\OPENGL 2D ENGINE\BENGINE\DEBUG\ERRORSUITE.OBJ
C:\USERS\NABIL\DOCUMENTS\VISUAL STUDIO 2015\PROJECTS\OPENGL 2D ENGINE\BENGINE\DEBUG\GLSLPROGRAM.OBJ
C:\USERS\NABIL\DOCUMENTS\VISUAL STUDIO 2015\PROJECTS\OPENGL 2D ENGINE\BENGINE\DEBUG\IMAGELOADER.OBJ
C:\USERS\NABIL\DOCUMENTS\VISUAL STUDIO 2015\PROJECTS\OPENGL 2D ENGINE\BENGINE\DEBUG\INPUTMANAGER.OBJ
C:\USERS\NABIL\DOCUMENTS\VISUAL STUDIO 2015\PROJECTS\OPENGL 2D ENGINE\BENGINE\DEBUG\IOMANAGER.OBJ
C:\USERS\NABIL\DOCUMENTS\VISUAL STUDIO 2015\PROJECTS\OPENGL 2D ENGINE\BENGINE\DEBUG\RESOURCEMANAGER.OBJ
C:\USERS\NABIL\DOCUMENTS\VISUAL STUDIO 2015\PROJECTS\OPENGL 2D ENGINE\BENGINE\DEBUG\SPRITE.OBJ
C:\USERS\NABIL\DOCUMENTS\VISUAL STUDIO 2015\PROJECTS\OPENGL 2D ENGINE\BENGINE\DEBUG\SPRITEBATCH.OBJ
C:\USERS\NABIL\DOCUMENTS\VISUAL STUDIO 2015\PROJECTS\OPENGL 2D ENGINE\BENGINE\DEBUG\TEXTURECACHE.OBJ
C:\USERS\NABIL\DOCUMENTS\VISUAL STUDIO 2015\PROJECTS\OPENGL 2D ENGINE\BENGINE\DEBUG\TIMING.OBJ
C:\USERS\NABIL\DOCUMENTS\VISUAL STUDIO 2015\PROJECTS\OPENGL 2D ENGINE\BENGINE\DEBUG\WINDOW.OBJ
^C:\USERS\NABIL\DOCUMENTS\VISUAL STUDIO 2015\PROJECTS\OPENGL 2D ENGINE\BENGINE\CAMERA2D.CPP
C:\USERS\NABIL\DOCUMENTS\VISUAL STUDIO 2015\PROJECTS\OPENGL 2D ENGINE\BENGINE\DEBUG\BENGINE.PDB
C:\USERS\NABIL\DOCUMENTS\VISUAL STUDIO 2015\PROJECTS\OPENGL 2D ENGINE\BENGINE\DEBUG\BENGINE.IDB
C:\USERS\NABIL\DOCUMENTS\VISUAL STUDIO 2015\PROJECTS\OPENGL 2D ENGINE\BENGINE\DEBUG\CAMERA2D.OBJ
^C:\USERS\NABIL\DOCUMENTS\VISUAL STUDIO 2015\PROJECTS\OPENGL 2D ENGINE\BENGINE\ENGINE.CPP
C:\USERS\NABIL\DOCUMENTS\VISUAL STUDIO 2015\PROJECTS\OPENGL 2D ENGINE\BENGINE\DEBUG\BENGINE.PDB
^C:\USERS\NABIL\DOCUMENTS\VISUAL STUDIO 2015\PROJECTS\OPENGL 2D ENGINE\BENGINE\ERRORSUITE.CPP
C:\USERS\NABIL\DOCUMENTS\VISUAL STUDIO 2015\PROJECTS\OPENGL 2D ENGINE\BENGINE\DEBUG\BENGINE.PDB
^C:\USERS\NABIL\DOCUMENTS\VISUAL STUDIO 2015\PROJECTS\OPENGL 2D ENGINE\BENGINE\GLSLPROGRAM.CPP
C:\USERS\NABIL\DOCUMENTS\VISUAL STUDIO 2015\PROJECTS\OPENGL 2D ENGINE\BENGINE\DEBUG\BENGINE.PDB
^C:\USERS\NABIL\DOCUMENTS\VISUAL STUDIO 2015\PROJECTS\OPENGL 2D ENGINE\BENGINE\IMAGELOADER.CPP
C:\USERS\NABIL\DOCUMENTS\VISUAL STUDIO 2015\PROJECTS\OPENGL 2D ENGINE\BENGINE\DEBUG\BENGINE.PDB
^C:\USERS\NABIL\DOCUMENTS\VISUAL STUDIO 2015\PROJECTS\OPENGL 2D ENGINE\BENGINE\INPUTMANAGER.CPP
C:\USERS\NABIL\DOCUMENTS\VISUAL STUDIO 2015\PROJECTS\OPENGL 2D ENGINE\BENGINE\DEBUG\BENGINE.PDB
C:\USERS\NABIL\DOCUMENTS\VISUAL STUDIO 2015\PROJECTS\OPENGL 2D ENGINE\BENGINE\DEBUG\BENGINE.IDB
C:\USERS\NABIL\DOCUMENTS\VISUAL STUDIO 2015\PROJECTS\OPENGL 2D ENGINE\BENGINE\DEBUG\INPUTMANAGER.OBJ
^C:\USERS\NABIL\DOCUMENTS\VISUAL STUDIO 2015\PROJECTS\OPENGL 2D ENGINE\BENGINE\IOMANAGER.CPP
C:\USERS\NABIL\DOCUMENTS\VISUAL STUDIO 2015\PROJECTS\OPENGL 2D ENGINE\BENGINE\DEBUG\BENGINE.PDB
^C:\USERS\NABIL\DOCUMENTS\VISUAL STUDIO 2015\PROJECTS\OPENGL 2D ENGINE\BENGINE\RESOURCEMANAGER.CPP
C:\USERS\NABIL\DOCUMENTS\VISUAL STUDIO 2015\PROJECTS\OPENGL 2D ENGINE\BENGINE\DEBUG\BENGINE.PDB
^C:\USERS\NABIL\DOCUMENTS\VISUAL STUDIO 2015\PROJECTS\OPENGL 2D ENGINE\BENGINE\SPRITE.CPP
C:\USERS\NABIL\DOCUMENTS\VISUAL STUDIO 2015\PROJECTS\OPENGL 2D ENGINE\BENGINE\DEBUG\BENGINE.PDB
^C:\USERS\NABIL\DOCUMENTS\VISUAL STUDIO 2015\PROJECTS\OPENGL 2D ENGINE\BENGINE\SPRITEBATCH.CPP
C:\USERS\NABIL\DOCUMENTS\VISUAL STUDIO 2015\PROJECTS\OPENGL 2D ENGINE\BENGINE\DEBUG\BENGINE.PDB
^C:\USERS\NABIL\DOCUMENTS\VISUAL STUDIO 2015\PROJECTS\OPENGL 2D ENGINE\BENGINE\TEXTURECACHE.CPP
C:\USERS\NABIL\DOCUMENTS\VISUAL STUDIO 2015\PROJECTS\OPENGL 2D ENGINE\BENGINE\DEBUG\BENGINE.PDB
^C:\USERS\NABIL\DOCUMENTS\VISUAL STUDIO 2015\PROJECTS\OPENGL 2D ENGINE\BENGINE\TIMING.CPP
C:\USERS\NABIL\DOCUMENTS\VISUAL STUDIO 2015\PROJECTS\OPENGL 2D ENGINE\BENGINE\DEBUG\BENGINE.PDB
^C:\USERS\NABIL\DOCUMENTS\VISUAL STUDIO 2015\PROJECTS\OPENGL 2D ENGINE\BENGINE\WINDOW.CPP
C:\USERS\NABIL\DOCUMENTS\VISUAL STUDIO 2015\PROJECTS\OPENGL 2D ENGINE\BENGINE\DEBUG\BENGINE.PDB
C:\USERS\NABIL\DOCUMENTS\VISUAL STUDIO 2015\PROJECTS\OPENGL 2D ENGINE\BENGINE\DEBUG\BENGINE.IDB
C:\USERS\NABIL\DOCUMENTS\VISUAL STUDIO 2015\PROJECTS\OPENGL 2D ENGINE\BENGINE\DEBUG\WINDOW.OBJ
